9 0.716015625 0.506640625 0.10859375 0.10859375
9 0.398046875 0.358203125 0.0671875 0.1296875
0 0.434765625 0.856640625 0.0953125 0.134375
0 0.217578125 0.9703125 0.0703125 0.059375
8 0.23359375 0.570703125 0.046875 0.09765625
0 0.705078125 0.915625 0.06796875 0.0578125
1 0.326953125 0.72109375 0.08515625 0.08515625
8 0.615234375 0.53984375 0.05078125 0.0828125
8 0.555078125 0.7359375 0.04765625 0.08125
8 0.3796875 0.540625 0.0375 0.0828125
9 0.769921875 0.209765625 0.05390625 0.07109375
3 0.7078125 0.116015625 0.04375 0.11328125
9 0.23125 0.401953125 0.04296875 0.04296875
8 0.85546875 0.6234375 0.034375 0.034375
3 0.441796875 0.157421875 0.02734375 0.05546875
8 0.29140625 0.49375 0.05 0.05
3 0.3765625 0.058203125 0.0546875 0.0546875
2 0.783984375 0.34296875 0.0328125 0.0640625
8 0.75234375 0.641015625 0.05 0.05234375
1 0.41328125 0.70625 0.0359375 0.05625
8 0.53203125 0.41640625 0.028125 0.0671875
8 0.637109375 0.367578125 0.0390625 0.0390625
8 0.69140625 0.304296875 0.0359375 0.05078125
8 0.449609375 0.51171875 0.03671875 0.0859375
1 0.94375 0.954296875 0.08515625 0.08515625
9 0.81328125 0.051171875 0.0578125 0.10234375
3 0.65 0.0734375 0.059375 0.05859375
8 0.7765625 0.42265625 0.03125 0.03125
1 0.57734375 0.9859375 0.028125 0.028125
0 0.87421875 0.746484375 0.13203125 0.1328125
0 0.821484375 0.8 0.03203125 0.046875
0 0.505859375 0.76015625 0.01953125 0.0578125
0 0.4265625 0.775 0.025 0.025
0 0.3484375 0.801171875 0.02578125 0.02578125
9 0.49609375 0.65078125 0.05625 0.05625
9 0.425 0.64765625 0.05 0.05
2 0.4234375 0.16875 0.1671875 0.3375
2 0.71484375 0.93125 0.1515625 0.1375
9 0.494921875 0.151171875 0.0359375 0.0359375
1 0.662109375 0.963671875 0.0265625 0.05
1 0.70546875 0.122265625 0.0640625 0.18828125
1 0.645703125 0.105078125 0.1359375 0.1359375