3 0.31484375 0.48671875 0.0640625 0.1171875
1 0.444921875 0.13125 0.04140625 0.0421875
1 0.299609375 0.05703125 0.08828125 0.1046875
9 0.27734375 0.958984375 0.07265625 0.07265625
2 0.619921875 0.53671875 0.04296875 0.04375
3 0.375 0.61953125 0.0234375 0.0390625
3 0.56953125 0.78359375 0.06875 0.06875
7 0.7828125 0.533984375 0.046875 0.04609375
7 0.7078125 0.43984375 0.0265625 0.0421875
3 0.346484375 0.604296875 0.0453125 0.0453125
3 0.4390625 0.577734375 0.05625 0.12890625
7 0.759375 0.3625 0.028125 0.04375
1 0.790625 0.185546875 0.0171875 0.040625
9 0.639453125 0.97421875 0.06484375 0.0515625
0 0.335546875 0.6859375 0.0375 0.0375
7 0.664453125 0.30859375 0.03046875 0.0484375
9 0.50625 0.976953125 0.034375 0.04609375
4 0.28515625 0.271484375 0.3828125 0.25546875
1 0.590625 0.201953125 0.0515625 0.24609375
1 0.647265625 0.03828125 0.10390625 0.0765625
1 0.4875 0.032421875 0.1234375 0.059375
0 0.78984375 0.771484375 0.065625 0.14921875
0 0.600390625 0.891796875 0.04609375 0.04609375
0 0.572265625 0.881640625 0.01953125 0.05234375
2 0.773828125 0.93515625 0.11953125 0.1296875
2 0.730078125 0.5953125 0.0890625 0.08984375
2 0.558203125 0.524609375 0.228125 0.228125
2 0.433203125 0.75390625 0.08203125 0.0828125
2 0.255859375 0.596484375 0.1125 0.17109375
2 0.355859375 0.66484375 0.15859375 0.1578125
9 0.365625 0.8890625 0.028125 0.071875
2 0.725 0.78359375 0.021875 0.05
2 0.671484375 0.786328125 0.02734375 0.03984375
2 0.733984375 0.499609375 0.02109375 0.06640625
2 0.765234375 0.27265625 0.03359375 0.0734375
2 0.677734375 0.524609375 0.046875 0.046875