3 0.48671875 0.68515625 0.11796875 0.064453125
1 0.13125 0.555078125 0.058203125 0.025390625
1 0.05703125 0.700390625 0.1046875 0.087890625
9 0.958984375 0.72265625 0.078125 0.066796875
2 0.53671875 0.380078125 0.058203125 0.028515625
3 0.61953125 0.625 0.0390625 0.023046875
3 0.78359375 0.43046875 0.074609375 0.062109375
7 0.533984375 0.2171875 0.055078125 0.0375
7 0.43984375 0.2921875 0.04140625 0.026171875
3 0.604296875 0.653515625 0.053515625 0.0375
3 0.577734375 0.5609375 0.129296875 0.055859375
7 0.3625 0.240625 0.04296875 0.028515625
1 0.185546875 0.209375 0.040625 0.017578125
9 0.981640625 0.3609375 0.036328125 0.093359375
0 0.6859375 0.664453125 0.05078125 0.024609375
7 0.30859375 0.335546875 0.048046875 0.030859375
9 0.976953125 0.49375 0.04609375 0.034375
4 0.271484375 0.71484375 0.25546875 0.382421875
1 0.201953125 0.409375 0.245703125 0.0515625
1 0.03828125 0.352734375 0.0765625 0.103515625
1 0.032421875 0.5125 0.059375 0.123046875
0 0.771484375 0.21015625 0.148828125 0.066015625
0 0.891796875 0.399609375 0.051953125 0.03984375
0 0.881640625 0.427734375 0.051953125 0.019921875
2 0.93515625 0.226171875 0.129296875 0.119140625
2 0.5953125 0.269921875 0.094140625 0.084765625
2 0.524609375 0.441796875 0.28515625 0.171875
2 0.75390625 0.566796875 0.089453125 0.075390625
2 0.596484375 0.744140625 0.17109375 0.1125
2 0.66484375 0.644140625 0.21328125 0.103125
9 0.8890625 0.634375 0.071875 0.027734375
2 0.78359375 0.275 0.049609375 0.02109375
2 0.786328125 0.328515625 0.03984375 0.027734375
2 0.499609375 0.266015625 0.066796875 0.02109375
2 0.27265625 0.234765625 0.07421875 0.033203125
2 0.524609375 0.322265625 0.066796875 0.027734375