3 0.48671875 0.68515625 0.1171875 0.0640625
1 0.13125 0.555078125 0.0578125 0.02578125
1 0.05703125 0.700390625 0.096875 0.09609375
9 0.958984375 0.72265625 0.07265625 0.07265625
2 0.53671875 0.380078125 0.0578125 0.02890625
3 0.61953125 0.625 0.0390625 0.0234375
3 0.78359375 0.43046875 0.075 0.0625
7 0.533984375 0.2171875 0.05546875 0.0375
7 0.43984375 0.2921875 0.034375 0.034375
3 0.604296875 0.653515625 0.05390625 0.0375
3 0.577734375 0.5609375 0.12890625 0.05625
7 0.3625 0.240625 0.04375 0.028125
1 0.185546875 0.209375 0.040625 0.0171875
9 0.981640625 0.3609375 0.03671875 0.09375
0 0.6859375 0.664453125 0.0375 0.0375
7 0.30859375 0.335546875 0.0390625 0.03984375
9 0.976953125 0.49375 0.040625 0.040625
4 0.271484375 0.71484375 0.31875 0.31875
1 0.201953125 0.409375 0.1484375 0.1484375
1 0.03828125 0.352734375 0.0765625 0.10390625
1 0.0390625 0.512109375 0.078125 0.09140625
0 0.771484375 0.21015625 0.10703125 0.1078125
0 0.891796875 0.399609375 0.05234375 0.03984375
0 0.881640625 0.427734375 0.05234375 0.01953125
2 0.93515625 0.226171875 0.1296875 0.11953125
2 0.5953125 0.269921875 0.09375 0.08515625
2 0.524609375 0.441796875 0.28515625 0.171875
2 0.75390625 0.566796875 0.0890625 0.07578125
2 0.596484375 0.744140625 0.1421875 0.1421875
2 0.66484375 0.644140625 0.2140625 0.103125
9 0.8890625 0.634375 0.05 0.05
2 0.78359375 0.275 0.05 0.021875
2 0.786328125 0.328515625 0.03359375 0.03359375
2 0.499609375 0.266015625 0.04375 0.04375
2 0.27265625 0.234765625 0.0734375 0.03359375
2 0.524609375 0.322265625 0.06640625 0.02734375