3 0.48671875 0.68515625 0.090625 0.090625
1 0.13125 0.555078125 0.0578125 0.02578125
1 0.05703125 0.700390625 0.096875 0.09609375
9 0.958984375 0.72265625 0.078125 0.0671875
2 0.53671875 0.380078125 0.0578125 0.02890625
3 0.61953125 0.625 0.0390625 0.0234375
3 0.78359375 0.43046875 0.06875 0.06875
7 0.533984375 0.2171875 0.04609375 0.046875
7 0.43984375 0.2921875 0.0421875 0.0265625
3 0.604296875 0.653515625 0.05390625 0.0375
3 0.577734375 0.5609375 0.09296875 0.0921875
7 0.3625 0.240625 0.04375 0.028125
1 0.185546875 0.209375 0.040625 0.0171875
9 0.981640625 0.3609375 0.03671875 0.09375
0 0.6859375 0.664453125 0.05 0.02421875
7 0.30859375 0.335546875 0.0484375 0.03046875
9 0.976953125 0.49375 0.04609375 0.034375
4 0.271484375 0.71484375 0.31875 0.31875
1 0.201953125 0.409375 0.24609375 0.0515625
1 0.04140625 0.35234375 0.0828125 0.090625
1 0.0390625 0.512109375 0.078125 0.09140625
0 0.771484375 0.21015625 0.14921875 0.065625
0 0.891796875 0.399609375 0.04609375 0.04609375
0 0.881640625 0.427734375 0.05234375 0.01953125
2 0.93515625 0.226171875 0.1296875 0.11953125
2 0.5953125 0.269921875 0.08984375 0.0890625
2 0.524609375 0.441796875 0.228125 0.228125
2 0.75390625 0.566796875 0.0890625 0.07578125
2 0.596484375 0.744140625 0.17109375 0.1125
2 0.66484375 0.644140625 0.15859375 0.15859375
9 0.8890625 0.634375 0.05 0.05
2 0.78359375 0.275 0.05 0.021875
2 0.786328125 0.328515625 0.03984375 0.02734375
2 0.499609375 0.266015625 0.06640625 0.02109375
2 0.27265625 0.234765625 0.05390625 0.053125
2 0.524609375 0.322265625 0.06640625 0.02734375