9 0.728515625 0.422265625 0.07890625 0.08359375
0 0.75078125 0.54296875 0.0890625 0.0890625
0 0.405078125 0.055078125 0.02734375 0.04765625
3 0.508203125 0.01328125 0.02890625 0.0265625
3 0.651953125 0.1953125 0.05390625 0.059375
0 0.503515625 0.25390625 0.01875 0.01875
0 0.45546875 0.683984375 0.0234375 0.04296875
0 0.89453125 0.178515625 0.065625 0.13046875
0 0.469921875 0.467578125 0.10234375 0.140625
0 0.551171875 0.5234375 0.065625 0.1
0 0.837109375 0.3453125 0.04921875 0.0796875
0 0.38984375 0.597265625 0.0203125 0.03671875
0 0.68671875 0.29375 0.05546875 0.05546875
0 0.603515625 0.176953125 0.01015625 0.02109375
9 0.344921875 0.35859375 0.0953125 0.09609375
9 0.4375 0.270703125 0.0453125 0.0453125
9 0.533984375 0.441796875 0.0234375 0.0234375
9 0.6171875 0.54140625 0.0171875 0.0203125
2 0.407421875 0.61171875 0.17421875 0.3546875
2 0.50859375 0.142578125 0.09453125 0.09375
2 0.427734375 0.084375 0.1203125 0.16875
2 0.33671875 0.026953125 0.0625 0.05390625
2 0.876953125 0.408203125 0.12421875 0.24296875
2 0.82421875 0.018359375 0.0921875 0.03671875
2 0.575390625 0.0265625 0.0453125 0.0453125
2 0.818359375 0.190625 0.02265625 0.0515625
2 0.76484375 0.18984375 0.021875 0.0453125
4 0.515625 0.348828125 0.296875 0.3453125