9 0.577734375 0.728515625 0.08125 0.08125
0 0.45703125 0.75078125 0.0984375 0.0796875
0 0.944921875 0.405078125 0.04765625 0.02734375
3 0.9875 0.5078125 0.021875 0.0375
3 0.8046875 0.651953125 0.059375 0.05390625
0 0.74609375 0.503515625 0.01875 0.01875
0 0.316015625 0.45546875 0.0328125 0.03359375
0 0.821484375 0.89453125 0.09765625 0.0984375
0 0.532421875 0.469921875 0.140625 0.10234375
0 0.4765625 0.551171875 0.0828125 0.0828125
0 0.6546875 0.837109375 0.0796875 0.04921875
0 0.402734375 0.38984375 0.02890625 0.028125
0 0.70625 0.68671875 0.05546875 0.05546875
0 0.823046875 0.603515625 0.02109375 0.01015625
9 0.64140625 0.344921875 0.115625 0.07578125
9 0.729296875 0.4375 0.06015625 0.03125
9 0.558203125 0.533984375 0.02734375 0.01953125
9 0.45859375 0.6171875 0.01875 0.01875
2 0.38828125 0.407421875 0.3546875 0.17421875
2 0.857421875 0.50859375 0.09921875 0.0890625
2 0.915625 0.427734375 0.16875 0.1203125
2 0.9765625 0.336328125 0.046875 0.07734375
2 0.591796875 0.876953125 0.18359375 0.18359375
2 0.981640625 0.82421875 0.03671875 0.0921875
2 0.9734375 0.575390625 0.0453125 0.0453125
2 0.809375 0.818359375 0.0515625 0.02265625
2 0.81015625 0.76484375 0.03359375 0.03359375
4 0.651171875 0.515625 0.3453125 0.296875