9 0.2546875 0.433984375 0.090625 0.10078125
0 0.229296875 0.301171875 0.09453125 0.10859375
9 0.68515625 0.48125 0.078125 0.140625
0 0.446875 0.312109375 0.0984375 0.12421875
3 0.603125 0.95625 0.04375 0.05625
3 0.48359375 0.94609375 0.075 0.1078125
3 0.565625 0.9296875 0.03828125 0.03828125
3 0.32890625 0.69765625 0.07890625 0.07890625
0 0.611328125 0.8484375 0.03359375 0.05625
0 0.540234375 0.373046875 0.10234375 0.13671875
7 0.060546875 0.989453125 0.02421875 0.02109375
0 0.390625 0.71171875 0.025 0.05
0 0.06015625 0.7140625 0.0765625 0.165625
9 0.578125 0.5875 0.0375 0.0765625
9 0.408203125 0.477734375 0.01796875 0.03671875
9 0.38046875 0.2953125 0.0171875 0.0296875
9 0.4703125 0.4109375 0.028125 0.053125
9 0.10390625 0.42265625 0.03203125 0.03203125
2 0.140625 0.6953125 0.025 0.06875
2 0.20234375 0.698046875 0.034375 0.05078125
2 0.128125 0.937109375 0.1015625 0.12578125
2 0.49375 0.755078125 0.1078125 0.11328125
2 0.7140625 0.928515625 0.13828125 0.1390625
2 0.59296875 0.8609375 0.1375 0.278125
2 0.610546875 0.208203125 0.19453125 0.415625
2 0.08359375 0.45 0.1375 0.2765625
0 0.120703125 0.512890625 0.06640625 0.13125
0 0.29375 0.57578125 0.0484375 0.0640625
0 0.3265625 0.582421875 0.0265625 0.046875
2 0.3921875 0.924609375 0.1 0.15078125
3 0.129296875 0.96171875 0.05703125 0.05625
0 0.50078125 0.623828125 0.0203125 0.0390625
4 0.795703125 0.25703125 0.240625 0.3953125