10 0.12890625 0.6515625 0.021875 0.0390625
10 0.14765625 0.52265625 0.0375 0.0375
10 0.23046875 0.6453125 0.0140625 0.05
10 0.28515625 0.55390625 0.05390625 0.05390625
10 0.2515625 0.5125 0.0203125 0.0453125
10 0.3546875 0.58515625 0.0390625 0.0390625
10 0.34921875 0.46328125 0.0359375 0.0359375
10 0.421875 0.53515625 0.0375 0.0375
10 0.4875 0.56484375 0.0203125 0.046875
10 0.4234375 0.70234375 0.03125 0.05625
10 0.4578125 0.61484375 0.03203125 0.03203125
10 0.49375 0.73046875 0.025 0.0453125
10 0.54375 0.48046875 0.0375 0.0421875
10 0.6015625 0.51875 0.0296875 0.0578125
10 0.65625 0.5140625 0.03359375 0.03359375
10 0.6953125 0.5890625 0.0359375 0.0359375
10 0.75625 0.6796875 0.0359375 0.0671875
10 0.66640625 0.6765625 0.0234375 0.0359375
7 0.17578125 0.81015625 0.03125 0.040625
7 0.32109375 0.94140625 0.04140625 0.04140625
7 0.340625 0.7875 0.02265625 0.02265625
7 0.1921875 0.6453125 0.0390625 0.0390625
7 0.3671875 0.71015625 0.046875 0.046875
7 0.3609375 0.63046875 0.015625 0.04375
7 0.4609375 0.72890625 0.01875 0.0421875
7 0.51953125 0.646875 0.015625 0.03125
7 0.609375 0.765625 0.0296875 0.0421875
7 0.64140625 0.71640625 0.05625 0.034375
7 0.82890625 0.703125 0.0609375 0.06875
7 0.76328125 0.87265625 0.0203125 0.0359375
1 0.315625 0.03984375 0.021875 0.0375
1 0.7078125 0.02578125 0.04921875 0.04921875
6 0.1203125 0.29609375 0.0234375 0.05
6 0.2640625 0.2453125 0.03125 0.0734375
6 0.4421875 0.32265625 0.0453125 0.0453125
6 0.4515625 0.49375 0.0265625 0.046875
6 0.5078125 0.3609375 0.01875 0.0375
6 0.60625 0.4359375 0.0453125 0.06875
6 0.6078125 0.603125 0.0234375 0.0328125
6 0.69375 0.30859375 0.05859375 0.05859375
6 0.78359375 0.54609375 0.0453125 0.075
6 0.878125 0.5703125 0.0609375 0.0609375
6 0.88046875 0.3796875 0.04296875 0.04296875
6 0.6 0.271875 0.0234375 0.03125
6 0.4984375 0.17890625 0.05 0.0734375
6 0.3984375 0.184375 0.028125 0.028125
6 0.3234375 0.09765625 0.04375 0.0703125
0 0.88203125 0.11484375 0.0625 0.0625
0 0.60546875 0.1734375 0.0890625 0.075
0 0.42109375 0.39765625 0.090625 0.0734375
0 0.30859375 0.375 0.1140625 0.1296875
0 0.2078125 0.39609375 0.1125 0.0921875
0 0.455859375 0.046875 0.09765625 0.09375
0 0.3859375 0.07578125 0.121875 0.121875
5 0.38046875 0.89921875 0.0421875 0.053125
5 0.4125 0.92421875 0.04140625 0.04140625
5 0.46875 0.8421875 0.0265625 0.0328125
5 0.52578125 0.79921875 0.05234375 0.05234375
5 0.5671875 0.9546875 0.06328125 0.06328125
5 0.640625 0.88359375 0.028125 0.040625
5 0.675 0.878125 0.046875 0.05625
5 0.7046875 0.92109375 0.0546875 0.0671875
5 0.7625 0.82578125 0.046875 0.0546875
5 0.796875 0.98359375 0.05 0.0328125
5 0.859375 0.97578125 0.059375 0.0484375
5 0.91171875 0.8921875 0.0421875 0.08125
2 0.86796875 0.203125 0.0375 0.053125
2 0.765625 0.2125 0.028125 0.0375
2 0.63125 0.220703125 0.0328125 0.04453125
2 0.853125 0.615625 0.03984375 0.03984375
2 0.761328125 0.630078125 0.03203125 0.03203125
2 0.66328125 0.637109375 0.0359375 0.0359375