7 0.71875 0.975 0.046875 0.05
7 0.5984375 0.89296875 0.046875 0.0765625
7 0.55859375 0.95546875 0.0484375 0.0671875
7 0.5046875 0.7875 0.04375 0.06875
7 0.43125 0.8609375 0.05234375 0.05234375
7 0.3859375 0.803125 0.0515625 0.065625
7 0.2453125 0.88203125 0.053125 0.053125
7 0.290625 0.93515625 0.0515625 0.084375
7 0.14609375 0.89921875 0.03984375 0.03984375
7 0.090625 0.84375 0.0390625 0.0390625
7 0.0421875 0.78203125 0.0234375 0.040625
7 0.0421875 0.98046875 0.034375 0.0390625
5 0.89765625 0.98671875 0.0546875 0.0265625
3 0.8828125 0.79921875 0.0796875 0.0890625
3 0.78515625 0.85859375 0.0609375 0.0875
3 0.72109375 0.65390625 0.0828125 0.059375
3 0.65859375 0.8140625 0.071875 0.06875
3 0.46875 0.90390625 0.1125 0.140625
3 0.33828125 0.934375 0.034375 0.0515625
3 0.37890625 0.73828125 0.0375 0.0375
3 0.41328125 0.5703125 0.0625 0.0640625
3 0.33125 0.63046875 0.0578125 0.075
3 0.24453125 0.6453125 0.0390625 0.0515625
3 0.18203125 0.53359375 0.078125 0.11875
3 0.05 0.4828125 0.0859375 0.0890625
3 0.56796875 0.55078125 0.053125 0.053125
10 0.90390625 0.7328125 0.03359375 0.03359375
10 0.85078125 0.540625 0.0328125 0.040625
10 0.7109375 0.45625 0.0234375 0.034375
10 0.52109375 0.35625 0.059375 0.0546875
1 0.828125 0.36015625 0.065625 0.0875
1 0.6984375 0.3640625 0.1109375 0.13125
1 0.5734375 0.47734375 0.03203125 0.03203125
1 0.5171875 0.47109375 0.04375 0.04375
1 0.365625 0.24921875 0.0671875 0.05
1 0.03125 0.35390625 0.05078125 0.05078125
1 0.24375 0.09609375 0.0546875 0.0296875
2 0.85859375 0.591796875 0.0546875 0.04921875
2 0.7578125 0.595703125 0.0421875 0.0421875
2 0.651171875 0.609375 0.04921875 0.05625
2 0.612890625 0.518359375 0.21953125 0.21953125
2 0.433203125 0.45390625 0.09609375 0.0953125
2 0.7890625 0.15625 0.0359375 0.0375
2 0.7046875 0.15546875 0.0375 0.03828125
2 0.604296875 0.145703125 0.046875 0.03515625
2 0.475 0.130078125 0.2 0.20078125
2 0.14453125 0.28671875 0.2890625 0.2859375