3 0.2328125 0.02265625 0.0859375 0.040625
3 0.128125 0.09609375 0.1203125 0.071875
3 0.2921875 0.315625 0.059375 0.0390625
3 0.08046875 0.28828125 0.090625 0.05
3 0.05078125 0.41328125 0.05625 0.053125
3 0.16484375 0.5203125 0.0796875 0.0578125
3 0.121875 0.58828125 0.0265625 0.0296875
3 0.2296875 0.684375 0.0515625 0.028125
3 0.02265625 0.74921875 0.0453125 0.0625
3 0.171875 0.825 0.040625 0.028125
3 0.08046875 0.9828125 0.0890625 0.034375
7 0.2953125 0.9375 0.04375 0.034375
7 0.34453125 0.784375 0.0359375 0.0234375
7 0.40546875 0.65390625 0.0484375 0.040625
7 0.375 0.4234375 0.0734375 0.0484375
7 0.41875 0.484375 0.090625 0.0453125
7 0.25859375 0.265625 0.05 0.0234375
7 0.16171875 0.16015625 0.03125 0.025
7 0.31953125 0.0890625 0.04375 0.05
7 0.546875 0.07734375 0.059375 0.0375
7 0.4671875 0.146875 0.0515625 0.0421875
7 0.5921875 0.2875 0.09375 0.0703125
7 0.61015625 0.1921875 0.0515625 0.0453125
7 0.5453125 0.375 0.053125 0.0390625
7 0.58359375 0.50859375 0.0625 0.0453125
7 0.56796875 0.59765625 0.0671875 0.0453125
7 0.69140625 0.4296875 0.0359375 0.03125
7 0.721875 0.61484375 0.0453125 0.04375
7 0.58828125 0.753125 0.046875 0.025
7 0.5375 0.9890625 0.0359375 0.021875
7 0.45546875 0.00546875 0.0421875 0.0109375
7 0.340625 0.0046875 0.0515625 0.009375
9 0.60078125 0.86796875 0.0515625 0.0359375
9 0.35234375 0.84375 0.0578125 0.0296875
9 0.33359375 0.725 0.0484375 0.05
9 0.2421875 0.62734375 0.0671875 0.04375
9 0.290625 0.47890625 0.040625 0.028125
9 0.17265625 0.39453125 0.0953125 0.0671875
9 0.3359375 0.20078125 0.046875 0.0265625
9 0.36796875 0.0390625 0.0375 0.01875
9 0.3953125 0.1125 0.0453125 0.0359375
9 0.46171875 0.1015625 0.0328125 0.025
9 0.42421875 0.31328125 0.1 0.04375
9 0.40625 0.371875 0.053125 0.0265625
9 0.4625 0.65078125 0.04375 0.015625
9 0.471875 0.53671875 0.071875 0.05625
9 0.615625 0.4375 0.0640625 0.034375
9 0.73359375 0.3234375 0.0375 0.0234375
9 0.72109375 0.1234375 0.0359375 0.0328125
9 0.55625 0.2203125 0.0421875 0.0265625
9 0.61015625 0.00390625 0.046875 0.0078125
10 0.76171875 0.9046875 0.0546875 0.0421875
10 0.88515625 0.8109375 0.05625 0.0375
10 0.5609375 0.8 0.0453125 0.034375
10 0.6453125 0.7609375 0.0578125 0.03125
10 0.7 0.7078125 0.0796875 0.0578125
10 0.80234375 0.62578125 0.0875 0.05
10 0.68359375 0.47421875 0.1296875 0.0484375
10 0.571875 0.34765625 0.046875 0.0296875
10 0.7390625 0.275 0.0453125 0.0328125
10 0.65703125 0.11171875 0.0359375 0.021875
10 0.7109375 0.0703125 0.0703125 0.01875
10 0.68125 0.0578125 0.05 0.03125
10 0.7515625 0.01171875 0.04375 0.0234375
10 0.909375 0.00546875 0.0375 0.0109375
10 0.98984375 0.1515625 0.0203125 0.040625
10 0.8875 0.30078125 0.075 0.0625
10 0.7890625 0.3859375 0.0546875 0.03125
8 0.90625 0.45546875 0.046875 0.0359375
8 0.915625 0.06015625 0.071875 0.040625
8 0.9921875 0.61328125 0.015625 0.053125