1 0.90625 0.12578125 0.06796875 0.06796875
1 0.7890625 0.05390625 0.04375 0.06875
1 0.6171875 0.06796875 0.06015625 0.06015625
1 0.48046875 0.06640625 0.0359375 0.04375
1 0.4171875 0.06875 0.0421875 0.05625
1 0.14609375 0.09453125 0.04453125 0.04453125
3 0.05859375 0.34375 0.06015625 0.06015625
3 0.20859375 0.42421875 0.0328125 0.05
3 0.29609375 0.22265625 0.1390625 0.1390625
3 0.48984375 0.16328125 0.03671875 0.03671875
3 0.7765625 0.1421875 0.065625 0.065625
3 0.91640625 0.40234375 0.096875 0.096875
3 0.98515625 0.50390625 0.0296875 0.0890625
3 0.8546875 0.2703125 0.04375 0.04375
3 0.60625 0.2390625 0.040625 0.046875
3 0.72578125 0.35859375 0.065625 0.1125
3 0.6046875 0.3265625 0.0421875 0.0671875
3 0.6953125 0.55703125 0.04609375 0.04609375
3 0.49609375 0.42734375 0.0625 0.071875
3 0.43203125 0.39765625 0.040625 0.0578125
3 0.33984375 0.49140625 0.0421875 0.046875
7 0.01171875 0.78671875 0.0234375 0.0421875
7 0.0859375 0.54921875 0.034375 0.034375
7 0.13828125 0.6796875 0.0296875 0.0296875
7 0.25078125 0.84296875 0.02734375 0.02734375
7 0.2328125 0.59375 0.015625 0.0328125
7 0.36015625 0.6625 0.059375 0.059375
7 0.409375 0.821875 0.0359375 0.059375
7 0.38984375 0.9921875 0.034375 0.015625
7 0.5890625 0.9734375 0.03046875 0.03046875
7 0.7375 0.865625 0.065625 0.090625
7 0.8375 0.8890625 0.04765625 0.04765625
7 0.959375 0.83046875 0.05078125 0.05078125
7 0.92734375 0.59375 0.0390625 0.0515625
7 0.88671875 0.73671875 0.05078125 0.05078125
7 0.79765625 0.67421875 0.0234375 0.0296875
7 0.74765625 0.528125 0.03125 0.0421875
7 0.64609375 0.80390625 0.0453125 0.0625
7 0.50546875 0.85546875 0.04765625 0.04765625
7 0.53671875 0.6734375 0.040625 0.0734375
7 0.5890625 0.63125 0.0703125 0.075
9 0.013671875 0.512109375 0.02734375 0.03359375
9 0.1734375 0.603125 0.025 0.040625
9 0.12421875 0.8609375 0.03828125 0.03828125
9 0.29375 0.584375 0.05078125 0.05078125
9 0.3953125 0.496875 0.04609375 0.04609375
9 0.5359375 0.5484375 0.03984375 0.03984375
9 0.625 0.4375 0.08671875 0.08671875
9 0.703125 0.68828125 0.0671875 0.0671875
9 0.82578125 0.59609375 0.05 0.05
9 0.90703125 0.671875 0.04375 0.0609375
9 0.9296875 0.72890625 0.0296875 0.040625
9 0.98203125 0.64296875 0.0359375 0.0421875
9 0.58125 0.88671875 0.0484375 0.0484375
9 0.48046875 0.73125 0.0578125 0.078125
9 0.646875 0.66875 0.04140625 0.04140625
9 0.8125 0.83203125 0.0390625 0.0390625
10 0.2015625 0.81875 0.0421875 0.0578125
10 0.2375 0.90703125 0.0390625 0.053125
10 0.28671875 0.9625 0.06953125 0.06953125
10 0.5421875 0.94921875 0.04375 0.1015625
10 0.671875 0.84765625 0.0359375 0.05625
10 0.92421875 0.94609375 0.021875 0.04375
10 0.9828125 0.97265625 0.03125 0.0546875