6 0.13671875 0.875 0.059375 0.0875
6 0.13203125 0.70078125 0.0328125 0.096875
6 0.134375 0.51484375 0.028125 0.096875
6 0.09453125 0.52109375 0.03671875 0.03671875
6 0.11484375 0.38515625 0.0265625 0.0359375
6 0.1171875 0.3390625 0.03125 0.0453125
6 0.04140625 0.3296875 0.07734375 0.07734375
6 0.01953125 0.065625 0.0390625 0.059375
3 0.265625 0.9921875 0.03125 0.015625
3 0.36015625 0.90859375 0.01875 0.021875
3 0.27734375 0.803125 0.025 0.034375
3 0.215625 0.68359375 0.02734375 0.02734375
3 0.30390625 0.7234375 0.0171875 0.0234375
3 0.35390625 0.6046875 0.0265625 0.0390625
3 0.2078125 0.553125 0.0171875 0.0328125
3 0.325 0.5078125 0.0234375 0.028125
3 0.34921875 0.4453125 0.028125 0.0265625
3 0.2109375 0.30390625 0.0578125 0.0828125
3 0.34453125 0.28046875 0.0265625 0.0234375
1 0.234375 0.40859375 0.028125 0.059375
1 0.325 0.5671875 0.02421875 0.02421875
1 0.4109375 0.8765625 0.1 0.1
1 0.53359375 0.48515625 0.0328125 0.05
1 0.69453125 0.5375 0.03125 0.03125
1 0.6359375 0.8328125 0.0515625 0.0515625
9 0.425 0.0484375 0.0640625 0.084375
9 0.4359375 0.31875 0.040625 0.040625
9 0.40859375 0.36171875 0.040625 0.040625
9 0.34453125 0.403125 0.040625 0.040625
9 0.496875 0.4 0.0265625 0.0546875
9 0.47109375 0.4921875 0.04296875 0.04296875
9 0.5296875 0.56875 0.0296875 0.0640625
9 0.50234375 0.6515625 0.040625 0.05
9 0.5296875 0.6984375 0.0515625 0.0515625
9 0.4390625 0.72578125 0.0515625 0.0546875
9 0.4421875 0.76875 0.04453125 0.04453125
9 0.3890625 0.80390625 0.053125 0.053125
5 0.59609375 0.98125 0.03515625 0.03515625
5 0.53515625 0.8203125 0.0484375 0.0484375
5 0.7234375 0.76640625 0.0546875 0.075
5 0.7328125 0.67578125 0.0640625 0.0703125
5 0.59296875 0.571875 0.0265625 0.0265625
5 0.5625 0.534375 0.0234375 0.0296875
5 0.5578125 0.33046875 0.025 0.0390625
5 0.59765625 0.43984375 0.021875 0.025
5 0.61875 0.16875 0.021875 0.021875
5 0.68359375 0.1734375 0.02734375 0.02734375
5 0.81171875 0.4046875 0.06796875 0.06796875
5 0.8125 0.346875 0.0453125 0.0921875
5 0.85390625 0.25390625 0.10625 0.1234375
7 0.8609375 0.6875 0.10625 0.10625
7 0.61171875 0.25390625 0.0953125 0.1296875
7 0.59375 0.096875 0.08125 0.0921875
7 0.96953125 0.29765625 0.0609375 0.0859375
2 0.796875 0.9765625 0.0453125 0.040625
2 0.796875 0.894921875 0.0421875 0.0484375
2 0.479296875 0.896484375 0.034375 0.03515625
2 0.47734375 0.776171875 0.034375 0.04921875
2 0.216015625 0.96171875 0.03359375 0.03125
2 0.20234375 0.8921875 0.034375 0.034375
2 0.2046875 0.814453125 0.028125 0.03515625
2 0.184765625 0.176171875 0.21875 0.21875
2 0.57109375 0.410546875 0.1328125 0.125
2 0.557421875 0.197265625 0.30625 0.30625