0 0.26953125 0.2734375 0.0171875 0.03125
0 0.41875 0.39609375 0.0203125 0.0484375
0 0.60234375 0.34375 0.0578125 0.0578125
0 0.6828125 0.50703125 0.05 0.1046875
0 0.76796875 0.50703125 0.06484375 0.06484375
0 0.82109375 0.69296875 0.0609375 0.0609375
0 0.890625 0.62265625 0.04375 0.0875
0 0.95546875 0.83359375 0.084375 0.084375
0 0.6734375 0.9171875 0.028125 0.059375
0 0.66015625 0.7046875 0.0203125 0.059375
0 0.61328125 0.5171875 0.04140625 0.04140625
0 0.61796875 0.6421875 0.028125 0.028125
0 0.62109375 0.71328125 0.021875 0.040625
0 0.54140625 0.70546875 0.0296875 0.0546875
0 0.53046875 0.51953125 0.0421875 0.115625
0 0.46328125 0.64140625 0.040625 0.075
0 0.4203125 0.58828125 0.0703125 0.0703125
0 0.33515625 0.70703125 0.05703125 0.05703125
0 0.29609375 0.57890625 0.08125 0.08125
0 0.26171875 0.52109375 0.0234375 0.0453125
0 0.2625 0.45 0.0234375 0.0671875
0 0.21171875 0.65078125 0.0265625 0.0640625
0 0.1796875 0.51640625 0.0390625 0.0390625
0 0.09296875 0.58828125 0.0375 0.0375
0 0.125 0.71015625 0.01875 0.0625
0 0.0828125 0.7109375 0.028125 0.065625
6 0.2875 0.8890625 0.20078125 0.20078125
6 0.41953125 0.8546875 0.090625 0.1828125
6 0.8390625 0.85703125 0.0921875 0.153125
6 0.96328125 0.55234375 0.0671875 0.128125
6 0.91015625 0.5171875 0.090625 0.090625
6 0.58125 0.8109375 0.1453125 0.1140625
6 0.475 0.7328125 0.12109375 0.12109375
6 0.26875 0.33671875 0.1015625 0.125
6 0.671875 0.215625 0.1296875 0.109375
5 0.44296875 0.06171875 0.0203125 0.0421875
1 0.684375 0.04375 0.0203125 0.0546875
9 0.89921875 0.12890625 0.0390625 0.075
9 0.815625 0.04453125 0.05 0.08125
9 0.753125 0.08671875 0.06015625 0.06015625
9 0.69296875 0.1328125 0.0265625 0.0265625
9 0.63515625 0.28671875 0.01875 0.0515625
9 0.65234375 0.08828125 0.03515625 0.03515625
9 0.61484375 0.046875 0.0203125 0.046875
9 0.515625 0.08828125 0.015625 0.05
9 0.56171875 0.23515625 0.0171875 0.0359375
9 0.384375 0.04453125 0.0328125 0.0765625
9 0.35 0.05078125 0.0296875 0.0578125
9 0.12421875 0.1828125 0.02578125 0.02578125
3 0.90859375 0.22265625 0.05 0.1140625
3 0.8578125 0.3921875 0.05390625 0.05390625
3 0.8359375 0.22890625 0.034375 0.065625
3 0.77890625 0.28125 0.04765625 0.04765625
3 0.71484375 0.40390625 0.0421875 0.0703125
3 0.60625 0.45859375 0.05078125 0.05078125
3 0.596875 0.23828125 0.0421875 0.06875
3 0.55859375 0.13046875 0.0421875 0.1015625
3 0.5203125 0.2328125 0.0328125 0.05625
3 0.4890625 0.2921875 0.034375 0.0625
3 0.49140625 0.4546875 0.0421875 0.1375
3 0.4140625 0.15859375 0.0375 0.103125
3 0.42109375 0.28671875 0.071875 0.1203125
3 0.37890625 0.45703125 0.0953125 0.0953125
3 0.30625 0.2296875 0.0890625 0.0890625
3 0.21796875 0.45 0.0578125 0.1390625
3 0.1515625 0.28125 0.0828125 0.1390625
3 0.16484375 0.07421875 0.0734375 0.1375
2 0.9375 0.169140625 0.03984375 0.03984375
2 0.8734375 0.166796875 0.04765625 0.04765625
2 0.802734375 0.177734375 0.0453125 0.05703125
2 0.9453125 0.75625 0.0515625 0.05078125
2 0.869921875 0.761328125 0.05546875 0.0625