10 0.08359375 0.84296875 0.1671875 0.0703125
10 0.08125 0.775 0.075 0.0296875
10 0.25546875 0.7546875 0.1015625 0.05
10 0.1953125 0.60234375 0.1078125 0.046875
10 0.1078125 0.5078125 0.06328125 0.06328125
10 0.23359375 0.39921875 0.09375 0.0390625
1 0.78515625 0.80546875 0.0546875 0.03125
1 0.9453125 0.7765625 0.04765625 0.04765625
1 0.9796875 0.53046875 0.040625 0.0515625
1 0.67421875 0.2734375 0.078125 0.0359375
1 0.7328125 0.18984375 0.090625 0.0359375
1 0.61015625 0.078125 0.10078125 0.10078125
1 0.5046875 0.45625 0.0390625 0.0390625
1 0.68046875 0.6234375 0.08828125 0.08828125
0 0.43515625 0.18203125 0.1171875 0.05
0 0.8984375 0.29140625 0.1 0.1
0 0.66640625 0.421875 0.1140625 0.0640625
0 0.46953125 0.56875 0.13046875 0.13046875
0 0.93125 0.69765625 0.09609375 0.09609375
0 0.5109375 0.690625 0.090625 0.0734375
0 0.7203125 0.94375 0.04453125 0.04453125
0 0.41953125 0.9265625 0.03359375 0.03359375
0 0.41796875 0.89140625 0.0609375 0.028125
6 0.75546875 0.528125 0.04765625 0.04765625
6 0.57109375 0.6296875 0.075 0.028125
6 0.5390625 0.7609375 0.06875 0.01875
6 0.49921875 0.93203125 0.05625 0.05625
6 0.21796875 0.84765625 0.0484375 0.0484375
6 0.38671875 0.646875 0.05390625 0.05390625
6 0.19140625 0.684375 0.053125 0.053125
6 0.12578125 0.63984375 0.06328125 0.06328125
6 0.30234375 0.503125 0.06171875 0.06171875
6 0.49609375 0.315625 0.2046875 0.0984375
6 0.3109375 0.25390625 0.06875 0.0609375
6 0.11875 0.36875 0.0546875 0.0359375
6 0.06328125 0.1203125 0.09140625 0.09140625
3 0.128125 0.70546875 0.0515625 0.0234375
3 0.3140625 0.60859375 0.0453125 0.0203125
3 0.06875 0.675 0.04375 0.01875
3 0.04921875 0.540625 0.046875 0.034375
3 0.05703125 0.40859375 0.040625 0.040625
3 0.03046875 0.365625 0.05 0.0328125
3 0.03671875 0.3 0.05625 0.0390625
2 0.239453125 0.099609375 0.04375 0.04375
2 0.230859375 0.19453125 0.05234375 0.0390625
2 0.2328125 0.292578125 0.0515625 0.03671875
2 0.551953125 0.109375 0.34765625 0.1671875
2 0.963671875 0.025390625 0.07265625 0.04296875
2 0.97265625 0.13046875 0.0546875 0.0515625
2 0.97578125 0.25390625 0.0484375 0.0703125
2 0.6421875 0.61640625 0.5109375 0.309375
2 0.098828125 0.361328125 0.19765625 0.23984375