0 0.9328125 0.27265625 0.08125 0.08125
0 0.8015625 0.09765625 0.06484375 0.06484375
0 0.64296875 0.32890625 0.0859375 0.075
0 0.5828125 0.11015625 0.0609375 0.0609375
0 0.46015625 0.1578125 0.1078125 0.140625
0 0.38359375 0.21875 0.12890625 0.12890625
0 0.35078125 0.1171875 0.0546875 0.0671875
0 0.28203125 0.5546875 0.1328125 0.171875
0 0.41484375 0.584375 0.08984375 0.08984375
0 0.15078125 0.58359375 0.1296875 0.1296875
3 0.265625 0.06328125 0.04921875 0.04921875
1 0.74609375 0.16796875 0.0390625 0.071875
1 0.665625 0.11484375 0.05703125 0.05703125
1 0.41953125 0.0203125 0.0453125 0.040625
1 0.3046875 0.178125 0.021875 0.0390625
1 0.17109375 0.06015625 0.025 0.040625
1 0.25546875 0.0140625 0.0265625 0.0265625
6 0.0515625 0.4640625 0.03125 0.0640625
6 0.23515625 0.3984375 0.0546875 0.071875
6 0.30859375 0.23671875 0.0546875 0.0546875
6 0.39296875 0.34140625 0.021875 0.0390625
6 0.50625 0.33359375 0.05 0.0703125
6 0.4453125 0.4875 0.05625 0.0859375
6 0.5203125 0.5390625 0.0234375 0.034375
6 0.45 0.7046875 0.03671875 0.03671875
6 0.62421875 0.4375 0.03046875 0.03046875
6 0.73125 0.48359375 0.0546875 0.090625
6 0.62890625 0.63046875 0.0671875 0.0671875
6 0.6390625 0.83671875 0.021875 0.046875
6 0.84453125 0.76171875 0.0453125 0.0734375
6 0.95546875 0.7921875 0.071875 0.071875
6 0.9375 0.56640625 0.0453125 0.0453125
10 0.0671875 0.75078125 0.0359375 0.0546875
10 0.0328125 0.92578125 0.04609375 0.04609375
10 0.1609375 0.90625 0.0296875 0.0421875
10 0.24765625 0.78359375 0.0421875 0.0828125
10 0.20390625 0.73515625 0.028125 0.0421875
10 0.325 0.671875 0.034375 0.05625
10 0.33046875 0.825 0.053125 0.053125
10 0.409375 0.76171875 0.03125 0.0515625
10 0.49609375 0.79921875 0.0375 0.053125
10 0.453125 0.8671875 0.0296875 0.05625
10 0.41328125 0.96640625 0.04453125 0.04453125
10 0.5609375 0.6890625 0.04609375 0.04609375
10 0.63984375 0.73125 0.046875 0.0546875
10 0.70078125 0.73046875 0.0390625 0.0578125
10 0.73984375 0.82109375 0.053125 0.0640625
10 0.82109375 0.92578125 0.06796875 0.06796875
7 0.11328125 0.90625 0.0359375 0.0546875
7 0.33828125 0.97109375 0.059375 0.0578125
7 0.33125 0.87890625 0.04140625 0.04140625
7 0.53125 0.89609375 0.0296875 0.028125
7 0.67578125 0.9796875 0.1 0.040625
7 0.90859375 0.9609375 0.096875 0.0765625
2 0.919921875 0.373046875 0.04296875 0.04296875
2 0.81171875 0.38203125 0.04765625 0.046875
2 0.666796875 0.386328125 0.05234375 0.0453125
2 0.925390625 0.854296875 0.0359375 0.03515625
2 0.82109375 0.86640625 0.0421875 0.0421875
2 0.709375 0.894921875 0.0578125 0.05390625