0 0.3125 0.12421875 0.065625 0.065625
0 0.2015625 0.25234375 0.0703125 0.1
0 0.8875 0.04296875 0.1 0.08125
0 0.8078125 0.3234375 0.0703125 0.0703125
0 0.6671875 0.50625 0.0421875 0.0453125
0 0.4171875 0.60703125 0.075 0.109375
5 0.24375 0.3171875 0.034375 0.0390625
5 0.27265625 0.53125 0.0890625 0.1234375
5 0.18828125 0.6109375 0.0359375 0.0359375
5 0.33203125 0.6546875 0.028125 0.0453125
5 0.48203125 0.5 0.1125 0.0703125
5 0.56015625 0.821875 0.13125 0.0578125
5 0.31953125 0.98125 0.034375 0.034375
10 0.3046875 0.38359375 0.04609375 0.04609375
10 0.153125 0.70625 0.0359375 0.046875
10 0.25546875 0.76328125 0.0265625 0.0546875
10 0.3703125 0.60703125 0.03984375 0.03984375
10 0.51640625 0.29609375 0.0421875 0.0578125
10 0.67421875 0.10703125 0.04375 0.05625
10 0.74921875 0.35625 0.04375 0.0515625
10 0.9203125 0.334375 0.0578125 0.0625
10 0.98671875 0.329296875 0.0265625 0.03359375
10 0.7609375 0.59453125 0.053125 0.0484375
10 0.68359375 0.65625 0.0421875 0.0421875
10 0.48359375 0.71484375 0.053125 0.0421875
10 0.68359375 0.7109375 0.0375 0.040625
10 0.5234375 0.65546875 0.028125 0.0546875
7 0.89296875 0.68828125 0.0484375 0.0859375
7 0.72890625 0.8296875 0.05859375 0.05859375
7 0.64453125 0.7625 0.02890625 0.02890625
7 0.68671875 0.94609375 0.0484375 0.0484375
7 0.475 0.93515625 0.053125 0.0765625
7 0.396875 0.934375 0.053125 0.06875
7 0.2421875 0.87421875 0.0265625 0.0453125
2 0.93125 0.440234375 0.046875 0.0484375
2 0.8734375 0.958203125 0.053125 0.053125
2 0.734375 0.947265625 0.05625 0.05390625
2 0.840234375 0.634375 0.25390625 0.2546875
2 0.71171875 0.378515625 0.221875 0.29140625
2 0.490625 0.306640625 0.225 0.14453125
2 0.4859375 0.2171875 0.12734375 0.12734375