7 0.05234375 0.696875 0.0703125 0.0703125
7 0.1484375 0.5390625 0.0765625 0.0765625
7 0.18046875 0.48203125 0.0765625 0.1140625
7 0.15234375 0.38359375 0.17734375 0.17734375
7 0.3828125 0.21484375 0.165625 0.115625
7 0.37734375 0.1578125 0.059375 0.021875
7 0.050390625 0.02890625 0.06484375 0.0578125
7 0.40078125 0.04453125 0.046875 0.0359375
7 0.34140625 0.0125 0.03125 0.025
8 0.23515625 0.87265625 0.071875 0.0453125
8 0.60546875 0.9 0.0875 0.0921875
8 0.80390625 0.93828125 0.05546875 0.05546875
8 0.8484375 0.75234375 0.0765625 0.065625
8 0.65859375 0.64140625 0.059375 0.0546875
8 0.4109375 0.70703125 0.046875 0.03125
8 0.48984375 0.59296875 0.0453125 0.0421875
8 0.7203125 0.57265625 0.065625 0.05
8 0.703125 0.4484375 0.0359375 0.0359375
8 0.4453125 0.48046875 0.05625 0.0578125
8 0.01796875 0.4515625 0.0359375 0.0296875
8 0.06484375 0.31328125 0.0515625 0.0390625
8 0.134375 0.21484375 0.0609375 0.0375
8 0.053125 0.2234375 0.10625 0.10625
8 0.103125 0.0640625 0.09375 0.09375
8 0.49453125 0.0296875 0.046875 0.04375
8 0.50625 0.07890625 0.0390625 0.0296875
8 0.56015625 0.0140625 0.05 0.028125
8 0.6734375 0.034375 0.0234375 0.0234375
8 0.4859375 0.203125 0.02734375 0.02734375
8 0.38984375 0.11640625 0.0390625 0.03125
8 0.68046875 0.12578125 0.0546875 0.034375
8 0.66015625 0.15625 0.05625 0.0453125
8 0.52890625 0.18984375 0.0375 0.040625
8 0.71015625 0.26015625 0.0703125 0.0453125
8 0.83359375 0.28671875 0.03125 0.03125
8 0.63984375 0.375 0.0359375 0.03125
8 0.43671875 0.3078125 0.04453125 0.04453125
8 0.49921875 0.4 0.05390625 0.05390625
0 0.7 0.93359375 0.0765625 0.078125
0 0.49921875 0.89921875 0.053125 0.0515625
0 0.728125 0.7546875 0.06171875 0.06171875
0 0.9515625 0.7375 0.05 0.034375
0 0.84765625 0.54375 0.04375 0.028125
0 0.48515625 0.65 0.0703125 0.0703125
0 0.43203125 0.41796875 0.053125 0.034375
0 0.74765625 0.47890625 0.08125 0.0671875
0 0.934375 0.359375 0.07578125 0.07578125
0 0.9515625 0.30546875 0.0484375 0.0484375
0 0.84375 0.22890625 0.07578125 0.07578125
0 0.8484375 0.15859375 0.0453125 0.03125
0 0.89296875 0.084375 0.0359375 0.0296875
0 0.741796875 0.020703125 0.05078125 0.04140625
0 0.57265625 0.12734375 0.04375 0.0328125
0 0.68203125 0.06015625 0.028125 0.01875
0 0.6171875 0.13671875 0.0421875 0.046875
0 0.6171875 0.20625 0.046875 0.046875
0 0.578125 0.2640625 0.0328125 0.03125
0 0.49140625 0.29921875 0.0390625 0.0296875
0 0.77265625 0.38359375 0.0421875 0.0359375