9 0.61875 0.63125 0.0546875 0.0484375
9 0.4265625 0.65390625 0.0515625 0.0609375
9 0.13125 0.509375 0.0546875 0.053125
9 0.0375 0.8734375 0.0453125 0.04375
9 0.0875 0.3765625 0.0640625 0.065625
9 0.32265625 0.37890625 0.0484375 0.0484375
9 0.3015625 0.50234375 0.03828125 0.03828125
9 0.72421875 0.28359375 0.05078125 0.05078125
9 0.63515625 0.4171875 0.028125 0.034375
9 0.7625 0.6328125 0.02734375 0.02734375
9 0.80390625 0.40390625 0.04375 0.053125
9 0.94453125 0.2796875 0.0453125 0.0796875
10 0.40234375 0.9796875 0.0515625 0.034375
10 0.315625 0.98984375 0.0546875 0.0203125
3 0.60703125 0.8578125 0.040625 0.046875
3 0.1234375 0.9328125 0.040625 0.053125
0 0.60859375 0.97421875 0.0390625 0.0484375
0 0.675 0.8984375 0.0453125 0.059375
0 0.8234375 0.7390625 0.0375 0.05
0 0.93125 0.621875 0.08125 0.1140625
0 0.3515625 0.78984375 0.08671875 0.08671875
0 0.1875 0.60625 0.053125 0.059375
0 0.50859375 0.67734375 0.05703125 0.05703125
10 0.91796875 0.93515625 0.1375 0.1296875
8 0.7890625 0.1640625 0.0328125 0.034375
8 0.57109375 0.16875 0.05 0.046875
8 0.7890625 0.07578125 0.05625 0.053125
8 0.43203125 0.04140625 0.046875 0.04375
8 0.41640625 0.28515625 0.028125 0.028125
8 0.34921875 0.26328125 0.0390625 0.0421875
8 0.2421875 0.384375 0.04453125 0.04453125
8 0.1796875 0.15546875 0.053125 0.0484375
8 0.26484375 0.04609375 0.0265625 0.0296875
8 0.02890625 0.02109375 0.03515625 0.03515625
8 0.03671875 0.29921875 0.040625 0.0515625
1 0.01796875 0.147265625 0.0359375 0.04765625
1 0.221875 0.01875 0.0453125 0.0375
1 0.34296875 0.1578125 0.1390625 0.1578125
1 0.43984375 0.5515625 0.0625 0.05625
1 0.48984375 0.36328125 0.04453125 0.04453125
1 0.6421875 0.35859375 0.0359375 0.046875
1 0.72421875 0.41171875 0.0421875 0.0421875
1 0.72421875 0.0515625 0.04296875 0.04296875
1 0.934375 0.1515625 0.078125 0.109375