7 0.1765625 0.8875 0.0359375 0.0359375
7 0.1203125 0.8171875 0.0765625 0.0609375
7 0.38515625 0.77578125 0.0828125 0.0546875
7 0.33828125 0.665625 0.07265625 0.07265625
7 0.5453125 0.6625 0.06015625 0.06015625
7 0.54921875 0.54609375 0.06484375 0.06484375
7 0.61484375 0.51015625 0.07578125 0.07578125
7 0.4390625 0.3703125 0.04375 0.04375
7 0.23125 0.3703125 0.05234375 0.05234375
7 0.0671875 0.4125 0.03984375 0.03984375
7 0.1078125 0.45078125 0.0375 0.0265625
0 0.9203125 0.84609375 0.1265625 0.1234375
0 0.6515625 0.91640625 0.103125 0.103125
0 0.884375 0.69921875 0.1578125 0.09375
0 0.6546875 0.6328125 0.0640625 0.0640625
0 0.71171875 0.5578125 0.065625 0.0625
0 0.9203125 0.38203125 0.1109375 0.08125
0 0.73125 0.26484375 0.071875 0.071875
0 0.646875 0.21015625 0.0546875 0.0359375
0 0.7515625 0.06171875 0.0421875 0.0328125
0 0.746875 0.3328125 0.0375 0.0296875
10 0.4953125 0.13671875 0.040625 0.040625
10 0.54921875 0.28046875 0.0375 0.0203125
10 0.5484375 0.31015625 0.04921875 0.04921875
10 0.6515625 0.33671875 0.0671875 0.040625
10 0.65546875 0.3984375 0.03046875 0.03046875
10 0.6578125 0.46640625 0.06875 0.0359375
10 0.8734375 0.5109375 0.075 0.0453125
10 0.815625 0.61953125 0.053125 0.0484375
10 0.82109375 0.66171875 0.05078125 0.05078125
10 0.60546875 0.775 0.053125 0.0515625
10 0.4953125 0.953125 0.065625 0.0421875
10 0.3875 0.85234375 0.0390625 0.0359375
10 0.546875 0.7359375 0.0578125 0.0578125
10 0.33359375 0.70390625 0.0515625 0.0375
10 0.5953125 0.6203125 0.0390625 0.0390625
10 0.440625 0.54765625 0.0421875 0.0421875
1 0.1671875 0.66484375 0.0515625 0.05
1 0.32421875 0.54453125 0.0828125 0.0578125
1 0.2734375 0.46796875 0.0359375 0.0359375
1 0.10546875 0.65859375 0.0703125 0.0625
1 0.06796875 0.4734375 0.08125 0.059375
1 0.19609375 0.24765625 0.0421875 0.028125
7 0.1609375 0.296875 0.0328125 0.0328125
5 0.4453125 0.2828125 0.0390625 0.0390625
5 0.28984375 0.028125 0.05 0.0296875
5 0.078125 0.14375 0.134375 0.0953125
5 0.14140625 0.33125 0.0375 0.0375
5 0.0328125 0.44140625 0.0328125 0.0375
2 0.28828125 0.96171875 0.0453125 0.0375
2 0.28046875 0.893359375 0.0359375 0.03671875
2 0.230078125 0.816796875 0.0453125 0.03359375
2 0.815234375 0.96171875 0.05703125 0.0453125
2 0.815234375 0.887109375 0.0484375 0.0296875
2 0.81171875 0.814453125 0.046875 0.046875
2 0.331640625 0.215234375 0.0890625 0.0890625
2 0.189453125 0.08515625 0.09609375 0.0953125