6 0.83671875 0.121875 0.0296875 0.0203125
6 0.89453125 0.18515625 0.0359375 0.028125
6 0.853125 0.33984375 0.034375 0.0234375
6 0.9484375 0.37265625 0.0625 0.0484375
6 0.88671875 0.42890625 0.065625 0.04375
6 0.7671875 0.5375 0.06875 0.05625
6 0.94296875 0.49609375 0.0390625 0.01875
6 0.984375 0.57890625 0.03125 0.0453125
6 0.99140625 0.66484375 0.0171875 0.0296875
6 0.9421875 0.70078125 0.0578125 0.0578125
6 0.965625 0.86328125 0.0484375 0.0484375
0 0.984375 0.4515625 0.03125 0.028125
0 0.94375 0.03046875 0.1078125 0.0609375
0 0.83359375 0.88828125 0.2078125 0.1359375
0 0.701953125 0.9671875 0.08515625 0.065625
0 0.61953125 0.6359375 0.1 0.1
0 0.71640625 0.30078125 0.1140625 0.109375
10 0.7671875 0.13359375 0.1015625 0.1015625
10 0.621875 0.0921875 0.1109375 0.0796875
10 0.60859375 0.22890625 0.1 0.0765625
10 0.76484375 0.346875 0.0515625 0.028125
10 0.5671875 0.34140625 0.0609375 0.0609375
10 0.56171875 0.38828125 0.0859375 0.0515625
10 0.6140625 0.459375 0.0296875 0.0171875
10 0.46796875 0.3546875 0.13125 0.1015625
10 0.5109375 0.46015625 0.034375 0.034375
10 0.6109375 0.49375 0.02890625 0.02890625
10 0.671875 0.503125 0.08125 0.0671875
10 0.59921875 0.53203125 0.096875 0.03125
10 0.66875 0.57421875 0.0796875 0.0796875
10 0.4359375 0.5421875 0.0265625 0.03125
10 0.565625 0.66953125 0.0484375 0.0484375
10 0.55234375 0.709375 0.084375 0.0515625
10 0.60546875 0.753125 0.0890625 0.0546875
10 0.5265625 0.8390625 0.0609375 0.0609375
7 0.159375 0.8859375 0.0953125 0.09375
7 0.18671875 0.621875 0.0984375 0.075
7 0.18203125 0.55234375 0.090625 0.08125
2 0.4765625 0.876953125 0.0296875 0.0328125
2 0.475 0.77421875 0.04375 0.0453125
2 0.473828125 0.667578125 0.028125 0.028125
2 0.603515625 0.94375 0.0703125 0.0703125
2 0.776953125 0.7109375 0.19296875 0.1890625
2 0.535546875 0.540625 0.20703125 0.11875
2 0.32109375 0.24140625 0.0734375 0.190625
2 0.302734375 0.3578125 0.06796875 0.0734375
2 0.2890625 0.286328125 0.10078125 0.08984375
2 0.112890625 0.223046875 0.07578125 0.17578125
2 0.328125 0.44609375 0.0734375 0.0734375
2 0.292578125 0.416796875 0.06171875 0.06171875
2 0.310546875 0.552734375 0.19765625 0.19765625
2 0.326171875 0.767578125 0.171875 0.171875
2 0.317578125 0.85078125 0.05078125 0.05
2 0.314453125 0.739453125 0.08515625 0.08515625