5 0.22109375 0.65859375 0.028125 0.028125
5 0.459375 0.60859375 0.021875 0.034375
5 0.5015625 0.75546875 0.08125 0.065625
5 0.34140625 0.85703125 0.03125 0.021875
5 0.67890625 0.65546875 0.071875 0.059375
5 0.73203125 0.6875 0.0671875 0.053125
5 0.8078125 0.559375 0.0203125 0.021875
5 0.7390625 0.47109375 0.028125 0.021875
5 0.67265625 0.44453125 0.015625 0.021875
5 0.71953125 0.40078125 0.028125 0.0125
5 0.75546875 0.32109375 0.0171875 0.021875
5 0.72109375 0.35703125 0.0125 0.0109375
5 0.76328125 0.1734375 0.0671875 0.06875
0 0.04921875 0.12265625 0.0984375 0.065625
0 0.0390625 0.36640625 0.06875 0.059375
0 0.0109375 0.4296875 0.021875 0.059375
0 0.04296875 0.72578125 0.0484375 0.03125
10 0.178125 0.1015625 0.0546875 0.040625
10 0.2625 0.196875 0.034375 0.0234375
10 0.08515625 0.24453125 0.0578125 0.0390625
10 0.134375 0.28046875 0.0640625 0.0390625
10 0.30703125 0.31640625 0.03125 0.025
10 0.084375 0.37734375 0.0359375 0.028125
10 0.21953125 0.43984375 0.04375 0.0234375
10 0.03515625 0.51015625 0.0703125 0.03125
10 0.0390625 0.5703125 0.0375 0.01875
10 0.03828125 0.62265625 0.0609375 0.0296875
10 0.17890625 0.78203125 0.040625 0.03125
10 0.1359375 0.66484375 0.0234375 0.015625
10 0.1375 0.63984375 0.059375 0.03125
7 0.43046875 0.18125 0.0390625 0.0359375
7 0.465625 0.24375 0.046875 0.0453125
7 0.26796875 0.26015625 0.071875 0.0421875
7 0.30703125 0.3515625 0.0703125 0.0421875
7 0.13828125 0.346875 0.0734375 0.0421875
7 0.13046875 0.4390625 0.0640625 0.0453125
7 0.08046875 0.47265625 0.0640625 0.0421875
7 0.2234375 0.58828125 0.053125 0.0515625
7 0.3875 0.5875 0.034375 0.0375
7 0.4421875 0.63671875 0.0265625 0.021875
1 0.69765625 0.22578125 0.0671875 0.0546875
1 0.81796875 0.1921875 0.040625 0.0328125
1 0.628125 0.30390625 0.0703125 0.0703125
1 0.621875 0.39375 0.028125 0.025
1 0.5828125 0.43828125 0.0203125 0.01875
1 0.478125 0.3546875 0.05 0.0421875
1 0.43125 0.35234375 0.046875 0.04375
1 0.3140625 0.4421875 0.0734375 0.04375
1 0.35703125 0.50703125 0.0328125 0.0234375
1 0.50234375 0.50234375 0.05625 0.040625
7 0.50703125 0.553125 0.0421875 0.028125
1 0.4125 0.6765625 0.034375 0.025
1 0.58828125 0.7734375 0.0375 0.025
1 0.7890625 0.78671875 0.0578125 0.0328125
1 0.74921875 0.628125 0.034375 0.0390625
9 0.81796875 0.17265625 0.0265625 0.021875
9 0.83515625 0.24609375 0.0390625 0.03125
9 0.78515625 0.2875 0.046875 0.025
9 0.81640625 0.3421875 0.04375 0.0484375
9 0.846875 0.3890625 0.028125 0.025
9 0.81640625 0.40859375 0.025 0.01875
9 0.790625 0.434375 0.0296875 0.0328125
9 0.82578125 0.5078125 0.0296875 0.021875
9 0.76484375 0.4828125 0.028125 0.0265625
9 0.90625 0.48046875 0.0296875 0.021875
9 0.92734375 0.434375 0.0203125 0.015625
9 0.61953125 0.46015625 0.0265625 0.0265625
9 0.64609375 0.509375 0.046875 0.0328125
9 0.76796875 0.55703125 0.0265625 0.0171875
9 0.70390625 0.53125 0.028125 0.025
9 0.63984375 0.584375 0.0359375 0.028125
9 0.5515625 0.63828125 0.028125 0.025
9 0.68125 0.609375 0.028125 0.0109375
9 0.58671875 0.69375 0.03125 0.0203125
9 0.61328125 0.6671875 0.03125 0.025
9 0.7203125 0.740625 0.0203125 0.0140625
9 0.725 0.79453125 0.0234375 0.0203125
9 0.7546875 0.7640625 0.025 0.0171875
9 0.9046875 0.77734375 0.028125 0.01875
9 0.8109375 0.6296875 0.0390625 0.015625
9 0.8015625 0.60078125 0.0421875 0.028125
3 0.8890625 0.253125 0.04375 0.03125
3 0.89296875 0.296875 0.03125 0.025
3 0.96953125 0.29921875 0.034375 0.0296875
3 0.91875 0.3421875 0.0390625 0.0234375
3 0.97265625 0.3890625 0.034375 0.03125
3 0.8484375 0.4796875 0.0484375 0.0328125
3 0.9015625 0.45859375 0.0515625 0.025
3 0.9078125 0.50703125 0.0296875 0.0265625
3 0.9421875 0.5296875 0.0421875 0.034375
3 0.99296875 0.53046875 0.0140625 0.0390625
3 0.8546875 0.58125 0.034375 0.028125
3 0.91796875 0.6484375 0.065625 0.0453125
3 0.88515625 0.578125 0.0328125 0.0375
3 0.9421875 0.57578125 0.0765625 0.0578125
3 0.95 0.7453125 0.0796875 0.065625
3 0.84375 0.753125 0.0765625 0.0546875
6 0.97734375 0.66796875 0.0453125 0.0671875
6 0.8921875 0.40625 0.0578125 0.0953125
0 0.959375 0.45703125 0.0390625 0.025
0 0.99453125 0.57890625 0.0109375 0.0171875
2 0.34375 0.109375 0.033984375 0.037109375
2 0.34296875 0.1734375 0.035546875 0.025390625
2 0.3921875 0.230859375 0.03984375 0.02421875
2 0.861328125 0.223828125 0.026953125 0.021484375
2 0.862890625 0.267578125 0.02421875 0.0296875
2 0.869140625 0.316015625 0.025390625 0.018359375
2 0.314453125 0.71171875 0.066796875 0.05390625
2 0.4125 0.8109375 0.0640625 0.0484375
2 0.5859375 0.78203125 0.10078125 0.0921875