7 0.7890625 0.3984375 0.1484375 0.11875
7 0.6921875 0.66015625 0.0546875 0.0625
7 0.60234375 0.66171875 0.065625 0.065625
7 0.640625 0.49296875 0.03203125 0.03203125
7 0.4859375 0.54609375 0.034375 0.0359375
7 0.3578125 0.7734375 0.04375 0.05625
7 0.40390625 0.665625 0.0328125 0.053125
7 0.44296875 0.83671875 0.02734375 0.02734375
7 0.18984375 0.93203125 0.0484375 0.0515625
7 0.14921875 0.6109375 0.0296875 0.0515625
7 0.06640625 0.66953125 0.03359375 0.03359375
7 0.8546875 0.70859375 0.01875 0.03125
3 0.18203125 0.2046875 0.0515625 0.0515625
3 0.296875 0.1265625 0.059375 0.0546875
3 0.49375 0.2609375 0.05625 0.053125
3 0.7984375 0.2484375 0.040625 0.05
3 0.9296875 0.05703125 0.0640625 0.08125
5 0.11171875 0.55546875 0.05 0.0703125
5 0.1578125 0.38984375 0.0484375 0.075
5 0.40859375 0.22109375 0.03125 0.03125
5 0.58046875 0.2375 0.0296875 0.046875
5 0.36171875 0.49921875 0.0921875 0.1265625
5 0.52421875 0.77421875 0.1234375 0.053125
5 0.784375 0.940625 0.0390625 0.0390625
5 0.77109375 0.6015625 0.0359375 0.0359375
5 0.953515625 0.9890625 0.02578125 0.021875
10 0.98203125 0.8828125 0.034375 0.034375
10 0.85625 0.828125 0.034375 0.034375
10 0.743359375 0.9921875 0.02265625 0.015625
10 0.6078125 0.88515625 0.0359375 0.0546875
10 0.56796875 0.94609375 0.04453125 0.04453125
10 0.39921875 0.89609375 0.034375 0.0421875
10 0.39765625 0.953125 0.04375 0.04375
1 0.80390625 0.125 0.12109375 0.12109375
1 0.61484375 0.0546875 0.028125 0.0515625
1 0.53359375 0.19375 0.0328125 0.0359375
1 0.56171875 0.007421875 0.01875 0.01484375
1 0.46640625 0.01875 0.03671875 0.03671875
1 0.38125 0.0421875 0.0421875 0.0421875
1 0.12578125 0.1609375 0.0609375 0.05
0 0.684375 0.96875 0.0734375 0.0625
2 0.10234375 0.728125 0.0546875 0.0640625
2 0.228125 0.665625 0.046875 0.046875
2 0.359375 0.6546875 0.0421875 0.065625
2 0.04765625 0.044921875 0.05 0.05546875
2 0.185546875 0.021484375 0.04609375 0.04296875