6 0.16328125 0.878125 0.0296875 0.0203125
6 0.10546875 0.81484375 0.0359375 0.028125
6 0.146875 0.66015625 0.034375 0.0234375
6 0.0515625 0.62734375 0.0625 0.0484375
6 0.11328125 0.57109375 0.065625 0.04375
6 0.2328125 0.4625 0.06875 0.05625
6 0.05703125 0.50390625 0.0390625 0.01875
6 0.015625 0.42109375 0.03125 0.0453125
6 0.00859375 0.33515625 0.0171875 0.0296875
6 0.0578125 0.29921875 0.0625 0.053125
6 0.034375 0.13671875 0.0578125 0.0390625
0 0.015625 0.5484375 0.03125 0.028125
0 0.05625 0.96953125 0.1078125 0.0609375
0 0.16640625 0.11171875 0.2078125 0.1359375
0 0.2984375 0.0234375 0.1234375 0.046875
0 0.38046875 0.3640625 0.121875 0.078125
0 0.28359375 0.69921875 0.1140625 0.109375
10 0.2328125 0.86640625 0.121875 0.08125
10 0.378125 0.9078125 0.1109375 0.0796875
10 0.39140625 0.77109375 0.1 0.0765625
10 0.23515625 0.653125 0.0515625 0.028125
10 0.4328125 0.65859375 0.0734375 0.0484375
10 0.43828125 0.61171875 0.0859375 0.0515625
10 0.3859375 0.540625 0.0296875 0.0171875
10 0.53203125 0.6453125 0.13125 0.1015625
10 0.4890625 0.53984375 0.0453125 0.0234375
10 0.3890625 0.50625 0.0390625 0.01875
10 0.328125 0.496875 0.08125 0.0671875
10 0.40078125 0.46796875 0.096875 0.03125
10 0.33125 0.42578125 0.1015625 0.0578125
10 0.5640625 0.4578125 0.0265625 0.03125
10 0.434375 0.33046875 0.0578125 0.0390625
10 0.44765625 0.290625 0.084375 0.0515625
10 0.39453125 0.246875 0.0890625 0.0546875
10 0.4734375 0.1609375 0.06875 0.053125
7 0.840625 0.1140625 0.0953125 0.09375
7 0.81328125 0.378125 0.0984375 0.075
7 0.81796875 0.44765625 0.090625 0.08125
2 0.5234375 0.123046875 0.0296875 0.0328125
2 0.525 0.22578125 0.044140625 0.0453125
2 0.526171875 0.332421875 0.02421875 0.03125
2 0.396484375 0.05625 0.059765625 0.080859375
2 0.223046875 0.2890625 0.193359375 0.1890625
2 0.464453125 0.459375 0.207421875 0.11796875
2 0.67890625 0.75859375 0.073828125 0.190234375
2 0.697265625 0.6421875 0.068359375 0.073828125
2 0.7109375 0.713671875 0.10078125 0.089453125
2 0.887109375 0.776953125 0.075390625 0.176171875
2 0.671875 0.55390625 0.073828125 0.073828125
2 0.707421875 0.583203125 0.0765625 0.046875
2 0.689453125 0.447265625 0.112109375 0.283984375
2 0.673828125 0.232421875 0.0921875 0.2515625
2 0.682421875 0.14921875 0.046875 0.05390625
2 0.685546875 0.260546875 0.058203125 0.112109375