3 0.03515625 0.88046875 0.046875 0.034375
3 0.10546875 0.7859375 0.0484375 0.0328125
3 0.159375 0.83125 0.04375 0.021875
3 0.16796875 0.74140625 0.03125 0.0234375
3 0.29140625 0.78515625 0.040625 0.025
3 0.3515625 0.740625 0.0375 0.034375
3 0.29765625 0.69609375 0.0390625 0.0296875
3 0.4640625 0.7015625 0.046875 0.028125
3 0.47109375 0.61640625 0.0359375 0.0234375
3 0.303125 0.61171875 0.0390625 0.028125
3 0.128125 0.56328125 0.05 0.03125
3 0.034375 0.56015625 0.03125 0.0265625
3 0.028125 0.59453125 0.0171875 0.0265625
3 0.09140625 0.3890625 0.040625 0.0296875
3 0.259375 0.48359375 0.09375 0.053125
3 0.36875 0.5296875 0.034375 0.0203125
3 0.43046875 0.40859375 0.0484375 0.03125
3 0.3828125 0.32109375 0.071875 0.05
3 0.4375 0.28671875 0.0765625 0.053125
3 0.28828125 0.228125 0.0765625 0.046875
3 0.28125 0.184375 0.0921875 0.0703125
3 0.178125 0.09140625 0.090625 0.0625
6 0.2875 0.4296875 0.053125 0.0328125
6 0.41640625 0.5390625 0.053125 0.0453125
6 0.38046875 0.60625 0.1359375 0.1125
6 0.55 0.78203125 0.05 0.0375
6 0.64609375 0.815625 0.1140625 0.059375
6 0.65390625 0.59375 0.1296875 0.0921875
6 0.7390625 0.45859375 0.125 0.1015625
6 0.65390625 0.31171875 0.0546875 0.08125
6 0.3921875 0.203125 0.0515625 0.0421875
0 0.8609375 0.09296875 0.1296875 0.096875
0 0.83046875 0.434375 0.0546875 0.040625
0 0.9609375 0.62890625 0.0421875 0.040625
0 0.8140625 0.81796875 0.1484375 0.0953125
10 0.93046875 0.29140625 0.0328125 0.028125
2 0.345703125 0.109375 0.052734375 0.033984375
2 0.3296875 0.275390625 0.059765625 0.051171875
2 0.7515625 0.2328125 0.056640625 0.037109375
2 0.7515625 0.349609375 0.065234375 0.051171875