1 0.36796875 0.91484375 0.0359375 0.053125
1 0.35859375 0.98828125 0.0203125 0.0234375
1 0.923828125 0.980078125 0.04140625 0.03984375
10 0.23984375 0.95703125 0.046875 0.06875
10 0.3890625 0.95703125 0.03125 0.040625
10 0.4265625 0.88125 0.0296875 0.0515625
10 0.4546875 0.88359375 0.03671875 0.03671875
10 0.540625 0.85390625 0.034375 0.040625
10 0.596875 0.9453125 0.0296875 0.0453125
10 0.62578125 0.90546875 0.0328125 0.0375
10 0.7203125 0.80078125 0.040625 0.040625
10 0.7765625 0.84140625 0.0390625 0.05625
10 0.7796875 0.92890625 0.0484375 0.0484375
10 0.728515625 0.985546875 0.03046875 0.02890625
10 0.8578125 0.9765625 0.0328125 0.046875
10 0.9203125 0.93828125 0.0328125 0.0546875
7 0.24140625 0.8390625 0.03125 0.0453125
7 0.26484375 0.684375 0.034375 0.071875
7 0.2703125 0.7953125 0.028125 0.0375
7 0.42109375 0.9234375 0.01875 0.01875
7 0.6 0.66171875 0.0296875 0.0390625
7 0.58359375 0.57265625 0.025 0.040625
7 0.6921875 0.62734375 0.0296875 0.0296875
7 0.690625 0.73515625 0.03203125 0.03203125
7 0.83984375 0.67421875 0.0203125 0.0296875
7 0.8671875 0.74765625 0.025 0.025
7 0.934375 0.64375 0.02109375 0.02109375
7 0.40625 0.48046875 0.03125 0.0265625
7 0.4359375 0.44375 0.0265625 0.034375
7 0.47734375 0.53046875 0.0203125 0.034375
7 0.46015625 0.653125 0.0203125 0.0203125
7 0.46171875 0.72421875 0.0171875 0.0234375
7 0.75078125 0.5578125 0.01875 0.0234375
7 0.81328125 0.521875 0.0203125 0.0203125
7 0.32265625 0.59609375 0.05078125 0.05078125
7 0.35703125 0.5953125 0.04375 0.0453125
7 0.60390625 0.40078125 0.0203125 0.021875
7 0.6625 0.40234375 0.02109375 0.02109375
5 0.1390625 0.6609375 0.04296875 0.04296875
5 0.23046875 0.571875 0.034375 0.0390625
5 0.22265625 0.5375 0.040625 0.04375
5 0.35546875 0.67109375 0.0171875 0.021875
5 0.34921875 0.6421875 0.03125 0.0453125
5 0.38046875 0.63359375 0.0328125 0.046875
5 0.41171875 0.66015625 0.01875 0.0296875
5 0.34453125 0.4453125 0.03125 0.0484375
5 0.46796875 0.7828125 0.0671875 0.0734375
5 0.59921875 0.78671875 0.05 0.0671875
5 0.5859375 0.6265625 0.05 0.0421875
5 0.91328125 0.440625 0.03125 0.03125
5 0.68671875 0.28671875 0.0328125 0.03125
5 0.6859375 0.25 0.0328125 0.034375
5 0.95078125 0.1578125 0.0234375 0.0296875
3 0.77890625 0.515625 0.046875 0.0625
3 0.6625 0.48046875 0.0734375 0.115625
3 0.66015625 0.6984375 0.078125 0.084375
3 0.54765625 0.6890625 0.0703125 0.078125
3 0.5109375 0.5328125 0.0234375 0.040625
3 0.3453125 0.3859375 0.03359375 0.03359375
3 0.37890625 0.51640625 0.03984375 0.03984375
3 0.38046875 0.55546875 0.0203125 0.03125
3 0.26171875 0.56875 0.0375 0.059375
3 0.20625 0.73046875 0.028125 0.0671875
3 0.16328125 0.57734375 0.078125 0.10625
0 0.96015625 0.10625 0.03125 0.0453125
0 0.9 0.24296875 0.0265625 0.0359375
0 0.86796875 0.203125 0.021875 0.0375
0 0.79609375 0.24453125 0.02578125 0.02578125
0 0.728125 0.2796875 0.0171875 0.028125
0 0.76953125 0.1640625 0.0265625 0.0265625
0 0.84140625 0.1125 0.028125 0.04375
0 0.70625 0.08203125 0.0234375 0.034375
0 0.66796875 0.1734375 0.0390625 0.0875
0 0.6328125 0.178125 0.040625 0.075
0 0.6046875 0.29921875 0.025 0.04375
0 0.5734375 0.3390625 0.01875 0.0390625
0 0.5703125 0.1421875 0.034375 0.05
0 0.5015625 0.15703125 0.01875 0.0390625
0 0.54296875 0.27421875 0.04609375 0.04609375
0 0.5046875 0.284375 0.06875 0.0703125
0 0.42109375 0.340625 0.053125 0.065625
0 0.44140625 0.1953125 0.0421875 0.0875
0 0.3921875 0.2890625 0.0484375 0.0484375
0 0.31875 0.25625 0.06875 0.1
9 0.24140625 0.1125 0.0375 0.0375
9 0.2734375 0.1484375 0.025 0.046875
9 0.365625 0.08515625 0.0421875 0.0484375
9 0.659375 0.0859375 0.065625 0.0515625
9 0.86171875 0.01953125 0.0421875 0.0390625
9 0.90625 0.1171875 0.034375 0.05625
2 0.11796875 0.459375 0.0421875 0.05
2 0.221484375 0.448046875 0.02578125 0.04921875
2 0.206640625 0.85 0.03828125 0.0375
2 0.271875 0.120703125 0.14296875 0.1421875
2 0.83125 0.038671875 0.09375 0.07734375