10 0.025 0.92578125 0.05 0.0515625
10 0.18046875 0.79921875 0.0625 0.0625
10 0.0640625 0.7515625 0.053125 0.053125
10 0.15546875 0.7140625 0.0609375 0.05
10 0.1984375 0.4984375 0.059375 0.0453125
10 0.1875 0.4171875 0.0765625 0.0515625
10 0.0078125 0.50546875 0.015625 0.0265625
10 0.04296875 0.4265625 0.05703125 0.05703125
10 0.0296875 0.0203125 0.059375 0.040625
0 0.96796875 0.112890625 0.0640625 0.08828125
0 0.9609375 0.39296875 0.075 0.1375
0 0.88515625 0.71328125 0.128125 0.1109375
0 0.7453125 0.8078125 0.1734375 0.1203125
0 0.9484375 0.9015625 0.103125 0.0953125
8 0.9828125 0.791015625 0.034375 0.03671875
8 0.54609375 0.8890625 0.065625 0.0375
8 0.42109375 0.81640625 0.028125 0.0296875
8 0.24375 0.65859375 0.0671875 0.0453125
8 0.209375 0.5984375 0.065625 0.0484375
8 0.4171875 0.5328125 0.26875 0.075
8 0.63359375 0.49375 0.059375 0.059375
8 0.91171875 0.62734375 0.0703125 0.0390625
8 0.96015625 0.525 0.0515625 0.0328125
8 0.875 0.35546875 0.034375 0.025
8 0.5890625 0.346875 0.1734375 0.1453125
8 0.45859375 0.24375 0.0328125 0.0328125
8 0.65234375 0.1765625 0.0390625 0.025
8 0.553125 0.1296875 0.04375 0.021875
8 0.93125 0.2484375 0.0359375 0.0265625
9 0.63046875 0.88671875 0.0421875 0.0296875
9 0.59296875 0.82734375 0.03125 0.0328125
9 0.53828125 0.77109375 0.03125 0.03125
9 0.6265625 0.66796875 0.0734375 0.0765625
9 0.60078125 0.615625 0.0703125 0.0609375
9 0.7328125 0.59140625 0.0484375 0.028125
9 0.59609375 0.53203125 0.03125 0.0296875
9 0.82109375 0.5625 0.0375 0.0375
9 0.7734375 0.53203125 0.11875 0.0859375
9 0.73984375 0.39609375 0.040625 0.0390625
9 0.5953125 0.42734375 0.0375 0.03125
9 0.83046875 0.35390625 0.04375 0.028125
9 0.6921875 0.31875 0.040625 0.0265625
9 0.7875 0.24609375 0.04140625 0.04140625
9 0.7421875 0.175 0.0390625 0.034375
9 0.84375 0.0984375 0.03828125 0.03828125
8 0.43984375 0.74609375 0.046875 0.0359375
1 0.14765625 0.8859375 0.084375 0.0765625
1 0.0125 0.7625 0.0234375 0.053125
1 0.10859375 0.60625 0.0625 0.0546875
1 0.04375 0.50078125 0.03125 0.0234375
1 0.29375 0.49375 0.0578125 0.0359375
1 0.09609375 0.46328125 0.05703125 0.05703125
1 0.146875 0.3140625 0.05546875 0.05546875
1 0.13984375 0.26953125 0.046875 0.05
1 0.18515625 0.1265625 0.0421875 0.0390625
1 0.184375 0.0796875 0.0421875 0.040625
2 0.303125 0.92109375 0.0546875 0.0546875
2 0.2796875 0.81953125 0.0484375 0.0453125
2 0.2484375 0.699609375 0.065625 0.04140625
2 0.442578125 0.72578125 0.37109375 0.2078125
2 0.60859375 0.638671875 0.2171875 0.2203125
8 0.72578125 0.894140625 0.0421875 0.0328125
8 0.731640625 0.699609375 0.05078125 0.046875
8 0.637890625 0.825390625 0.02890625 0.02890625