5 0.3203125 0.35 0.059375 0.0703125
5 0.0359375 0.515625 0.065625 0.0515625
5 0.2921875 0.52109375 0.0734375 0.0375
5 0.15546875 0.6890625 0.0609375 0.0609375
5 0.09375 0.8328125 0.0375 0.028125
5 0.0703125 0.8859375 0.0421875 0.0359375
5 0.1703125 0.98828125 0.05625 0.0234375
5 0.18515625 0.071875 0.0546875 0.0546875
9 0.04375 0.08671875 0.0453125 0.0421875
9 0.0984375 0.59765625 0.084375 0.0734375
9 0.74453125 0.58359375 0.1171875 0.040625
9 0.9515625 0.06328125 0.06796875 0.06796875
9 0.9203125 0.659375 0.05703125 0.05703125
9 0.878125 0.790625 0.0515625 0.0546875
9 0.821875 0.9453125 0.05625 0.0375
9 0.73359375 0.9625 0.04296875 0.04296875
1 0.65 0.96640625 0.0828125 0.0546875
1 0.43125 0.925 0.0828125 0.1390625
1 0.6890625 0.80234375 0.0359375 0.0546875
1 0.369140625 0.97890625 0.04609375 0.0421875
1 0.784375 0.65390625 0.075 0.075
1 0.5984375 0.63046875 0.07421875 0.07421875
1 0.2546875 0.59453125 0.0515625 0.0484375
1 0.11875 0.41328125 0.121875 0.0734375
1 0.5453125 0.24921875 0.15 0.2015625
1 0.5703125 0.40234375 0.1171875 0.071875
7 0.97578125 0.14140625 0.0484375 0.053125
7 0.9328125 0.5015625 0.06875 0.046875
7 0.86875 0.725 0.05 0.03125
1 0.9625 0.77578125 0.075 0.0734375
0 0.5390625 0.04296875 0.1078125 0.06875
0 0.278125 0.17109375 0.05546875 0.05546875
0 0.47421875 0.26796875 0.05625 0.0328125
0 0.89453125 0.15234375 0.0703125 0.040625
0 0.74296875 0.36484375 0.0875 0.059375
0 0.8359375 0.39921875 0.0875 0.065625
0 0.71171875 0.51484375 0.0765625 0.04375
0 0.47109375 0.5890625 0.1109375 0.0734375
0 0.2703125 0.75078125 0.06484375 0.06484375
0 0.30078125 0.821875 0.0609375 0.0609375
0 0.27265625 0.87421875 0.075 0.0671875
0 0.578125 0.86171875 0.04375 0.0203125
0 0.6921875 0.728125 0.0515625 0.0328125
0 0.984375 0.86875 0.03125 0.0546875
0 0.23828125 0.41875 0.05625 0.034375
0 0.56171875 0.978125 0.0625 0.040625