5 0.121875 0.75234375 0.0515625 0.08125
5 0.09609375 0.59921875 0.0671875 0.053125
5 0.27578125 0.6625 0.09375 0.1765625
5 0.38984375 0.49921875 0.046875 0.0734375
5 0.46953125 0.49296875 0.07265625 0.07265625
5 0.6390625 0.40625 0.1484375 0.2
5 0.94453125 0.34296875 0.0875 0.1828125
5 0.4359375 0.86328125 0.0359375 0.0359375
7 0.0578125 0.04296875 0.0765625 0.0859375
7 0.2328125 0.07578125 0.0515625 0.0609375
7 0.390625 0.1234375 0.05 0.05
7 0.71484375 0.07421875 0.14765625 0.14765625
7 0.8640625 0.15859375 0.153125 0.1640625
10 0.6390625 0.23203125 0.04296875 0.04296875
10 0.3171875 0.1765625 0.0609375 0.1046875
10 0.54765625 0.4515625 0.0390625 0.0390625
10 0.765625 0.34296875 0.0546875 0.0515625
10 0.759375 0.31171875 0.05 0.05
10 0.71640625 0.565625 0.0421875 0.0609375
10 0.96953125 0.52265625 0.0609375 0.153125
2 0.0546875 0.395703125 0.0296875 0.03828125
2 0.121484375 0.39140625 0.02734375 0.04375
2 0.199609375 0.38984375 0.03828125 0.040625
2 0.314453125 0.521875 0.2234375 0.2234375
2 0.63125 0.568359375 0.1546875 0.15625
2 0.807421875 0.543359375 0.0921875 0.12109375
2 0.315234375 0.93046875 0.2046875 0.1390625
2 0.041796875 0.8984375 0.03515625 0.05625
2 0.112890625 0.9046875 0.03515625 0.040625
2 0.201171875 0.9234375 0.06640625 0.0625