0 0.81015625 0.059375 0.04921875 0.04921875
0 0.509375 0.08125 0.05 0.05
0 0.44375 0.14296875 0.0328125 0.0328125
0 0.17265625 0.1359375 0.05625 0.0578125
0 0.0234375 0.2078125 0.046875 0.0578125
0 0.18828125 0.30546875 0.06484375 0.06484375
0 0.11640625 0.42265625 0.0890625 0.065625
0 0.29453125 0.41875 0.059375 0.034375
0 0.521875 0.3703125 0.034375 0.034375
0 0.38046875 0.5421875 0.065625 0.05625
0 0.5421875 0.56875 0.053125 0.0359375
0 0.55234375 0.7515625 0.0609375 0.0609375
0 0.6015625 0.9546875 0.040625 0.034375
0 0.23359375 0.83828125 0.0359375 0.03125
0 0.0109375 0.798828125 0.021875 0.02265625
0 0.3453125 0.67109375 0.071875 0.0390625
0 0.15703125 0.6796875 0.0328125 0.0328125
0 0.13046875 0.98515625 0.0859375 0.0296875
7 0.925 0.73984375 0.084375 0.0578125
7 0.909375 0.96796875 0.0828125 0.0609375
7 0.8328125 0.90546875 0.090625 0.090625
7 0.85390625 0.86171875 0.0734375 0.0578125
7 0.9828125 0.521875 0.028125 0.146875
7 0.82890625 0.3578125 0.1828125 0.1765625
7 0.8078125 0.240625 0.109375 0.0484375
0 0.31484375 0.89296875 0.06171875 0.06171875
0 0.2859375 0.9796875 0.04375 0.0140625
8 0.53671875 0.9671875 0.053125 0.0453125
5 0.40234375 0.98359375 0.04375 0.0328125
8 0.9765625 0.93515625 0.040625 0.0328125
8 0.98671875 0.68125 0.0265625 0.034375
5 0.7515625 0.5953125 0.0484375 0.0484375
8 0.6140625 0.7140625 0.04765625 0.04765625
8 0.546875 0.803125 0.05 0.03125
5 0.3453125 0.81484375 0.05 0.05
5 0.396875 0.759375 0.071875 0.0484375
5 0.24140625 0.67265625 0.065625 0.0578125
5 0.45546875 0.57265625 0.08125 0.0625
5 0.30078125 0.54375 0.05625 0.0265625
8 0.6484375 0.4609375 0.071875 0.071875
5 0.49140625 0.48828125 0.053125 0.034375
5 0.21484375 0.425 0.0453125 0.0359375
5 0.3796875 0.359375 0.0734375 0.059375
5 0.50859375 0.22421875 0.0859375 0.059375
8 0.66328125 0.3171875 0.0453125 0.0453125
8 0.95 0.308984375 0.1 0.10703125
5 0.31796875 0.075 0.13671875 0.13671875
8 0.58671875 0.8984375 0.06484375 0.06484375