6 0.703125 0.00703125 0.04375 0.0140625
6 0.52578125 0.0953125 0.034375 0.0296875
6 0.65546875 0.1640625 0.0296875 0.0296875
6 0.61171875 0.221875 0.0484375 0.0328125
6 0.74921875 0.3125 0.03125 0.03125
6 0.66328125 0.321875 0.0578125 0.046875
6 0.54609375 0.28046875 0.0609375 0.0421875
6 0.42109375 0.37578125 0.034375 0.028125
6 0.51640625 0.43671875 0.02890625 0.02890625
6 0.73984375 0.43046875 0.0390625 0.0234375
6 0.6609375 0.52734375 0.0421875 0.0296875
6 0.44140625 0.52890625 0.025 0.021875
6 0.3421875 0.478125 0.03671875 0.03671875
6 0.21171875 0.59921875 0.0359375 0.03125
6 0.375 0.621875 0.03046875 0.03046875
6 0.5890625 0.6203125 0.0484375 0.0265625
6 0.60078125 0.73046875 0.059375 0.0359375
6 0.521875 0.7234375 0.0453125 0.0453125
6 0.38828125 0.7203125 0.04765625 0.04765625
6 0.26875 0.6765625 0.0390625 0.0265625
6 0.33828125 0.8203125 0.04375 0.0359375
6 0.26953125 0.91484375 0.0515625 0.03125
6 0.340625 0.95625 0.0546875 0.0375
6 0.40625 0.8640625 0.03203125 0.03203125
6 0.4703125 0.7734375 0.03203125 0.03203125
6 0.64609375 0.81796875 0.0390625 0.025
6 0.55390625 0.8671875 0.0328125 0.0296875
6 0.53984375 0.9515625 0.0359375 0.0359375
6 0.77578125 0.92265625 0.02421875 0.02421875
7 0.340625 0.09140625 0.0578125 0.0578125
7 0.37109375 0.22109375 0.0515625 0.0375
7 0.1359375 0.1234375 0.0546875 0.03125
7 0.22734375 0.2546875 0.0578125 0.0359375
7 0.05625 0.28359375 0.03828125 0.03828125
7 0.5296875 0.32578125 0.0453125 0.0453125
7 0.38984375 0.32890625 0.0546875 0.03125
7 0.4796875 0.38046875 0.04765625 0.04765625
7 0.20546875 0.378125 0.0359375 0.0359375
7 0.275 0.503125 0.0421875 0.0421875
7 0.17578125 0.53125 0.0453125 0.034375
7 0.4171875 0.575 0.0453125 0.0453125
7 0.340625 0.6640625 0.0515625 0.0515625
7 0.53671875 0.66953125 0.0390625 0.0328125
7 0.65546875 0.6671875 0.0484375 0.0484375
7 0.66171875 0.6203125 0.028125 0.028125
7 0.678125 0.43671875 0.053125 0.046875
7 0.58515625 0.4328125 0.0515625 0.0359375
7 0.340625 0.76953125 0.0625 0.0296875
7 0.19609375 0.8265625 0.0421875 0.0328125
7 0.3375 0.90078125 0.0515625 0.0328125
7 0.471875 0.94375 0.05625 0.0375
7 0.51796875 0.9109375 0.0609375 0.04375
7 0.54140625 0.7671875 0.053125 0.0359375
7 0.540625 0.4890625 0.046875 0.04375
7 0.66171875 0.77890625 0.0390625 0.03125
3 0.203125 0.01171875 0.040625 0.0234375
3 0.2296875 0.14453125 0.040625 0.040625
3 0.0140625 0.078125 0.028125 0.0328125
3 0.033984375 0.23359375 0.06796875 0.071875
3 0.0390625 0.3328125 0.0421875 0.028125
3 0.115625 0.40625 0.084375 0.0640625
3 0.27578125 0.33828125 0.0328125 0.0203125
3 0.34140625 0.37734375 0.0453125 0.028125
3 0.38828125 0.43046875 0.0375 0.0375
3 0.2734375 0.565625 0.078125 0.0546875
3 0.11640625 0.5140625 0.053125 0.0421875
3 0.0078125 0.60078125 0.015625 0.0296875
3 0.06953125 0.63046875 0.040625 0.040625
3 0.1640625 0.6796875 0.04375 0.0375
3 0.22734375 0.7796875 0.0546875 0.0390625
3 0.33984375 0.8625 0.04375 0.0296875
3 0.06953125 0.88203125 0.0859375 0.0609375
3 0.1109375 0.93359375 0.084375 0.0578125
1 0.8078125 0.010546875 0.0265625 0.02109375
1 0.45859375 0.2265625 0.0578125 0.0359375
1 0.94296875 0.06484375 0.0375 0.0234375
1 0.809375 0.10234375 0.0453125 0.0296875
1 0.846875 0.17421875 0.0578125 0.0328125
1 0.67890625 0.221875 0.0484375 0.0359375
1 0.79140625 0.31953125 0.040625 0.025
1 0.75078125 0.3828125 0.0859375 0.05
1 0.90625 0.28515625 0.06875 0.0515625
1 0.9796875 0.3796875 0.034375 0.034375
1 0.85078125 0.4359375 0.0390625 0.0234375
1 0.8203125 0.4828125 0.0671875 0.0359375
1 0.7890625 0.53515625 0.05 0.05
1 0.66796875 0.575 0.0453125 0.025
1 0.96953125 0.53984375 0.0390625 0.03125
1 0.85390625 0.59140625 0.071875 0.0390625
1 0.7375 0.66640625 0.078125 0.04375
1 0.90390625 0.6859375 0.0421875 0.03125
1 0.6140625 0.76875 0.03203125 0.03203125
1 0.6171875 0.87265625 0.0515625 0.0296875
1 0.7859375 0.74453125 0.07109375 0.07109375
1 0.73828125 0.7859375 0.0703125 0.0484375
1 0.715625 0.91171875 0.0515625 0.040625
1 0.84921875 0.8390625 0.0578125 0.053125
1 0.8796875 0.79453125 0.053125 0.0328125
1 0.81171875 0.97421875 0.0671875 0.0390625
1 0.96171875 0.88359375 0.0421875 0.0421875
1 0.9421875 0.98046875 0.05 0.0390625