5 0.22578125 0.52421875 0.0421875 0.0265625
5 0.26484375 0.38359375 0.034375 0.0234375
5 0.15078125 0.12734375 0.071875 0.053125
5 0.0359375 0.303125 0.0703125 0.0953125
5 0.01015625 0.0453125 0.0203125 0.0453125
7 0.05 0.70703125 0.096875 0.115625
7 0.10234375 0.875 0.0328125 0.025
1 0.44921875 0.059375 0.075 0.0515625
1 0.34921875 0.16171875 0.0671875 0.03125
1 0.55390625 0.2296875 0.0859375 0.075
1 0.69609375 0.375 0.0578125 0.040625
1 0.734375 0.30078125 0.05625 0.034375
1 0.409375 0.38125 0.0375 0.021875
1 0.41015625 0.45234375 0.0390625 0.025
1 0.26875 0.484375 0.03125 0.0234375
1 0.36953125 0.55859375 0.0359375 0.0265625
1 0.41484375 0.51640625 0.03125 0.028125
1 0.55234375 0.4796875 0.0546875 0.0390625
1 0.60859375 0.5859375 0.046875 0.034375
1 0.56015625 0.6546875 0.0328125 0.0234375
1 0.74296875 0.68515625 0.03125 0.0203125
1 0.6078125 0.7203125 0.0328125 0.0203125
1 0.56015625 0.75625 0.040625 0.025
1 0.659375 0.7953125 0.0390625 0.021875
1 0.5671875 0.871875 0.0203125 0.028125
1 0.51796875 0.83046875 0.03125 0.028125
1 0.47109375 0.90390625 0.0359375 0.0234375
1 0.37890625 0.90625 0.034375 0.0203125
1 0.2875 0.90546875 0.0390625 0.01875
1 0.19609375 0.9421875 0.034375 0.0234375
1 0.33515625 0.9421875 0.0359375 0.0171875
1 0.4640625 0.65546875 0.065625 0.0421875
1 0.28359375 0.7 0.096875 0.0734375
3 0.321875 0.7921875 0.071875 0.04375
3 0.1859375 0.703125 0.05625 0.0390625
3 0.42109375 0.59140625 0.0578125 0.034375
3 0.46484375 0.421875 0.0640625 0.0390625
3 0.21640625 0.44921875 0.034375 0.0359375
3 0.35546875 0.30234375 0.046875 0.0515625
3 0.3140625 0.196875 0.046875 0.03125
3 0.54765625 0.1 0.0390625 0.028125
3 0.65546875 0.71953125 0.0328125 0.034375
6 0.946875 0.75078125 0.0640625 0.0484375
6 0.79296875 0.68046875 0.0515625 0.046875
6 0.8796875 0.6109375 0.021875 0.025
6 0.87265625 0.509375 0.0625 0.05
6 0.9953125 0.57578125 0.009375 0.028125
6 0.98046875 0.31328125 0.0390625 0.040625
6 0.96484375 0.4078125 0.0234375 0.0234375
0 0.8296875 0.1296875 0.090625 0.0546875
0 0.6890625 0.2609375 0.05625 0.0421875
0 0.8734375 0.40078125 0.071875 0.0734375
0 0.6875 0.4453125 0.059375 0.04375
0 0.72265625 0.55390625 0.11875 0.10625
0 0.77578125 0.61640625 0.128125 0.1015625
0 0.69765625 0.64453125 0.0609375 0.04375
2 0.908203125 0.1390625 0.03828125 0.0453125
2 0.916015625 0.237890625 0.033984375 0.0328125
2 0.924609375 0.372265625 0.05390625 0.025390625
2 0.446875 0.119921875 0.046875 0.035546875
2 0.451171875 0.2359375 0.041015625 0.042578125
2 0.456640625 0.34453125 0.035546875 0.03828125