9 0.04296875 0.71953125 0.0546875 0.03125
9 0.021875 0.95625 0.0421875 0.0390625
9 0.04453125 0.41953125 0.046875 0.0359375
9 0.04765625 0.3578125 0.034375 0.034375
0 0.0671875 0.98671875 0.1109375 0.0234375
0 0.15546875 0.87265625 0.0359375 0.01875
0 0.246875 0.8171875 0.028125 0.025
0 0.35703125 0.8859375 0.05546875 0.05546875
0 0.03046875 0.76875 0.05 0.03125
0 0.30703125 0.70546875 0.0875 0.04375
0 0.10546875 0.6640625 0.03515625 0.03515625
0 0.31015625 0.62578125 0.1359375 0.0515625
0 0.2984375 0.4828125 0.0484375 0.04375
0 0.34140625 0.31328125 0.0515625 0.0515625
0 0.13984375 0.35703125 0.05 0.0359375
0 0.05859375 0.2484375 0.0671875 0.0578125
3 0.2015625 0.07734375 0.04375 0.028125
3 0.1953125 0.46484375 0.103125 0.0796875
3 0.36796875 0.3765625 0.065625 0.05
3 0.5890625 0.2703125 0.07578125 0.07578125
3 0.38359375 0.53203125 0.05234375 0.05234375
3 0.29609375 0.78203125 0.075 0.075
3 0.65546875 0.6328125 0.07421875 0.07421875
3 0.40859375 0.94140625 0.05859375 0.05859375
3 0.3484375 0.965625 0.0609375 0.0609375
3 0.71015625 0.9859375 0.078125 0.028125
3 0.55 0.84921875 0.02890625 0.02890625
0 0.06015625 0.47421875 0.0671875 0.046875
1 0.71328125 0.01171875 0.0640625 0.0234375
1 0.59375 0.1 0.03984375 0.03984375
1 0.70703125 0.20234375 0.03828125 0.03828125
1 0.83203125 0.24921875 0.1 0.1
1 0.64296875 0.32734375 0.03359375 0.03359375
1 0.59296875 0.38046875 0.103125 0.05625
1 0.90546875 0.40859375 0.03828125 0.03828125
1 0.62265625 0.4765625 0.0359375 0.0359375
1 0.7703125 0.5234375 0.0890625 0.0546875
1 0.7078125 0.54296875 0.0546875 0.059375
1 0.58046875 0.60546875 0.0296875 0.0296875
1 0.8015625 0.665625 0.059375 0.0390625
1 0.83125 0.81484375 0.0671875 0.046875
1 0.72578125 0.7109375 0.065625 0.0359375
1 0.815625 0.96328125 0.046875 0.028125
1 0.5578125 0.99453125 0.05 0.0109375
1 0.490625 0.89375 0.0171875 0.0171875
1 0.63984375 0.825 0.03046875 0.03046875
1 0.6296875 0.778125 0.03125 0.025
1 0.48671875 0.78125 0.028125 0.028125
1 0.45703125 0.7046875 0.034375 0.028125
8 0.884375 0.1765625 0.0609375 0.040625
8 0.903125 0.34453125 0.046875 0.046875
8 0.925 0.57421875 0.05546875 0.05546875
8 0.94296875 0.72265625 0.053125 0.0484375
8 0.95625 0.87734375 0.0421875 0.028125
8 0.96171875 0.9265625 0.0453125 0.028125
1 0.630859375 0.9125 0.09921875 0.0984375