3 0.0296875 0.3890625 0.0328125 0.0296875
3 0.1859375 0.3265625 0.0265625 0.0359375
3 0.14609375 0.4796875 0.1140625 0.0703125
3 0.24375 0.534375 0.0484375 0.034375
3 0.378125 0.528125 0.05625 0.0375
3 0.38671875 0.475 0.0453125 0.0296875
3 0.24375 0.5828125 0.0484375 0.0234375
3 0.221875 0.61640625 0.053125 0.0234375
3 0.3765625 0.58359375 0.0703125 0.034375
3 0.51875 0.63828125 0.071875 0.05
3 0.5046875 0.78046875 0.0890625 0.075
3 0.40703125 0.771875 0.1046875 0.06875
3 0.3265625 0.70078125 0.040625 0.0328125
3 0.2765625 0.775 0.021875 0.0203125
3 0.31796875 0.840625 0.0296875 0.0265625
3 0.4625 0.8984375 0.059375 0.0453125
3 0.5359375 0.93515625 0.0859375 0.05625
6 0.21484375 0.8671875 0.034375 0.03125
6 0.20390625 0.925 0.0359375 0.0171875
6 0.10546875 0.99296875 0.0234375 0.0140625
6 0.028125 0.95 0.0515625 0.034375
1 0.40234375 0.0609375 0.0625 0.0515625
1 0.525 0.11875 0.0546875 0.0359375
1 0.62265625 0.1359375 0.05 0.0453125
1 0.4671875 0.3078125 0.034375 0.0234375
1 0.4265625 0.39296875 0.0390625 0.0140625
1 0.3125 0.421875 0.028125 0.0171875
1 0.26953125 0.33125 0.0328125 0.028125
1 0.42421875 0.50234375 0.028125 0.0203125
1 0.3109375 0.53203125 0.03125 0.0203125
1 0.42578125 0.6734375 0.03125 0.0234375
1 0.58203125 0.6796875 0.0578125 0.0375
1 0.67109375 0.62890625 0.0859375 0.0546875
1 0.66953125 0.5046875 0.040625 0.03125
1 0.6234375 0.5078125 0.028125 0.028125
1 0.86796875 0.53203125 0.03125 0.0234375
1 0.73671875 0.73671875 0.059375 0.04375
1 0.8015625 0.7796875 0.034375 0.028125
1 0.84296875 0.82421875 0.090625 0.0390625
9 0.02890625 0.7453125 0.05 0.0734375
9 0.50703125 0.51171875 0.084375 0.04375
9 0.584375 0.4953125 0.0484375 0.053125
9 0.50625 0.27265625 0.10625 0.059375
9 0.47109375 0.85 0.075 0.0328125
9 0.278125 0.871875 0.0671875 0.0421875
9 0.43125 0.95234375 0.0453125 0.04375
9 0.6453125 0.91796875 0.0375 0.0421875
9 0.75625 0.984375 0.103125 0.03125
9 0.38984375 0.70546875 0.084375 0.046875
5 0.75859375 0.028125 0.0953125 0.0453125
5 0.52734375 0.0796875 0.0765625 0.0484375
5 0.7515625 0.0859375 0.078125 0.0390625
5 0.91328125 0.08828125 0.0546875 0.040625
5 0.99453125 0.13125 0.0109375 0.0296875
5 0.93203125 0.27578125 0.1015625 0.0796875
5 0.66328125 0.27421875 0.059375 0.04375
5 0.696875 0.31171875 0.05625 0.0453125
5 0.4265625 0.3328125 0.05 0.0453125
5 0.3859375 0.3109375 0.109375 0.078125
0 0.321875 0.9640625 0.134375 0.071875
1 0.5796875 0.77890625 0.0546875 0.04375
2 0.8734375 0.730078125 0.252734375 0.2015625
2 0.401171875 0.10078125 0.558203125 0.193359375