10 0.35546875 0.3609375 0.2453125 0.2453125
10 0.59609375 0.68203125 0.0765625 0.084375
10 0.80546875 0.5734375 0.2609375 0.2609375
10 0.14453125 0.5234375 0.05859375 0.05859375
10 0.11015625 0.28125 0.06484375 0.06484375
7 0.77890625 0.27890625 0.0640625 0.0640625
7 0.63984375 0.15 0.0765625 0.115625
7 0.6828125 0.01328125 0.05 0.0265625
7 0.8984375 0.95546875 0.146875 0.0890625
7 0.4984375 0.04296875 0.0453125 0.03125
7 0.3109375 0.06015625 0.06640625 0.06640625
7 0.1625 0.05703125 0.040625 0.040625
7 0.18046875 0.27890625 0.0359375 0.0515625
7 0.046875 0.17265625 0.0640625 0.0640625
0 0.85546875 0.34921875 0.075 0.09375
0 0.96171875 0.084375 0.0421875 0.046875
0 0.9109375 0.74921875 0.0625 0.0625
0 0.68125 0.6921875 0.0453125 0.071875
0 0.6328125 0.5859375 0.04453125 0.04453125
0 0.45859375 0.71875 0.0515625 0.0625
0 0.39375 0.68203125 0.05 0.05
0 0.2296875 0.51875 0.0421875 0.046875
0 0.11015625 0.80234375 0.0421875 0.0453125
0 0.56953125 0.984375 0.046875 0.03125
8 0.921875 0.83671875 0.04375 0.04375
8 0.7890625 0.85078125 0.1109375 0.125
8 0.7296875 0.97109375 0.0359375 0.0484375
8 0.70546875 0.77109375 0.0453125 0.0453125
8 0.61875 0.87734375 0.0421875 0.0515625
8 0.39609375 0.80390625 0.1390625 0.078125
8 0.3640625 0.96015625 0.0390625 0.040625
8 0.21796875 0.97265625 0.0359375 0.040625
8 0.040625 0.85 0.03125 0.0484375