9 0.871875 0.065625 0.0859375 0.1125
9 0.634375 0.0890625 0.04375 0.0578125
9 0.5984375 0.0421875 0.053125 0.053125
9 0.56796875 0.1953125 0.0421875 0.0515625
9 0.4859375 0.159375 0.0546875 0.0546875
9 0.43046875 0.25078125 0.05 0.04375
9 0.36171875 0.2046875 0.040625 0.040625
9 0.32890625 0.2484375 0.0359375 0.065625
9 0.28515625 0.10703125 0.053125 0.053125
9 0.2484375 0.11484375 0.05625 0.05625
9 0.2046875 0.03203125 0.05703125 0.05703125
3 0.0203125 0.0328125 0.0296875 0.05625
1 0.1421875 0.071875 0.0859375 0.14375
1 0.25234375 0.38828125 0.059375 0.059375
1 0.47734375 0.45234375 0.0328125 0.0328125
1 0.49765625 0.24921875 0.0359375 0.0359375
5 0.6203125 0.28359375 0.025 0.0359375
5 0.46171875 0.29140625 0.0265625 0.0359375
5 0.43125 0.3421875 0.028125 0.0453125
5 0.2375 0.2546875 0.04609375 0.04609375
5 0.128125 0.34453125 0.04453125 0.04453125
5 0.09296875 0.3015625 0.0484375 0.0484375
5 0.31953125 0.4921875 0.05625 0.05625
5 0.3828125 0.50078125 0.0453125 0.06875
5 0.5703125 0.5734375 0.0421875 0.0578125
5 0.61171875 0.57265625 0.0625 0.0453125
5 0.725 0.44375 0.02578125 0.02578125
5 0.74140625 0.36796875 0.0125 0.034375
5 0.66015625 0.61484375 0.09453125 0.09453125
7 0.15859375 0.7234375 0.025 0.03125
7 0.3890625 0.61796875 0.0703125 0.09375
7 0.34921875 0.8015625 0.08828125 0.08828125
7 0.63515625 0.74609375 0.075 0.075
7 0.84921875 0.61640625 0.0578125 0.1046875
7 0.8 0.3328125 0.0890625 0.0890625
7 0.68046875 0.34765625 0.0984375 0.1109375
6 0.66328125 0.903125 0.10859375 0.10859375
6 0.578125 0.91484375 0.071875 0.0796875
6 0.4671875 0.9390625 0.06640625 0.06640625
6 0.53828125 0.96796875 0.0703125 0.05625
6 0.296875 0.91328125 0.071875 0.0578125
0 0.22109375 0.92109375 0.0375 0.0375
0 0.30625 0.9796875 0.03359375 0.03359375
0 0.40859375 0.8921875 0.021875 0.034375
0 0.41171875 0.9796875 0.0203125 0.0296875
0 0.440625 0.98046875 0.01796875 0.01796875
0 0.48984375 0.978125 0.0234375 0.0234375
0 0.63046875 0.98046875 0.03359375 0.03359375
0 0.76953125 0.9828125 0.0140625 0.034375
0 0.7984375 0.98203125 0.021875 0.0359375
2 0.14140625 0.565234375 0.0359375 0.0359375
2 0.196875 0.566796875 0.0328125 0.03359375
2 0.248046875 0.56875 0.034375 0.034375
2 0.064453125 0.175390625 0.0296875 0.03828125
2 0.1578125 0.169140625 0.0421875 0.04296875
2 0.255078125 0.160546875 0.04453125 0.03359375
2 0.173828125 0.9546875 0.0328125 0.034375
2 0.229296875 0.953125 0.0296875 0.028125
2 0.276171875 0.950390625 0.025 0.025
2 0.5703125 0.296875 0.1 0.1421875
2 0.725 0.2578125 0.275 0.3796875