1 0.6859375 0.8609375 0.0640625 0.0625
1 0.56328125 0.721875 0.04609375 0.04609375
1 0.478125 0.73046875 0.0546875 0.046875
1 0.66015625 0.59140625 0.0578125 0.0421875
1 0.8515625 0.48671875 0.04296875 0.04296875
1 0.61015625 0.4921875 0.03125 0.034375
1 0.65703125 0.45390625 0.05 0.05
1 0.56015625 0.38359375 0.03125 0.028125
1 0.7078125 0.3109375 0.046875 0.0484375
1 0.709375 0.26640625 0.046875 0.046875
1 0.75859375 0.11875 0.0515625 0.034375
1 0.7625 0.07578125 0.034375 0.0296875
1 0.465625 0.0671875 0.0734375 0.0578125
8 0.975 0.83359375 0.0296875 0.0296875
8 0.9890625 0.762109375 0.021875 0.02578125
8 0.79140625 0.65625 0.0609375 0.0453125
8 0.75234375 0.590625 0.0640625 0.0484375
8 0.91875 0.53046875 0.121875 0.121875
10 0.746875 0.4109375 0.065625 0.053125
10 0.71796875 0.78046875 0.071875 0.05
10 0.56015625 0.87890625 0.0828125 0.05625
10 0.621875 0.71796875 0.05546875 0.05546875
10 0.70625 0.6984375 0.0671875 0.0484375
10 0.5171875 0.7 0.0515625 0.0390625
10 0.42578125 0.66484375 0.0640625 0.0390625
10 0.4265625 0.63046875 0.0546875 0.03125
10 0.37734375 0.53203125 0.05 0.05
10 0.55625 0.48984375 0.0578125 0.040625
10 0.7515625 0.48984375 0.0609375 0.04375
10 0.61015625 0.4203125 0.0625 0.0390625
10 0.47265625 0.4578125 0.040625 0.03125
10 0.42109375 0.4203125 0.03828125 0.03828125
10 0.26953125 0.30234375 0.05625 0.0453125
10 0.3109375 0.2328125 0.0734375 0.04375
10 0.51328125 0.31328125 0.09296875 0.09296875
10 0.41640625 0.23828125 0.0703125 0.040625
10 0.4671875 0.15 0.0578125 0.040625
10 0.40390625 0.06953125 0.0640625 0.0421875
10 0.609375 0.0390625 0.065625 0.0453125
5 0.278125 0.4625 0.0859375 0.059375
5 0.30078125 0.63125 0.09140625 0.09140625
5 0.16015625 0.74296875 0.0359375 0.03125
5 0.190625 0.82265625 0.0328125 0.0296875
5 0.14609375 0.8390625 0.0578125 0.053125
5 0.128125 0.79296875 0.0484375 0.0484375
5 0.06484375 0.49296875 0.0796875 0.0625
7 0.175 0.1046875 0.04375 0.028125
7 0.08203125 0.1296875 0.0453125 0.0265625
7 0.04140625 0.3421875 0.0453125 0.0453125
7 0.19296875 0.346875 0.046875 0.046875
7 0.11171875 0.46640625 0.059375 0.059375
7 0.24296875 0.94140625 0.096875 0.0546875
7 0.37421875 0.8921875 0.0421875 0.0421875
7 0.43046875 0.90859375 0.0625 0.046875
7 0.09609375 0.903125 0.090625 0.090625
7 0.0828125 0.85625 0.0546875 0.065625
7 0.00625 0.50234375 0.0125 0.0390625
7 0.2203125 0.65078125 0.028125 0.0234375
7 0.13203125 0.66875 0.02421875 0.02421875
3 0.327734375 0.985546875 0.03671875 0.02890625
3 0.0140625 0.82578125 0.028125 0.05
3 0.1578125 0.53984375 0.1 0.1
3 0.14765625 0.38671875 0.11328125 0.11328125
2 0.841015625 0.926953125 0.0625 0.04140625
2 0.81875 0.81953125 0.05625 0.0453125
2 0.794140625 0.699609375 0.040625 0.040625
2 0.4453125 0.9515625 0.04453125 0.04453125
2 0.34375 0.7328125 0.046875 0.046875
2 0.071484375 0.51015625 0.14296875 0.1890625
2 0.90234375 0.741796875 0.1953125 0.20703125