9 0.28046875 0.04296875 0.03125 0.0546875
9 0.04375 0.021875 0.040625 0.040625
9 0.58046875 0.04453125 0.0359375 0.046875
9 0.6421875 0.04765625 0.034375 0.034375
0 0.01328125 0.0671875 0.0234375 0.1109375
0 0.12734375 0.15546875 0.01875 0.0359375
0 0.1828125 0.246875 0.025 0.028125
0 0.1140625 0.35703125 0.0421875 0.06875
0 0.23125 0.03046875 0.03125 0.05
0 0.29453125 0.30703125 0.065625 0.065625
0 0.3359375 0.10546875 0.0328125 0.0375
0 0.37421875 0.31015625 0.09375 0.09375
0 0.5171875 0.2984375 0.04609375 0.04609375
0 0.68671875 0.34140625 0.0421875 0.0609375
0 0.64296875 0.13984375 0.0359375 0.05
0 0.7515625 0.05859375 0.0625 0.0625
3 0.92265625 0.2015625 0.0359375 0.0359375
3 0.53515625 0.1953125 0.09140625 0.09140625
3 0.6234375 0.36796875 0.05 0.065625
3 0.7296875 0.5890625 0.07578125 0.07578125
3 0.46796875 0.38359375 0.053125 0.0515625
3 0.21796875 0.29609375 0.075 0.075
3 0.3671875 0.65546875 0.075 0.0734375
3 0.05859375 0.40859375 0.0484375 0.06875
3 0.034375 0.3484375 0.053125 0.06875
3 0.0140625 0.71015625 0.028125 0.078125
3 0.15078125 0.55 0.0234375 0.034375
0 0.52578125 0.06015625 0.046875 0.0671875
1 0.98828125 0.71328125 0.0234375 0.0640625
1 0.9 0.59375 0.028125 0.0515625
1 0.79765625 0.70703125 0.0328125 0.04375
1 0.75078125 0.83203125 0.078125 0.121875
1 0.67265625 0.64296875 0.03359375 0.03359375
1 0.61953125 0.59296875 0.05625 0.103125
1 0.59140625 0.90546875 0.03125 0.0453125
1 0.5234375 0.62265625 0.028125 0.04375
1 0.4765625 0.7703125 0.0546875 0.0890625
1 0.45703125 0.7078125 0.059375 0.0546875
1 0.39453125 0.58046875 0.021875 0.0375
1 0.334375 0.8015625 0.0390625 0.059375
1 0.18515625 0.83125 0.046875 0.0671875
1 0.2890625 0.72578125 0.05078125 0.05078125
1 0.03671875 0.815625 0.028125 0.046875
1 0.00546875 0.5578125 0.0109375 0.05
1 0.10625 0.490625 0.0203125 0.0140625
1 0.175 0.63984375 0.021875 0.0390625
1 0.221875 0.6296875 0.025 0.03125
1 0.21875 0.48671875 0.0140625 0.0421875
1 0.2953125 0.45703125 0.03125 0.03125
8 0.8234375 0.884375 0.040625 0.0609375
8 0.65546875 0.903125 0.03125 0.0625
8 0.42578125 0.925 0.0484375 0.0625
8 0.27734375 0.94296875 0.0484375 0.053125
8 0.12265625 0.95625 0.03515625 0.03515625
8 0.0734375 0.96171875 0.028125 0.0453125
1 0.0875 0.630859375 0.0984375 0.09921875