0 0.378125 0.9328125 0.03125 0.0265625
0 0.2 0.93203125 0.02109375 0.02109375
0 0.19453125 0.8953125 0.0453125 0.028125
0 0.26015625 0.69765625 0.065625 0.0640625
0 0.23515625 0.58359375 0.115625 0.0640625
0 0.50078125 0.6953125 0.096875 0.046875
0 0.490625 0.33671875 0.0890625 0.0453125
0 0.22265625 0.2171875 0.078125 0.0453125
0 0.359375 0.44609375 0.0671875 0.0578125
9 0.9546875 0.040625 0.0828125 0.065625
9 0.85234375 0.196875 0.03671875 0.03671875
9 0.8671875 0.37890625 0.0375 0.03125
9 0.9734375 0.465625 0.053125 0.053125
9 0.74765625 0.57578125 0.10703125 0.10703125
5 0.94765625 0.65 0.071875 0.05
5 0.75390625 0.79453125 0.1078125 0.08125
5 0.6453125 0.43359375 0.075 0.05
5 0.76796875 0.30390625 0.0734375 0.046875
5 0.6203125 0.16796875 0.08125 0.0484375
3 0.66796875 0.06953125 0.08125 0.0578125
3 0.63046875 0.22890625 0.0390625 0.0375
3 0.63671875 0.3546875 0.109375 0.028125
3 0.7390625 0.50703125 0.040625 0.03125
3 0.54296875 0.54375 0.0484375 0.0390625
3 0.6015625 0.58046875 0.05 0.0390625
3 0.646875 0.6546875 0.0328125 0.01875
3 0.70078125 0.72578125 0.028125 0.0203125
3 0.609375 0.86796875 0.03125 0.0203125
3 0.55625 0.7984375 0.034375 0.01875
3 0.5078125 0.765625 0.02421875 0.02421875
3 0.41484375 0.79453125 0.028125 0.021875
3 0.3609375 0.6296875 0.084375 0.034375
3 0.2625 0.48359375 0.0296875 0.0328125
3 0.3671875 0.3125 0.04375 0.0328125
3 0.3984375 0.2375 0.0578125 0.0421875
3 0.33046875 0.134375 0.1 0.0359375
6 0.246875 0.9296875 0.0421875 0.0421875
6 0.271875 0.765625 0.034375 0.034375
6 0.29609375 0.6421875 0.04375 0.03125
6 0.40546875 0.54453125 0.04140625 0.04140625
6 0.25546875 0.3484375 0.11796875 0.11796875
6 0.14140625 0.278125 0.034375 0.06875
6 0.01484375 0.3890625 0.0296875 0.03125
6 0.12890625 0.52421875 0.040625 0.040625
6 0.18515625 0.66015625 0.0453125 0.0359375
6 0.046875 0.696875 0.0546875 0.0359375
6 0.014453125 0.661328125 0.02890625 0.03359375
6 0.059375 0.86328125 0.0421875 0.03125
10 0.0828125 0.41796875 0.05 0.05
10 0.009375 0.52890625 0.01875 0.0296875
10 0.053125 0.62109375 0.071875 0.053125
10 0.09296875 0.76640625 0.075 0.059375
10 0.01484375 0.86015625 0.0296875 0.0515625
2 0.09296875 0.120703125 0.0375 0.0375
2 0.090234375 0.216015625 0.04453125 0.02890625
2 0.083984375 0.31875 0.05703125 0.04375
2 0.528515625 0.1015625 0.04296875 0.04296875
2 0.53203125 0.200390625 0.040625 0.040625
2 0.535546875 0.302734375 0.03359375 0.05078125
2 0.28828125 0.15625 0.2328125 0.146875
2 0.7109375 0.3671875 0.26875 0.2140625
2 0.337890625 0.612890625 0.30078125 0.23984375