5 0.77890625 0.34140625 0.028125 0.028125
5 0.540625 0.39140625 0.028125 0.028125
5 0.4984375 0.24453125 0.08125 0.065625
5 0.65859375 0.14296875 0.0265625 0.0265625
5 0.32109375 0.34453125 0.071875 0.059375
5 0.26796875 0.3125 0.0671875 0.053125
5 0.1921875 0.440625 0.0203125 0.021875
5 0.2609375 0.52890625 0.025 0.025
5 0.32734375 0.55546875 0.015625 0.021875
5 0.28046875 0.59921875 0.028125 0.0125
5 0.24453125 0.67890625 0.01953125 0.01953125
5 0.27890625 0.64296875 0.0125 0.0109375
5 0.23671875 0.8265625 0.0671875 0.06875
0 0.95078125 0.87734375 0.08203125 0.08203125
0 0.9609375 0.63359375 0.06875 0.059375
0 0.9890625 0.5703125 0.021875 0.059375
0 0.95703125 0.27421875 0.0484375 0.03125
10 0.821875 0.8984375 0.0546875 0.040625
10 0.7375 0.803125 0.034375 0.0234375
10 0.91484375 0.75546875 0.0578125 0.0390625
10 0.865625 0.71953125 0.0515625 0.0515625
10 0.69296875 0.68359375 0.03125 0.025
10 0.915625 0.62265625 0.0359375 0.028125
10 0.78046875 0.56015625 0.04375 0.0234375
10 0.96484375 0.48984375 0.05078125 0.05078125
10 0.9609375 0.4296875 0.0375 0.01875
10 0.96171875 0.37734375 0.0609375 0.0296875
10 0.82109375 0.21796875 0.040625 0.03125
10 0.8640625 0.33515625 0.01953125 0.01953125
10 0.8625 0.36015625 0.059375 0.03125
7 0.56953125 0.81875 0.0390625 0.0359375
7 0.534375 0.75625 0.046875 0.0453125
7 0.73203125 0.73984375 0.071875 0.0421875
7 0.69296875 0.6484375 0.0703125 0.0421875
7 0.86171875 0.653125 0.0734375 0.0421875
7 0.86953125 0.5609375 0.0546875 0.0546875
7 0.91953125 0.52734375 0.0640625 0.0421875
7 0.7765625 0.41171875 0.053125 0.0515625
7 0.6125 0.4125 0.034375 0.0375
7 0.5578125 0.36328125 0.02421875 0.02421875
1 0.30234375 0.77421875 0.0671875 0.0546875
1 0.18203125 0.8078125 0.040625 0.0328125
1 0.371875 0.69609375 0.0703125 0.0703125
1 0.378125 0.60625 0.028125 0.025
1 0.4171875 0.56171875 0.0203125 0.01875
1 0.521875 0.6453125 0.04609375 0.04609375
1 0.56875 0.64765625 0.046875 0.04375
1 0.6859375 0.5578125 0.0734375 0.04375
1 0.64296875 0.49296875 0.0328125 0.0234375
1 0.49765625 0.49765625 0.05625 0.040625
7 0.49296875 0.446875 0.0421875 0.028125
1 0.5875 0.3234375 0.034375 0.025
1 0.41171875 0.2265625 0.0375 0.025
1 0.2109375 0.21328125 0.0453125 0.0453125
1 0.25078125 0.371875 0.03671875 0.03671875
9 0.18203125 0.82734375 0.0265625 0.021875
9 0.16484375 0.75390625 0.0390625 0.03125
9 0.21484375 0.7125 0.046875 0.025
9 0.18359375 0.6578125 0.04609375 0.04609375
9 0.153125 0.6109375 0.028125 0.025
9 0.18359375 0.59140625 0.021875 0.021875
9 0.209375 0.565625 0.0296875 0.0328125
9 0.17421875 0.4921875 0.0296875 0.021875
9 0.23515625 0.5171875 0.02734375 0.02734375
9 0.09375 0.51953125 0.02578125 0.02578125
9 0.07265625 0.565625 0.0203125 0.015625
9 0.38046875 0.53984375 0.0265625 0.0265625
9 0.35390625 0.490625 0.046875 0.0328125
9 0.23203125 0.44296875 0.0265625 0.0171875
9 0.29609375 0.46875 0.028125 0.025
9 0.36015625 0.415625 0.03203125 0.03203125
9 0.4484375 0.36171875 0.0265625 0.0265625
9 0.31875 0.390625 0.01953125 0.01953125
9 0.41328125 0.30625 0.02578125 0.02578125
9 0.38671875 0.3328125 0.028125 0.028125
9 0.2796875 0.259375 0.0171875 0.0171875
9 0.275 0.20546875 0.0234375 0.0203125
9 0.2453125 0.2359375 0.02109375 0.02109375
9 0.0953125 0.22265625 0.0234375 0.0234375
9 0.1890625 0.3703125 0.02734375 0.02734375
9 0.1984375 0.39921875 0.03515625 0.03515625
3 0.1109375 0.746875 0.0375 0.0375
3 0.10703125 0.703125 0.03125 0.025
3 0.03046875 0.70078125 0.034375 0.0296875
3 0.08125 0.6578125 0.03125 0.03125
3 0.02734375 0.6109375 0.034375 0.03125
3 0.1515625 0.5203125 0.040625 0.040625
3 0.0984375 0.54140625 0.03828125 0.03828125
3 0.0921875 0.49296875 0.028125 0.028125
3 0.0578125 0.4703125 0.0421875 0.034375
3 0.00703125 0.46953125 0.0140625 0.0390625
3 0.1453125 0.41875 0.034375 0.028125
3 0.08203125 0.3515625 0.05546875 0.05546875
3 0.11484375 0.421875 0.03515625 0.03515625
3 0.0578125 0.42421875 0.0671875 0.0671875
3 0.05 0.2546875 0.0796875 0.065625
3 0.15625 0.246875 0.065625 0.065625
6 0.02265625 0.33203125 0.0453125 0.0671875
6 0.1078125 0.59375 0.0578125 0.0953125
0 0.040625 0.54296875 0.0390625 0.025
0 0.00625 0.42109375 0.0125 0.0140625
2 0.65625 0.890625 0.034375 0.0375
2 0.65703125 0.8265625 0.03046875 0.03046875
2 0.6078125 0.769140625 0.03203125 0.0328125
2 0.138671875 0.776171875 0.02421875 0.02421875
2 0.137109375 0.732421875 0.0265625 0.02734375
2 0.130859375 0.683984375 0.02578125 0.01796875
2 0.685546875 0.28828125 0.06640625 0.0546875
2 0.5875 0.1890625 0.05625 0.05625
2 0.4140625 0.21796875 0.10078125 0.0921875