5 0.13203125 0.01484375 0.1 0.0296875
5 0.01796875 0.12578125 0.028125 0.0328125
5 0.01328125 0.24296875 0.0265625 0.05
5 0.121875 0.33359375 0.0390625 0.0453125
5 0.084375 0.41171875 0.0234375 0.0203125
5 0.0109375 0.45234375 0.0203125 0.0328125
5 0.00859375 0.55703125 0.0171875 0.078125
5 0.059375 0.56875 0.040625 0.025
5 0.1453125 0.63984375 0.0265625 0.0203125
5 0.01171875 0.6984375 0.0234375 0.065625
5 0.0359375 0.75546875 0.0375 0.0203125
5 0.0515625 0.85859375 0.046875 0.0234375
6 0.86171875 0.6953125 0.06875 0.05625
6 0.97578125 0.44453125 0.0484375 0.0546875
6 0.7890625 0.6375 0.071875 0.05625
6 0.88359375 0.915625 0.0890625 0.0421875
6 0.78984375 0.26875 0.040625 0.03125
6 0.95546875 0.0984375 0.0640625 0.0875
6 0.68203125 0.00859375 0.046875 0.0171875
3 0.365625 0.03359375 0.053125 0.0359375
3 0.41484375 0.06640625 0.0578125 0.0296875
3 0.690625 0.17578125 0.0671875 0.046875
3 0.57421875 0.234375 0.059375 0.0390625
3 0.709375 0.25625 0.053125 0.0390625
3 0.4140625 0.2234375 0.05 0.040625
3 0.5921875 0.50546875 0.0484375 0.0453125
3 0.71015625 0.50078125 0.046875 0.0515625
3 0.98515625 0.59296875 0.0296875 0.0375
3 0.73125 0.68828125 0.034375 0.0328125
3 0.8015625 0.73671875 0.034375 0.03125
3 0.55625 0.71953125 0.075 0.0546875
3 0.5609375 0.77109375 0.0359375 0.01875
3 0.56640625 0.85078125 0.034375 0.0328125
3 0.63125 0.8984375 0.040625 0.03125
3 0.4125 0.8828125 0.0359375 0.03125
3 0.3375 0.64140625 0.0609375 0.0359375
3 0.3171875 0.43515625 0.034375 0.0296875
10 0.528125 0.9703125 0.0515625 0.0375
10 0.7375 0.9125 0.1671875 0.0859375
10 0.73828125 0.8171875 0.0578125 0.04375
10 0.928125 0.78828125 0.103125 0.071875
10 0.865625 0.5859375 0.0921875 0.065625
10 0.60078125 0.64296875 0.0734375 0.0484375
10 0.48984375 0.5578125 0.0703125 0.0453125
10 0.4234375 0.47734375 0.0625 0.046875
10 0.36953125 0.42734375 0.0375 0.034375
10 0.52890625 0.41953125 0.05 0.034375
10 0.78125 0.45390625 0.09375 0.065625
10 0.89375 0.29921875 0.078125 0.0609375
10 0.60234375 0.3140625 0.0984375 0.0671875
10 0.41328125 0.17734375 0.075 0.046875
10 0.46328125 0.0890625 0.09375 0.0421875
7 0.21953125 0.2546875 0.1359375 0.09375
7 0.26953125 0.2828125 0.071875 0.03125
7 0.31640625 0.39140625 0.0796875 0.0328125
7 0.2171875 0.36171875 0.0875 0.0453125
7 0.21875 0.4046875 0.0578125 0.034375
7 0.275 0.475 0.0796875 0.0328125
7 0.1796875 0.525 0.053125 0.05
7 0.3359375 0.59765625 0.0875 0.04375
7 0.23828125 0.59921875 0.06875 0.0546875
7 0.19765625 0.6390625 0.0390625 0.028125
7 0.14765625 0.68046875 0.053125 0.0328125
7 0.34375 0.684375 0.0390625 0.03125
7 0.2453125 0.7140625 0.05 0.034375
7 0.209375 0.7640625 0.0484375 0.034375
7 0.346875 0.765625 0.08125 0.0515625
7 0.315625 0.8421875 0.075 0.0484375
7 0.2578125 0.80234375 0.0578125 0.0109375
7 0.275 0.9125 0.071875 0.046875
7 0.21875 0.86484375 0.0453125 0.03125
7 0.1515625 0.92578125 0.0734375 0.0421875
2 0.309765625 0.07734375 0.05390625 0.044140625
2 0.308203125 0.189453125 0.056640625 0.0328125
2 0.314453125 0.31171875 0.052734375 0.049609375
2 0.684765625 0.2578125 0.346484375 0.259765625
2 0.878515625 0.03203125 0.0640625 0.046875
2 0.88359375 0.1625 0.0625 0.041015625