10 0.15703125 0.08359375 0.0703125 0.1671875
10 0.225 0.08125 0.0296875 0.075
10 0.2453125 0.25546875 0.05 0.1015625
10 0.39765625 0.1953125 0.046875 0.1078125
10 0.4921875 0.1078125 0.0359375 0.090625
10 0.60078125 0.23359375 0.06640625 0.06640625
1 0.19453125 0.78515625 0.03125 0.0546875
1 0.2234375 0.9453125 0.028125 0.0671875
1 0.46953125 0.9796875 0.0515625 0.040625
1 0.7265625 0.67421875 0.05703125 0.05703125
1 0.81015625 0.7328125 0.0359375 0.090625
1 0.921875 0.61015625 0.03125 0.1703125
1 0.54375 0.5046875 0.0234375 0.0546875
1 0.3765625 0.68046875 0.04375 0.1328125
0 0.81796875 0.43515625 0.05 0.1171875
0 0.70859375 0.8984375 0.0625 0.1375
0 0.578125 0.66640625 0.0640625 0.1140625
0 0.43125 0.46953125 0.071875 0.1890625
0 0.30234375 0.93125 0.09609375 0.09609375
0 0.309375 0.5109375 0.0734375 0.090625
0 0.05625 0.7203125 0.04453125 0.04453125
0 0.0734375 0.41953125 0.0296875 0.0375
0 0.10859375 0.41796875 0.04453125 0.04453125
6 0.471875 0.75546875 0.04765625 0.04765625
6 0.3703125 0.57109375 0.028125 0.075
6 0.2390625 0.5390625 0.01875 0.06875
6 0.06796875 0.49921875 0.0390625 0.0734375
6 0.15234375 0.21796875 0.0296875 0.0671875
6 0.353125 0.38671875 0.0359375 0.071875
6 0.315625 0.19140625 0.0390625 0.0671875
6 0.36015625 0.12578125 0.0390625 0.0875
6 0.496875 0.30234375 0.0515625 0.071875
6 0.684375 0.49609375 0.0984375 0.2046875
6 0.74609375 0.3109375 0.0609375 0.06875
6 0.63125 0.11875 0.0453125 0.0453125
6 0.8796875 0.06328125 0.11875 0.0640625
3 0.29453125 0.128125 0.0375 0.0375
3 0.39140625 0.3140625 0.0203125 0.0453125
3 0.325 0.06875 0.03125 0.03125
3 0.459375 0.04921875 0.034375 0.046875
3 0.59140625 0.05703125 0.0234375 0.0578125
3 0.634375 0.03046875 0.0328125 0.05
3 0.7 0.03671875 0.04765625 0.04765625
2 0.900390625 0.239453125 0.03125 0.05546875
2 0.80546875 0.230859375 0.0390625 0.05234375
2 0.707421875 0.2328125 0.04453125 0.04375
2 0.88125 0.5515625 0.2375 0.2578125
2 0.974609375 0.963671875 0.04296875 0.07265625
2 0.86953125 0.97265625 0.053125 0.053125
2 0.74609375 0.97578125 0.0703125 0.0484375
2 0.38359375 0.6421875 0.309375 0.5109375
2 0.6390625 0.10390625 0.21875 0.2078125