7 0.18828125 0.303125 0.0609375 0.0421875
7 0.34609375 0.13125 0.040625 0.0359375
7 0.55390625 0.1484375 0.04140625 0.04140625
7 0.4640625 0.3671875 0.0625 0.046875
7 0.36328125 0.32421875 0.034375 0.015625
7 0.56328125 0.35859375 0.05 0.03125
7 0.4265625 0.47734375 0.02734375 0.02734375
7 0.5265625 0.55234375 0.03359375 0.03359375
7 0.37734375 0.65703125 0.046875 0.0390625
7 0.434375 0.6890625 0.0625 0.06875
7 0.44375 0.9171875 0.0625 0.0625
7 0.2484375 0.8265625 0.02421875 0.02421875
6 0.84921875 0.983984375 0.0375 0.03203125
6 0.64453125 0.875 0.084375 0.05625
6 0.60390625 0.9765625 0.084375 0.0390625
6 0.9515625 0.778125 0.09375 0.0453125
6 0.79609375 0.66171875 0.0765625 0.046875
6 0.58046875 0.65703125 0.0296875 0.0296875
6 0.89765625 0.54765625 0.0328125 0.0203125
6 0.72578125 0.471875 0.02578125 0.02578125
6 0.95703125 0.4640625 0.0796875 0.046875
10 0.54765625 0.06484375 0.0421875 0.0421875
10 0.553125 0.19453125 0.03984375 0.03984375
10 0.7140625 0.08828125 0.0515625 0.0390625
10 0.71796875 0.22421875 0.040625 0.040625
10 0.66484375 0.2671875 0.0828125 0.046875
10 0.7765625 0.34765625 0.0546875 0.0421875
10 0.6140625 0.35390625 0.0609375 0.05
10 0.67421875 0.43046875 0.0453125 0.0421875
10 0.62265625 0.51328125 0.0515625 0.04375
10 0.56796875 0.4734375 0.03671875 0.03671875
10 0.46796875 0.43359375 0.05625 0.0359375
10 0.42578125 0.51484375 0.05625 0.0421875
10 0.72734375 0.58359375 0.0609375 0.04375
10 0.68359375 0.66328125 0.0484375 0.046875
10 0.68203125 0.7265625 0.046875 0.0375
10 0.5890625 0.765625 0.05625 0.05625
10 0.4828125 0.728125 0.025 0.0390625
10 0.48046875 0.83828125 0.065625 0.065625
0 0.8625 0.43515625 0.109375 0.0953125
0 0.90390625 0.29140625 0.1625 0.1625
0 0.88828125 0.16484375 0.15 0.146875
5 0.22421875 0.984375 0.0859375 0.025
5 0.121875 0.93046875 0.0765625 0.0765625
5 0.1171875 0.859375 0.05078125 0.05078125
5 0.29765625 0.82890625 0.0453125 0.040625
5 0.20078125 0.75703125 0.05546875 0.05546875
5 0.24453125 0.71875 0.075 0.0390625
5 0.23828125 0.684375 0.0609375 0.028125
5 0.159375 0.59765625 0.084375 0.065625
5 0.34375 0.54765625 0.05078125 0.05078125
5 0.2921875 0.4796875 0.0453125 0.028125
5 0.23359375 0.3734375 0.0734375 0.0421875
5 0.196875 0.4109375 0.08125 0.05
5 0.040625 0.5171875 0.075 0.04375
5 0.04765625 0.4828125 0.0375 0.0375
5 0.04140625 0.31875 0.05703125 0.05703125
1 0.08515625 0.3875 0.04375 0.034375
1 0.01953125 0.341796875 0.0390625 0.03984375
2 0.073046875 0.861328125 0.046875 0.03515625
2 0.06328125 0.753515625 0.0453125 0.0453125
2 0.542578125 0.94609375 0.03671875 0.0375
2 0.543359375 0.841796875 0.03984375 0.03984375
2 0.535546875 0.729296875 0.03671875 0.04921875