3 0.2515625 0.04375 0.04140625 0.04140625
3 0.303125 0.08046875 0.0515625 0.0328125
3 0.575 0.19921875 0.059375 0.059375
3 0.29765625 0.23515625 0.0453125 0.0328125
3 0.4578125 0.253125 0.0453125 0.0328125
3 0.58828125 0.28046875 0.0484375 0.0359375
3 0.61171875 0.34375 0.0609375 0.0375
3 0.58671875 0.51484375 0.059375 0.0453125
3 0.85625 0.60546875 0.03203125 0.03203125
3 0.6734375 0.73828125 0.046875 0.0328125
3 0.60703125 0.696875 0.0296875 0.0203125
3 0.478125 0.5234375 0.0578125 0.0328125
3 0.215625 0.65859375 0.065625 0.0328125
3 0.43828125 0.7375 0.0578125 0.0453125
3 0.44296875 0.78828125 0.02421875 0.02421875
3 0.29375 0.89921875 0.0375 0.0375
3 0.4515625 0.865625 0.03125 0.03125
3 0.509375 0.9125 0.0390625 0.028125
0 0.93828125 0.04453125 0.115625 0.071875
0 0.9640625 0.5328125 0.0625 0.0625
0 0.94296875 0.97578125 0.0484375 0.0484375
6 0.56640625 0.021875 0.0484375 0.040625
6 0.82734375 0.13828125 0.059375 0.075
6 0.96171875 0.23203125 0.071875 0.1
6 0.6640625 0.290625 0.034375 0.03125
6 0.84921875 0.465625 0.0578125 0.0453125
6 0.93203125 0.65390625 0.0546875 0.0546875
6 0.73359375 0.70078125 0.0625 0.0546875
6 0.671875 0.6515625 0.071875 0.0546875
6 0.753125 0.921875 0.065625 0.0484375
10 0.35234375 0.1125 0.084375 0.0453125
10 0.29765625 0.1921875 0.06015625 0.06015625
10 0.49375 0.3328125 0.07734375 0.07734375
10 0.76796875 0.328125 0.06875 0.0609375
10 0.25390625 0.44453125 0.04375 0.034375
10 0.41640625 0.43046875 0.0390625 0.0390625
10 0.30390625 0.4875 0.0703125 0.0359375
10 0.371875 0.575 0.0484375 0.0390625
10 0.478125 0.6546875 0.078125 0.05625
10 0.6515625 0.47421875 0.084375 0.0546875
10 0.7390625 0.6 0.0859375 0.059375
10 0.79921875 0.79375 0.0875 0.0625
10 0.62421875 0.8296875 0.059375 0.034375
10 0.6140625 0.91640625 0.1609375 0.084375
10 0.41171875 0.98515625 0.0640625 0.0265625
3 0.196875 0.4453125 0.034375 0.021875
7 0.0984375 0.26796875 0.12421875 0.12421875
7 0.146875 0.29453125 0.0765625 0.0359375
7 0.10234375 0.3703125 0.06171875 0.06171875
7 0.19453125 0.40625 0.04453125 0.04453125
7 0.09765625 0.4125 0.0515625 0.0296875
7 0.14453125 0.48671875 0.0828125 0.034375
7 0.053125 0.53671875 0.0421875 0.0421875
7 0.11015625 0.61640625 0.0453125 0.0453125
7 0.20703125 0.61171875 0.078125 0.04375
7 0.21796875 0.70234375 0.03125 0.03125
7 0.2265625 0.7875 0.0734375 0.04375
7 0.1875 0.86328125 0.071875 0.0484375
7 0.146875 0.93984375 0.05234375 0.05234375
7 0.0234375 0.965625 0.046875 0.034375
7 0.09140625 0.8953125 0.03828125 0.03828125
7 0.13125 0.82109375 0.0515625 0.0359375
7 0.08046875 0.78359375 0.046875 0.028125
7 0.12109375 0.7390625 0.040625 0.034375
7 0.021875 0.70234375 0.04375 0.03125
7 0.071875 0.6609375 0.05 0.034375
5 0.01484375 0.65703125 0.028125 0.028125
5 0.0140625 0.3484375 0.028125 0.053125
5 0.03828125 0.01796875 0.071875 0.0359375
2 0.566796875 0.287109375 0.33828125 0.22109375
2 0.745703125 0.0609375 0.06484375 0.0484375
2 0.75625 0.1953125 0.0640625 0.0671875
2 0.19375 0.0875 0.0421875 0.04296875
2 0.199609375 0.206640625 0.04453125 0.04140625
2 0.191796875 0.32109375 0.06015625 0.0390625