3 0.00546875 0.43828125 0.0109375 0.0203125
3 0.0609375 0.359375 0.0375 0.028125
3 0.0203125 0.2375 0.040625 0.05625
3 0.02578125 0.16953125 0.046875 0.06875
3 0.11875 0.071875 0.05625 0.0328125
3 0.01796875 0.03203125 0.0359375 0.0359375
9 0.12421875 0.21796875 0.0609375 0.0390625
9 0.12578125 0.36171875 0.0609375 0.059375
9 0.1984375 0.59765625 0.0734375 0.0515625
9 0.08125 0.7171875 0.0921875 0.0828125
6 0.3234375 0.05 0.0859375 0.04375
6 0.228125 0.15234375 0.0515625 0.0359375
6 0.41875 0.178125 0.0578125 0.0375
6 0.35546875 0.2625 0.0671875 0.0390625
6 0.26171875 0.36328125 0.05 0.025
6 0.1765625 0.40625 0.040625 0.025
6 0.403125 0.4390625 0.059375 0.0375
6 0.396875 0.3625 0.040625 0.0234375
6 0.44375 0.32578125 0.0734375 0.04375
6 0.60546875 0.471875 0.0703125 0.053125
6 0.45546875 0.5125 0.0328125 0.028125
6 0.31015625 0.5921875 0.046875 0.025
6 0.3578125 0.65546875 0.0390625 0.028125
6 0.4578125 0.62421875 0.065625 0.0390625
6 0.5109375 0.575 0.059375 0.04375
6 0.55078125 0.6578125 0.0375 0.0359375
6 0.51953125 0.79921875 0.0328125 0.0234375
6 0.57421875 0.85546875 0.0375 0.0265625
6 0.40703125 0.70234375 0.0359375 0.028125
6 0.36796875 0.828125 0.028125 0.0265625
6 0.36953125 0.91875 0.0375 0.0234375
6 0.259375 0.9765625 0.0296875 0.0203125
6 0.0765625 0.98984375 0.040625 0.015625
6 0.2046875 0.76171875 0.0578125 0.0546875
6 0.2015625 0.71015625 0.0671875 0.04375
0 0.62734375 0.0453125 0.13125 0.0671875
0 0.53125 0.14765625 0.1859375 0.1359375
0 0.24140625 0.2625 0.09375 0.1125
0 0.309375 0.3 0.025 0.0265625
0 0.72578125 0.35703125 0.109375 0.0953125
0 0.67265625 0.6890625 0.10625 0.0953125
0 0.47734375 0.95390625 0.1390625 0.0875
0 0.21796875 0.521875 0.4359375 0.0890625
10 0.7734375 0.89375 0.1 0.078125
10 0.62734375 0.84453125 0.1046875 0.06875
10 0.76796875 0.75859375 0.0953125 0.075
10 0.80625 0.653125 0.0671875 0.0546875
10 0.80546875 0.609375 0.078125 0.0625
10 0.903125 0.64140625 0.1171875 0.1015625
10 0.61796875 0.64921875 0.046875 0.028125
10 0.84453125 0.53671875 0.0359375 0.025
10 0.75234375 0.53671875 0.034375 0.01875
10 0.9171875 0.45 0.040625 0.0390625
10 0.74765625 0.50390625 0.0375 0.0265625
10 0.69140625 0.49765625 0.0765625 0.06875
10 0.7546875 0.46875 0.0515625 0.0390625
10 0.69296875 0.4296875 0.090625 0.05625
10 0.8046875 0.165625 0.0640625 0.0453125
10 0.74140625 0.25859375 0.0671875 0.05
10 0.7875 0.296875 0.0796875 0.0484375
10 0.78515625 0.33359375 0.0453125 0.0390625
2 0.724609375 0.07890625 0.08515625 0.0609375
2 0.84453125 0.128515625 0.035546875 0.0296875
2 0.8515625 0.229296875 0.058203125 0.035546875
2 0.87421875 0.324609375 0.041015625 0.041015625
2 0.970703125 0.207421875 0.058203125 0.21015625
2 0.5875 0.308984375 0.19453125 0.14921875
2 0.81328125 0.456640625 0.22578125 0.103515625
2 0.365625 0.106640625 0.05546875 0.03984375
2 0.321875 0.2109375 0.035546875 0.0640625
2 0.3453125 0.323828125 0.03125 0.0484375