6 0.778125 0.2109375 0.0640625 0.0640625
6 0.80546875 0.18046875 0.08125 0.046875
6 0.9703125 0.29921875 0.059375 0.0765625
6 0.962109375 0.475390625 0.07578125 0.08671875
6 0.9328125 0.55546875 0.0796875 0.0796875
6 0.978125 0.59765625 0.0296875 0.0609375
6 0.987109375 0.74296875 0.02578125 0.0296875
6 0.6984375 0.73203125 0.065625 0.0828125
6 0.578125 0.37890625 0.071875 0.1140625
0 0.86875 0.8625 0.0328125 0.021875
0 0.94453125 0.825 0.0296875 0.021875
0 0.9484375 0.85703125 0.02890625 0.02890625
0 0.89765625 0.75703125 0.0234375 0.015625
0 0.8171875 0.7953125 0.02734375 0.02734375
0 0.65 0.73359375 0.021875 0.0203125
0 0.76953125 0.7296875 0.0296875 0.0171875
0 0.81484375 0.72734375 0.028125 0.015625
0 0.84765625 0.69765625 0.05625 0.05625
0 0.92734375 0.659375 0.04375 0.0390625
0 0.84296875 0.6 0.0484375 0.0484375
0 0.721875 0.6015625 0.03125 0.025
0 0.88359375 0.56484375 0.046875 0.0390625
0 0.91015625 0.50546875 0.02421875 0.02421875
0 0.909375 0.44609375 0.028125 0.0203125
0 0.8703125 0.44609375 0.0296875 0.021875
0 0.90859375 0.4171875 0.0296875 0.01875
0 0.896875 0.2984375 0.03359375 0.03359375
0 0.9625 0.215625 0.0515625 0.0359375
0 0.85234375 0.240625 0.03359375 0.03359375
0 0.78671875 0.32421875 0.0453125 0.0265625
0 0.7875 0.3859375 0.0484375 0.0484375
0 0.7953125 0.44609375 0.02890625 0.02890625
0 0.79765625 0.50859375 0.071875 0.0375
0 0.6734375 0.4453125 0.0421875 0.0421875
3 0.65625 0.8390625 0.09375 0.0765625
3 0.77421875 0.76796875 0.0703125 0.0703125
3 0.59765625 0.70546875 0.0953125 0.0546875
3 0.76875 0.63515625 0.06953125 0.06953125
3 0.64375 0.6046875 0.0890625 0.0546875
3 0.7546875 0.53984375 0.06640625 0.06640625
3 0.75703125 0.44765625 0.0453125 0.028125
3 0.70859375 0.35703125 0.0328125 0.028125
3 0.70234375 0.23984375 0.0296875 0.0296875
3 0.62734375 0.29609375 0.03359375 0.03359375
3 0.58046875 0.17890625 0.04921875 0.04921875
3 0.58203125 0.23671875 0.040625 0.0265625
3 0.590625 0.44453125 0.0328125 0.0328125
3 0.5078125 0.4765625 0.053125 0.053125
3 0.59140625 0.5078125 0.05 0.0359375
3 0.640625 0.54140625 0.03828125 0.03828125
3 0.55546875 0.609375 0.03671875 0.03671875
3 0.5109375 0.60625 0.04375 0.0390625
3 0.48125 0.84609375 0.0703125 0.0703125
1 0.390625 0.88046875 0.0609375 0.0359375
1 0.34921875 0.67890625 0.0546875 0.034375
1 0.08828125 0.85859375 0.0296875 0.0359375
1 0.01796875 0.4234375 0.03125 0.028125
1 0.0765625 0.3625 0.0421875 0.03125
1 0.07265625 0.24609375 0.0953125 0.0953125
1 0.184375 0.1421875 0.096875 0.096875
1 0.384375 0.0953125 0.05859375 0.05859375
1 0.42578125 0.35390625 0.03046875 0.03046875
1 0.2546875 0.30625 0.0203125 0.025
1 0.2359375 0.35078125 0.0234375 0.0171875
9 0.29765625 0.8859375 0.02890625 0.02890625
9 0.56484375 0.875 0.0328125 0.01875
9 0.34609375 0.84765625 0.02421875 0.02421875
9 0.29375 0.81484375 0.0265625 0.0171875
9 0.11328125 0.753125 0.02578125 0.02578125
9 0.065625 0.68046875 0.0296875 0.028125
9 0.1625 0.71875 0.02265625 0.02265625
9 0.2515625 0.64453125 0.028125 0.01875
9 0.2 0.615625 0.0515625 0.0359375
9 0.2953125 0.5421875 0.02890625 0.02890625
9 0.38203125 0.5765625 0.0421875 0.021875
9 0.43046875 0.63515625 0.05625 0.0359375
9 0.4390625 0.67265625 0.0390625 0.0359375
9 0.465625 0.5109375 0.034375 0.0234375
9 0.3859375 0.48125 0.02890625 0.02890625
9 0.42578125 0.415625 0.0375 0.0203125
9 0.4640625 0.38515625 0.025 0.025
9 0.59609375 0.47890625 0.03203125 0.03203125
9 0.63125 0.4140625 0.02734375 0.02734375
9 0.5046875 0.35546875 0.0359375 0.0265625
9 0.46875 0.2953125 0.0765625 0.0453125
9 0.421875 0.23203125 0.05234375 0.05234375
9 0.5 0.17421875 0.0640625 0.05625
9 0.28671875 0.2953125 0.0578125 0.0640625
9 0.2875 0.390625 0.040625 0.0359375
9 0.21171875 0.515625 0.0609375 0.0375
9 0.084375 0.446875 0.0515625 0.0328125
5 0.023046875 0.822265625 0.04609375 0.05859375
5 0.2421875 0.703125 0.084375 0.084375
5 0.31875 0.74453125 0.0828125 0.0828125
5 0.4421875 0.58046875 0.0375 0.021875
5 0.35546875 0.46796875 0.0375 0.0296875
5 0.25859375 0.43203125 0.034375 0.0203125
5 0.3203125 0.3765625 0.0359375 0.028125
5 0.2265625 0.30546875 0.040625 0.03125
5 0.375 0.26796875 0.053125 0.0328125
5 0.309375 0.07578125 0.1140625 0.090625
9 0.41796875 0.08203125 0.0515625 0.0609375
2 0.537109375 0.146484375 0.03125 0.03125
2 0.541015625 0.207421875 0.03984375 0.03359375
2 0.546875 0.263671875 0.034375 0.04140625
2 0.918359375 0.158984375 0.03828125 0.03359375
2 0.9203125 0.212890625 0.03125 0.03125
2 0.928125 0.2671875 0.025 0.040625