10 0.8921875 0.02109375 0.046875 0.0421875
10 0.89921875 0.18125 0.04453125 0.04453125
10 0.66640625 0.2671875 0.03984375 0.03984375
10 0.8296875 0.403125 0.046875 0.046875
10 0.8984375 0.59296875 0.040625 0.034375
0 0.86015625 0.13046875 0.1046875 0.040625
0 0.5953125 0.0703125 0.090625 0.0828125
0 0.57109375 0.40234375 0.04375 0.040625
0 0.6921875 0.584375 0.04296875 0.04296875
0 0.8 0.68046875 0.0765625 0.0578125
0 0.56484375 0.7703125 0.1203125 0.0703125
5 0.84453125 0.64609375 0.040625 0.0265625
6 0.4 0.26875 0.06171875 0.06171875
6 0.48828125 0.421875 0.11171875 0.11171875
6 0.4 0.559375 0.125 0.0875
6 0.3078125 0.7484375 0.0546875 0.0390625
6 0.40234375 0.775 0.115625 0.0671875
6 0.12265625 0.57265625 0.146875 0.10625
6 0.15859375 0.503125 0.071875 0.0484375
6 0.0171875 0.399609375 0.034375 0.03515625
6 0.11875 0.15078125 0.0625 0.0484375
3 0.025 0.77109375 0.0375 0.025
3 0.09375 0.7203125 0.034375 0.0265625
3 0.21640625 0.6734375 0.0390625 0.0296875
3 0.21953125 0.58671875 0.0328125 0.0328125
3 0.0328125 0.6796875 0.03515625 0.03515625
3 0.03203125 0.58828125 0.04375 0.0265625
3 0.1015625 0.4953125 0.046875 0.0328125
3 0.014453125 0.45546875 0.02890625 0.03125
3 0.1703125 0.37265625 0.0515625 0.046875
3 0.1796875 0.24296875 0.05703125 0.05703125
3 0.10546875 0.275 0.05625 0.03125
3 0.015625 0.17734375 0.03125 0.0328125
3 0.019140625 0.141015625 0.03828125 0.04609375
2 0.841796875 0.425390625 0.14296875 0.20078125
2 0.75625 0.432421875 0.11328125 0.1140625
2 0.88671875 0.22265625 0.2265625 0.2421875
2 0.050390625 0.042578125 0.06953125 0.06484375
2 0.052734375 0.223046875 0.0796875 0.07109375
2 0.497265625 0.205859375 0.0453125 0.03984375
2 0.490234375 0.3203125 0.0421875 0.0421875