10 0.3484375 0.12890625 0.0390625 0.021875
10 0.47734375 0.14765625 0.05 0.025
10 0.3546875 0.23046875 0.05 0.0140625
10 0.44609375 0.28515625 0.0703125 0.0375
10 0.4875 0.2515625 0.0453125 0.0203125
10 0.41484375 0.3546875 0.0546875 0.0234375
10 0.53671875 0.34921875 0.0359375 0.0359375
10 0.46484375 0.421875 0.0484375 0.0265625
10 0.43515625 0.4875 0.046875 0.0203125
10 0.29765625 0.4234375 0.05625 0.03125
10 0.38515625 0.4578125 0.04375 0.0203125
10 0.26953125 0.49375 0.0453125 0.025
10 0.51953125 0.54375 0.0421875 0.0375
10 0.48125 0.6015625 0.0578125 0.0296875
10 0.4859375 0.65625 0.0453125 0.021875
10 0.4109375 0.6953125 0.040625 0.03125
10 0.3203125 0.75625 0.0671875 0.0359375
10 0.3234375 0.66640625 0.0359375 0.0234375
7 0.18984375 0.17578125 0.0359375 0.0359375
7 0.05859375 0.32109375 0.04140625 0.04140625
7 0.2125 0.340625 0.0265625 0.01875
7 0.3546875 0.1921875 0.0515625 0.0265625
7 0.28984375 0.3671875 0.053125 0.040625
7 0.36953125 0.3609375 0.04375 0.015625
7 0.27109375 0.4609375 0.0421875 0.01875
7 0.353125 0.51953125 0.0234375 0.0234375
7 0.234375 0.609375 0.0421875 0.0296875
7 0.28359375 0.64140625 0.034375 0.05625
7 0.296875 0.82890625 0.06875 0.0609375
7 0.12734375 0.76328125 0.0359375 0.0203125
1 0.96015625 0.315625 0.0375 0.021875
1 0.97421875 0.7078125 0.0515625 0.046875
6 0.70390625 0.1203125 0.05 0.0234375
6 0.7546875 0.2640625 0.0734375 0.03125
6 0.67734375 0.4421875 0.0546875 0.0359375
6 0.50625 0.4515625 0.046875 0.0265625
6 0.6390625 0.5078125 0.0375 0.01875
6 0.5640625 0.60625 0.05703125 0.05703125
6 0.396875 0.6078125 0.028125 0.028125
6 0.69140625 0.69375 0.075 0.0421875
6 0.45390625 0.78359375 0.075 0.0453125
6 0.4296875 0.878125 0.0609375 0.0609375
6 0.6203125 0.88046875 0.04296875 0.04296875
6 0.728125 0.6 0.02734375 0.02734375
6 0.82109375 0.4984375 0.0734375 0.05
6 0.815625 0.3984375 0.0375 0.01875
6 0.90234375 0.3234375 0.0703125 0.04375
0 0.88515625 0.88203125 0.065625 0.059375
0 0.8265625 0.60546875 0.08203125 0.08203125
0 0.60234375 0.42109375 0.0734375 0.090625
0 0.625 0.30859375 0.121875 0.121875
0 0.60390625 0.2078125 0.0921875 0.1125
0 0.953125 0.455859375 0.09375 0.09765625
0 0.92421875 0.3859375 0.1390625 0.1046875
5 0.10078125 0.38046875 0.04765625 0.04765625
5 0.07578125 0.4125 0.0515625 0.03125
5 0.1578125 0.46875 0.0328125 0.0265625
5 0.20078125 0.52578125 0.0671875 0.0375
5 0.0453125 0.5671875 0.06328125 0.06328125
5 0.11640625 0.640625 0.040625 0.028125
5 0.121875 0.675 0.0515625 0.0515625
5 0.07890625 0.7046875 0.0609375 0.0609375
5 0.17421875 0.7625 0.05078125 0.05078125
5 0.01640625 0.796875 0.0328125 0.05
5 0.02578125 0.859765625 0.0515625 0.05390625
5 0.1078125 0.91171875 0.08125 0.0421875
2 0.796875 0.86796875 0.053125 0.0375
2 0.7875 0.765625 0.0328125 0.0328125
2 0.779296875 0.63125 0.04453125 0.0328125
2 0.384375 0.853125 0.046875 0.0328125
2 0.369921875 0.761328125 0.03203125 0.03203125
2 0.362890625 0.66328125 0.0328125 0.0390625