9 0.63125 0.38125 0.0484375 0.0546875
9 0.65390625 0.5734375 0.0609375 0.0515625
9 0.509375 0.86875 0.053125 0.0546875
9 0.8734375 0.9625 0.04375 0.0453125
9 0.3765625 0.9125 0.065625 0.0640625
9 0.37890625 0.67734375 0.0484375 0.0484375
9 0.50234375 0.6984375 0.03828125 0.03828125
9 0.28359375 0.27578125 0.05078125 0.05078125
9 0.4171875 0.36484375 0.034375 0.028125
9 0.6328125 0.2375 0.02734375 0.02734375
9 0.40390625 0.19609375 0.053125 0.04375
9 0.2796875 0.05546875 0.0796875 0.0453125
10 0.979296875 0.598046875 0.04140625 0.04296875
10 0.98984375 0.684375 0.0203125 0.0546875
3 0.8578125 0.39296875 0.04375 0.04375
3 0.9328125 0.8765625 0.046875 0.046875
0 0.97421875 0.39140625 0.0484375 0.0390625
0 0.8984375 0.325 0.05234375 0.05234375
0 0.7390625 0.1765625 0.05 0.0375
0 0.621875 0.06875 0.1140625 0.08125
0 0.78984375 0.6484375 0.08671875 0.08671875
0 0.60625 0.8125 0.05625 0.05625
0 0.67734375 0.49140625 0.05703125 0.05703125
10 0.9390625 0.08203125 0.1140625 0.1609375
8 0.1640625 0.2109375 0.03359375 0.03359375
8 0.16875 0.42890625 0.046875 0.05
8 0.07578125 0.2109375 0.053125 0.05625
8 0.04140625 0.56796875 0.0453125 0.0453125
8 0.28515625 0.58359375 0.0296875 0.0265625
8 0.26328125 0.65078125 0.0421875 0.0390625
8 0.384375 0.7578125 0.04453125 0.04453125
8 0.15546875 0.8203125 0.0484375 0.053125
8 0.04609375 0.73515625 0.028125 0.028125
8 0.02109375 0.97109375 0.03515625 0.03515625
8 0.29921875 0.96328125 0.0515625 0.040625
1 0.147265625 0.98203125 0.04765625 0.0359375
1 0.019921875 0.778515625 0.03984375 0.04140625
1 0.1578125 0.65703125 0.1578125 0.1390625
1 0.5515625 0.56015625 0.05625 0.0625
1 0.36328125 0.51015625 0.0484375 0.040625
1 0.35859375 0.3578125 0.04140625 0.04140625
1 0.41171875 0.27578125 0.0421875 0.0421875
1 0.0515625 0.27578125 0.04296875 0.04296875
1 0.1515625 0.065625 0.09375 0.09375