9 0.89609375 0.11015625 0.1 0.0921875
9 0.86640625 0.37578125 0.10625 0.08125
9 0.6234375 0.54765625 0.1296875 0.09375
9 0.44375 0.7203125 0.134375 0.1015625
1 0.2875 0.871875 0.0984375 0.0515625
1 0.328125 0.6703125 0.084375 0.0546875
1 0.465625 0.42578125 0.040625 0.04375
1 0.4546875 0.35703125 0.0546875 0.0375
1 0.48125 0.18203125 0.0859375 0.0734375
1 0.53671875 0.2234375 0.0859375 0.075
1 0.596875 0.39140625 0.14375 0.1
1 0.559375 0.434375 0.1015625 0.0734375
1 0.78046875 0.29453125 0.109375 0.09375
1 0.7515625 0.4625 0.0984375 0.05625
7 0.12265625 0.64140625 0.0796875 0.0515625
7 0.16171875 0.5515625 0.1640625 0.1265625
7 0.13046875 0.43359375 0.1375 0.0875
7 0.203125 0.21015625 0.065625 0.0421875
10 0.18671875 0.02734375 0.0515625 0.03125
10 0.0265625 0.09296875 0.0453125 0.040625
10 0.09453125 0.2765625 0.0625 0.0546875
10 0.2015625 0.35703125 0.040625 0.0359375
2 0.567578125 0.084375 0.04921875 0.04921875
2 0.57734375 0.17890625 0.0328125 0.028125
2 0.58671875 0.28828125 0.0453125 0.02890625
2 0.08515625 0.052734375 0.0515625 0.034375
2 0.1328125 0.129296875 0.04140625 0.0375
2 0.084375 0.20390625 0.046875 0.03515625
2 0.963671875 0.1078125 0.02734375 0.028125
2 0.971484375 0.169140625 0.034375 0.028125
2 0.985546875 0.228125 0.02890625 0.028125