7 0.4125 0.84140625 0.0734375 0.0578125
7 0.1671875 0.815625 0.0375 0.028125
7 0.040625 0.778125 0.0625 0.0640625
7 0.1140625 0.6359375 0.046875 0.03125
7 0.16953125 0.425 0.0546875 0.0390625
7 0.0984375 0.3859375 0.06875 0.071875
7 0.115625 0.14921875 0.071875 0.0734375
7 0.3375 0.2296875 0.040625 0.0234375
10 0.05859375 0.23046875 0.0671875 0.0484375
10 0.0453125 0.3390625 0.0484375 0.0390625
10 0.125 0.584375 0.053125 0.04375
10 0.0453125 0.68203125 0.059375 0.05625
5 0.37734375 0.04609375 0.0921875 0.05625
5 0.490625 0.11484375 0.0796875 0.075
5 0.496875 0.18984375 0.053125 0.0453125
5 0.2734375 0.228125 0.0640625 0.04375
5 0.39296875 0.30625 0.0671875 0.0546875
5 0.33515625 0.34453125 0.06875 0.053125
5 0.3359375 0.3875 0.0609375 0.040625
5 0.23515625 0.54375 0.078125 0.040625
5 0.290625 0.621875 0.0515625 0.03125
5 0.35625 0.753125 0.0671875 0.06875
5 0.40546875 0.70234375 0.0671875 0.0453125
5 0.4453125 0.48671875 0.1 0.071875
5 0.6171875 0.57421875 0.0671875 0.0484375
5 0.62109375 0.62109375 0.0640625 0.0484375
5 0.59765625 0.82734375 0.065625 0.04375
5 0.83515625 0.6875 0.0640625 0.040625
5 0.853125 0.73828125 0.0890625 0.0703125
1 0.74375 0.08125 0.0484375 0.04375
1 0.71875 0.33515625 0.0359375 0.0234375
1 0.9296875 0.37265625 0.065625 0.0390625
1 0.94453125 0.2640625 0.0578125 0.0296875
1 0.95546875 0.20703125 0.0328125 0.0296875
1 0.94453125 0.159375 0.071875 0.053125
1 0.84375 0.44921875 0.0328125 0.021875
1 0.94765625 0.57109375 0.028125 0.0203125
1 0.87109375 0.64765625 0.0328125 0.021875
1 0.78046875 0.69140625 0.034375 0.028125
1 0.54296875 0.734375 0.0609375 0.034375
1 0.628125 0.8 0.0546875 0.0375
1 0.703125 0.90234375 0.0546875 0.03125
1 0.94375 0.77421875 0.0140625 0.0171875
1 0.975 0.68515625 0.0203125 0.0234375
9 0.73046875 0.696875 0.0765625 0.0765625
9 0.9109375 0.53203125 0.0453125 0.04375
9 0.85 0.4984375 0.0609375 0.0359375
3 0.9921875 0.8140625 0.015625 0.028125
3 0.9609375 0.6109375 0.0359375 0.0234375
3 0.98828125 0.58125 0.0234375 0.05
2 0.887890625 0.190234375 0.190234375 0.25
2 0.98515625 0.10234375 0.0296875 0.03984375
2 0.553125 0.299609375 0.05546875 0.033984375
2 0.544140625 0.177734375 0.033984375 0.0484375
2 0.6859375 0.07734375 0.03984375 0.0296875
2 0.0140625 0.1140625 0.028125 0.0359375
2 0.0078125 0.231640625 0.015625 0.0484375
2 0.0078125 0.34609375 0.015625 0.0421875
2 0.73359375 0.8328125 0.4078125 0.334375