6 0.28515625 0.06875 0.1140625 0.0421875
6 0.27578125 0.27734375 0.09140625 0.09140625
6 0.584375 0.1640625 0.09375 0.0375
6 0.49296875 0.31796875 0.0703125 0.0359375
6 0.56875 0.36171875 0.0515625 0.0515625
6 0.74921875 0.321875 0.09609375 0.09609375
6 0.5453125 0.484375 0.084375 0.084375
6 0.46484375 0.4765625 0.0453125 0.046875
6 0.50390625 0.65234375 0.1078125 0.040625
6 0.5828125 0.6484375 0.0671875 0.0671875
6 0.45390625 0.75234375 0.09375 0.03125
6 0.56015625 0.83515625 0.1140625 0.0453125
6 0.75390625 0.55078125 0.1125 0.046875
0 0.1921875 0.6328125 0.0984375 0.0515625
0 0.165625 0.5859375 0.10546875 0.10546875
0 0.2421875 0.48828125 0.090625 0.090625
0 0.06171875 0.45546875 0.034375 0.034375
0 0.015625 0.37421875 0.03046875 0.03046875
0 0.04765625 0.32109375 0.0953125 0.0578125
0 0.1421875 0.41015625 0.0578125 0.025
0 0.09609375 0.228125 0.0703125 0.015625
0 0.321875 0.19296875 0.040625 0.040625
0 0.0703125 0.0953125 0.0453125 0.028125
0 0.0109375 0.1390625 0.021875 0.03125
3 0.965625 0.1078125 0.03515625 0.03515625
3 0.81796875 0.13515625 0.0328125 0.025
3 0.88203125 0.17421875 0.03125 0.0140625
3 0.8421875 0.20859375 0.040625 0.021875
3 0.90546875 0.2453125 0.0265625 0.0265625
3 0.796875 0.2765625 0.02890625 0.02890625
3 0.8671875 0.31640625 0.04296875 0.04296875
3 0.8796875 0.353125 0.03125 0.015625
3 0.634375 0.36015625 0.0453125 0.0234375
3 0.70078125 0.35703125 0.0546875 0.0203125
3 0.4484375 0.40703125 0.046875 0.015625
3 0.4265625 0.35859375 0.065625 0.0125
3 0.221875 0.40625 0.040625 0.040625
3 0.0609375 0.41015625 0.040625 0.028125
3 0.178125 0.53984375 0.075 0.0265625
3 0.4265625 0.61484375 0.075 0.04375
3 0.2296875 0.7796875 0.0640625 0.0640625
3 0.309375 0.77109375 0.059375 0.046875
3 0.086328125 0.949609375 0.10234375 0.10078125
9 0.10859375 0.63984375 0.0453125 0.0453125
9 0.40234375 0.5265625 0.11796875 0.11796875
9 0.77265625 0.3953125 0.03203125 0.03203125
9 0.93671875 0.35234375 0.0359375 0.03125
9 0.46015625 0.790625 0.171875 0.053125
9 0.5875 0.9875 0.115625 0.025
9 0.94921875 0.76171875 0.0796875 0.0796875
9 0.9859375 0.66640625 0.028125 0.0265625
3 0.78203125 0.671875 0.09375 0.0421875
3 0.8984375 0.66484375 0.08125 0.040625
3 0.9109375 0.50234375 0.05390625 0.05390625
3 0.97578125 0.4265625 0.04453125 0.04453125
1 0.873828125 0.9515625 0.13046875 0.096875
1 0.78515625 0.80859375 0.0984375 0.046875
1 0.97890625 0.69921875 0.0421875 0.028125
1 0.6171875 0.5640625 0.096875 0.053125
1 0.8484375 0.465625 0.0765625 0.05
1 0.903125 0.434375 0.071875 0.040625
1 0.9828125 0.3875 0.034375 0.040625