5 0.20625 0.75859375 0.1203125 0.1203125
5 0.2734375 0.82734375 0.05 0.028125
5 0.3296875 0.68515625 0.028125 0.028125
5 0.190625 0.5390625 0.0765625 0.1015625
5 0.47734375 0.4734375 0.0515625 0.096875
5 0.67265625 0.35625 0.08515625 0.08515625
5 0.759375 0.21015625 0.046875 0.03125
5 0.665625 0.15859375 0.04375 0.0453125
5 0.5703125 0.6671875 0.03359375 0.03359375
5 0.81640625 0.5296875 0.0328125 0.0328125
5 0.84375 0.409375 0.034375 0.01875
10 0.35859375 0.84375 0.04375 0.0359375
10 0.41328125 0.73984375 0.03125 0.03125
10 0.04296875 0.7421875 0.040625 0.040625
10 0.28828125 0.64921875 0.0359375 0.0234375
10 0.390625 0.53671875 0.0515625 0.0296875
10 0.35 0.50234375 0.0453125 0.03125
10 0.38828125 0.3625 0.0828125 0.0359375
10 0.328125 0.28046875 0.0421875 0.0421875
10 0.07265625 0.24765625 0.0578125 0.0578125
10 0.06328125 0.0609375 0.05625 0.0609375
0 0.29765625 0.603125 0.0890625 0.071875
0 0.2296875 0.35390625 0.0328125 0.05625
0 0.04453125 0.1796875 0.0890625 0.0484375
7 0.72578125 0.8234375 0.0390625 0.021875
7 0.68359375 0.68046875 0.0859375 0.0984375
7 0.4890625 0.734375 0.040625 0.0265625
7 0.54140625 0.60546875 0.0609375 0.0546875
7 0.553125 0.540625 0.0546875 0.0546875
7 0.6328125 0.4484375 0.0296875 0.0296875
7 0.65078125 0.56875 0.0390625 0.025
7 0.5734375 0.384375 0.04375 0.0484375
7 0.44765625 0.403125 0.0390625 0.01875
7 0.5 0.3375 0.04609375 0.04609375
7 0.40703125 0.17890625 0.059375 0.0546875
7 0.6296875 0.18515625 0.0390625 0.0390625
7 0.6078125 0.1046875 0.059375 0.0390625
1 0.9734375 0.85078125 0.0296875 0.0234375
1 0.8890625 0.84453125 0.040625 0.0203125
1 0.93203125 0.8796875 0.0390625 0.01875
1 0.8078125 0.87421875 0.028125 0.028125
1 0.87265625 0.67109375 0.08515625 0.08515625
1 0.940625 0.55625 0.0328125 0.0234375
1 0.98359375 0.5203125 0.0265625 0.0234375
1 0.85625 0.50078125 0.034375 0.0265625
1 0.9796875 0.4640625 0.034375 0.028125
1 0.96953125 0.4046875 0.0453125 0.0234375
1 0.9203125 0.2265625 0.040625 0.040625
1 0.98515625 0.13046875 0.0296875 0.0484375
3 0.8796875 0.25625 0.04375 0.04375
3 0.9234375 0.3421875 0.03515625 0.03515625
3 0.80859375 0.4640625 0.03671875 0.03671875
3 0.78828125 0.6765625 0.040625 0.040625
3 0.9109375 0.7515625 0.0734375 0.0515625
3 0.98203125 0.5796875 0.0359375 0.0359375
2 0.1796875 0.083984375 0.05078125 0.05078125
2 0.5609375 0.13359375 0.046875 0.046875
2 0.588671875 0.236328125 0.03515625 0.05234375
2 0.574609375 0.347265625 0.05234375 0.03515625
2 0.355078125 0.208984375 0.23984375 0.23984375
2 0.123046875 0.3046875 0.24609375 0.24375