7 0.1125 0.1765625 0.0359375 0.0359375
7 0.1828125 0.1203125 0.0609375 0.0765625
7 0.22421875 0.38515625 0.0546875 0.0828125
7 0.334375 0.33828125 0.07265625 0.07265625
7 0.3375 0.5453125 0.046875 0.0734375
7 0.45390625 0.54921875 0.053125 0.0765625
7 0.48984375 0.61484375 0.0421875 0.109375
7 0.6296875 0.4390625 0.04375 0.04375
7 0.6296875 0.23125 0.05 0.0546875
7 0.5875 0.0671875 0.04375 0.0359375
7 0.54921875 0.1078125 0.0265625 0.0375
0 0.15390625 0.9203125 0.125 0.125
0 0.08359375 0.6515625 0.103125 0.103125
0 0.30078125 0.884375 0.12578125 0.12578125
0 0.3671875 0.6546875 0.0640625 0.0640625
0 0.4421875 0.71171875 0.0625 0.065625
0 0.61796875 0.9203125 0.08125 0.1109375
0 0.73515625 0.73125 0.08125 0.0625
0 0.78984375 0.646875 0.0359375 0.0546875
0 0.93828125 0.7515625 0.0328125 0.0421875
0 0.6671875 0.746875 0.03359375 0.03359375
10 0.86328125 0.4953125 0.040625 0.040625
10 0.71953125 0.54921875 0.0203125 0.0375
10 0.68984375 0.5484375 0.04921875 0.04921875
10 0.66328125 0.6515625 0.05390625 0.05390625
10 0.6015625 0.65546875 0.0296875 0.03125
10 0.53359375 0.6578125 0.0359375 0.06875
10 0.4890625 0.8734375 0.06015625 0.06015625
10 0.38046875 0.815625 0.0484375 0.053125
10 0.33828125 0.82109375 0.03125 0.0703125
10 0.225 0.60546875 0.0515625 0.053125
10 0.046875 0.4953125 0.0421875 0.065625
10 0.14765625 0.3875 0.0359375 0.0390625
10 0.2640625 0.546875 0.0453125 0.0703125
10 0.29609375 0.33359375 0.0375 0.0515625
10 0.3796875 0.5953125 0.028125 0.05
10 0.45234375 0.440625 0.0359375 0.0484375
1 0.33515625 0.1671875 0.05 0.0515625
1 0.45546875 0.32421875 0.0578125 0.0828125
1 0.53203125 0.2734375 0.0359375 0.0359375
1 0.34140625 0.10546875 0.0625 0.0703125
1 0.5265625 0.06796875 0.059375 0.08125
1 0.75234375 0.19609375 0.03515625 0.03515625
7 0.703125 0.1609375 0.0328125 0.0328125
5 0.7171875 0.4453125 0.0359375 0.0421875
5 0.971875 0.28984375 0.03984375 0.03984375
5 0.85625 0.078125 0.0953125 0.134375
5 0.66875 0.14140625 0.0375 0.0375
5 0.55859375 0.0328125 0.03515625 0.03515625
2 0.03828125 0.28828125 0.0375 0.0453125
2 0.106640625 0.28046875 0.03671875 0.0359375
2 0.183203125 0.230078125 0.03359375 0.0453125
2 0.03828125 0.815234375 0.0515625 0.05078125
2 0.112890625 0.815234375 0.0390625 0.0390625
2 0.185546875 0.81171875 0.046875 0.046875
2 0.784765625 0.331640625 0.078125 0.10078125
2 0.91484375 0.189453125 0.0953125 0.09609375