9 0.02734375 0.273828125 0.0546875 0.05703125
9 0.246875 0.27578125 0.0578125 0.0578125
9 0.203125 0.209375 0.065625 0.0484375
9 0.28203125 0.14609375 0.05703125 0.05703125
9 0.1765625 0.0578125 0.05625 0.05
9 0.28359375 0.33515625 0.0234375 0.0171875
9 0.41171875 0.39765625 0.01640625 0.01640625
9 0.36875 0.46171875 0.025 0.0125
9 0.2390625 0.49375 0.0234375 0.01875
9 0.23828125 0.365625 0.034375 0.0125
9 0.196875 0.3984375 0.025 0.015625
9 0.0453125 0.371875 0.0390625 0.0390625
9 0.15078125 0.46171875 0.0171875 0.0171875
9 0.15 0.55859375 0.028125 0.0203125
9 0.1921875 0.6234375 0.0375 0.0375
9 0.2 0.659375 0.0484375 0.0359375
9 0.321875 0.8671875 0.0234375 0.015625
9 0.09609375 0.834375 0.0265625 0.0234375
9 0.04765625 0.871875 0.0265625 0.0234375
9 0.05 0.79921875 0.028125 0.0171875
9 0.015625 0.63046875 0.0234375 0.01875
9 0.065625 0.5296875 0.0203125 0.0203125
5 0.040625 0.04765625 0.08125 0.0875
5 0.1515625 0.246875 0.025 0.0234375
5 0.08828125 0.35859375 0.034375 0.028125
5 0.02734375 0.41328125 0.0296875 0.0296875
5 0.11953125 0.453125 0.021875 0.021875
5 0.2109375 0.56328125 0.02734375 0.02734375
5 0.07265625 0.7296875 0.0859375 0.0859375
5 0.028125 0.68984375 0.053125 0.0796875
1 0.140625 0.8734375 0.0625 0.04375
1 0.19140625 0.334375 0.040625 0.0125
1 0.1203125 0.06328125 0.0828125 0.0609375
1 0.10859375 0.65703125 0.0578125 0.0484375
3 0.23515625 0.83203125 0.07421875 0.07421875
3 0.4171875 0.8328125 0.090625 0.0671875
3 0.36796875 0.69375 0.090625 0.059375
3 0.55 0.76328125 0.09375 0.05
3 0.54765625 0.62421875 0.07421875 0.07421875
3 0.4125 0.58828125 0.075 0.075
3 0.28125 0.59453125 0.040625 0.034375
3 0.32890625 0.5984375 0.04375 0.04375
3 0.284375 0.45859375 0.0609375 0.0421875
3 0.36875 0.4953125 0.05625 0.03125
3 0.41328125 0.521875 0.0421875 0.025
3 0.54140625 0.5234375 0.0890625 0.046875
3 0.54140625 0.43046875 0.034375 0.034375
3 0.496875 0.334375 0.0453125 0.03125
3 0.4109375 0.27265625 0.0421875 0.0296875
3 0.365625 0.2109375 0.03125 0.021875
3 0.36796875 0.15078125 0.0640625 0.0484375
3 0.4953125 0.21328125 0.04140625 0.04140625
6 0.46875 0.72265625 0.0796875 0.084375
6 0.35859375 0.35625 0.06875 0.1171875
6 0.584375 0.18046875 0.065625 0.065625
6 0.61015625 0.14296875 0.084375 0.0546875
6 0.7984375 0.2625 0.09375 0.0921875
6 0.77890625 0.45625 0.08125 0.1171875
6 0.73671875 0.53984375 0.103125 0.071875
6 0.81171875 0.58828125 0.1015625 0.0671875
6 0.8328125 0.69375 0.140625 0.140625
0 0.78984375 0.17890625 0.04609375 0.04609375
3 0.37265625 0.428125 0.03203125 0.03203125
0 0.66171875 0.209375 0.05 0.03125
0 0.7046875 0.26953125 0.03828125 0.03828125
0 0.5859375 0.29921875 0.0609375 0.025
0 0.58046875 0.36484375 0.065625 0.040625
0 0.45703125 0.4234375 0.03515625 0.03515625
0 0.7109375 0.39375 0.0328125 0.021875
0 0.84296875 0.39296875 0.03125 0.021875
0 0.5828125 0.42734375 0.03125 0.0171875
0 0.66796875 0.42421875 0.034375 0.01875
0 0.71484375 0.42578125 0.0234375 0.0234375
0 0.7125 0.48515625 0.0265625 0.0265625
0 0.5859375 0.4921875 0.078125 0.0453125
0 0.496875 0.58828125 0.0375 0.0203125
0 0.4109375 0.72265625 0.0375 0.0203125
0 0.63984375 0.86171875 0.04375 0.01875
0 0.7375 0.85859375 0.0328125 0.0328125
0 0.728125 0.8234375 0.05 0.0296875
0 0.60234375 0.7953125 0.0328125 0.0203125
0 0.684375 0.75703125 0.028125 0.0234375
0 0.59609375 0.72109375 0.028125 0.015625
0 0.5453125 0.71875 0.0421875 0.021875
0 0.634375 0.68515625 0.075 0.040625
0 0.7234375 0.6484375 0.0609375 0.0328125
0 0.634375 0.58359375 0.071875 0.0359375
0 0.675 0.55078125 0.04296875 0.04296875
7 0.97109375 0.14140625 0.0390625 0.0296875
7 0.9296875 0.33359375 0.0890625 0.1015625
7 0.97890625 0.639453125 0.0421875 0.05703125
2 0.325390625 0.1109375 0.03125 0.028125
2 0.325390625 0.174609375 0.03125 0.03359375
2 0.323828125 0.236328125 0.03359375 0.03828125
2 0.738671875 0.11875 0.03984375 0.0359375
2 0.740234375 0.174609375 0.03828125 0.03828125
2 0.74921875 0.238671875 0.0359375 0.03671875