5 0.49921875 0.91953125 0.0390625 0.028125
5 0.4484375 0.6703125 0.0375 0.0265625
5 0.40859375 0.6703125 0.034375 0.0234375
5 0.22421875 0.8953125 0.034375 0.0296875
5 0.0671875 0.55859375 0.0546875 0.0453125
5 0.2890625 0.315625 0.03984375 0.03984375
5 0.040625 0.30390625 0.025 0.0234375
5 0.0453125 0.36953125 0.0328125 0.0171875
5 0.08046875 0.3359375 0.04375 0.028125
5 0.07734375 0.30625 0.0390625 0.028125
5 0.1671875 0.18515625 0.03125 0.03125
5 0.20703125 0.18515625 0.05 0.0359375
5 0.07578125 0.06953125 0.0546875 0.0390625
3 0.01484375 0.133203125 0.0296875 0.03203125
3 0.16484375 0.11328125 0.11875 0.09375
3 0.165625 0.21640625 0.0640625 0.046875
3 0.20703125 0.346875 0.03828125 0.03828125
3 0.3515625 0.32578125 0.0375 0.025
3 0.215625 0.64296875 0.128125 0.065625
3 0.1765625 0.48046875 0.0421875 0.0421875
3 0.016796875 0.525390625 0.03359375 0.03984375
3 0.009375 0.6578125 0.01875 0.0390625
3 0.1609375 0.7609375 0.0609375 0.04375
7 0.0375 0.20546875 0.075 0.0328125
7 0.1265625 0.27734375 0.0546875 0.0546875
7 0.12421875 0.31015625 0.059375 0.0375
7 0.24375 0.3734375 0.0359375 0.0359375
3 0.16484375 0.3421875 0.028125 0.03125
7 0.04609375 0.41953125 0.0265625 0.0234375
7 0.28046875 0.4125 0.0390625 0.0265625
7 0.184375 0.4453125 0.03046875 0.03046875
7 0.1234375 0.55859375 0.053125 0.0296875
7 0.02265625 0.571875 0.0359375 0.0359375
7 0.05 0.66640625 0.04375 0.0328125
7 0.1234375 0.73046875 0.0265625 0.0203125
7 0.0109375 0.9234375 0.021875 0.0203125
7 0.153125 0.796875 0.0375 0.025
0 0.48046875 0.31484375 0.0875 0.0875
0 0.4375 0.37890625 0.0546875 0.040625
0 0.521875 0.4359375 0.0703125 0.040625
0 0.5515625 0.49765625 0.0234375 0.0234375
0 0.55390625 0.55625 0.03828125 0.03828125
0 0.51953125 0.6171875 0.0546875 0.0546875
0 0.51640625 0.6546875 0.0734375 0.04375
0 0.59921875 0.6953125 0.025 0.01875
0 0.51484375 0.7484375 0.021875 0.021875
0 0.409375 0.709375 0.021875 0.021875
0 0.43671875 0.77421875 0.025 0.0203125
0 0.46953125 0.846875 0.021875 0.0171875
0 0.42734375 0.8734375 0.0390625 0.028125
0 0.54453125 0.92578125 0.028125 0.0265625
0 0.5484375 0.82109375 0.02578125 0.02578125
0 0.30390625 0.58671875 0.0234375 0.01875
0 0.29921875 0.64609375 0.021875 0.021875
0 0.3703125 0.55390625 0.021875 0.03125
0 0.40546875 0.5875 0.025 0.0203125
0 0.43828125 0.53125 0.0546875 0.0328125
0 0.43125 0.490625 0.090625 0.0625
0 0.38984375 0.40390625 0.0671875 0.0578125
9 0.8609375 0.08828125 0.065625 0.034375
9 0.83515625 0.1109375 0.0265625 0.0390625
9 0.61484375 0.25 0.0328125 0.0328125
9 0.58203125 0.27734375 0.040625 0.0265625
9 0.628125 0.371875 0.0546875 0.0421875
9 0.7265625 0.4703125 0.0578125 0.0625
9 0.80703125 0.465625 0.115625 0.053125
9 0.74375 0.6484375 0.0828125 0.071875
9 0.5953125 0.646875 0.0578125 0.0578125
9 0.63671875 0.83515625 0.0375 0.0375
9 0.5375 0.8796875 0.05 0.040625
6 0.9859375 0.13203125 0.028125 0.0453125
6 0.88359375 0.13046875 0.06796875 0.06796875
6 0.86484375 0.2734375 0.0671875 0.05625
6 0.8671875 0.36484375 0.0375 0.0296875
6 0.7921875 0.3953125 0.03125 0.03125
6 0.87734375 0.45234375 0.03984375 0.03984375
6 0.84921875 0.62890625 0.04375 0.04375
6 0.8609375 0.75625 0.09375 0.075
6 0.9125 0.86953125 0.04375 0.04375
6 0.978125 0.98671875 0.0421875 0.0265625
6 0.96015625 0.65703125 0.059375 0.05
6 0.96953125 0.53203125 0.05625 0.1015625
2 0.302734375 0.08671875 0.0484375 0.034375
2 0.294140625 0.192578125 0.05390625 0.046875
2 0.587890625 0.2953125 0.11796875 0.11796875
2 0.6484375 0.817578125 0.1265625 0.1234375
2 0.926171875 0.652734375 0.14765625 0.15546875
2 0.794140625 0.435546875 0.21875 0.21171875
2 0.89140625 0.109375 0.1953125 0.1703125
2 0.697265625 0.009375 0.06484375 0.01875
2 0.765625 0.1328125 0.05 0.05
2 0.808984375 0.254296875 0.04921875 0.03359375
2 0.151171875 0.544921875 0.2 0.2