1 0.125 0.03671875 0.0546875 0.0484375
1 0.35 0.13359375 0.078125 0.059375
1 0.34609375 0.18828125 0.0359375 0.025
1 0.35234375 0.25 0.059375 0.0265625
1 0.31171875 0.3578125 0.0859375 0.0375
1 0.41640625 0.37421875 0.0515625 0.0515625
1 0.06953125 0.31953125 0.0328125 0.025
1 0.2015625 0.44140625 0.046875 0.028125
1 0.2328125 0.46328125 0.0328125 0.03125
1 0.521875 0.44453125 0.0171875 0.0234375
1 0.50234375 0.30078125 0.03828125 0.03828125
1 0.3703125 0.57109375 0.034375 0.01875
1 0.2703125 0.653125 0.03515625 0.03515625
1 0.39140625 0.6875 0.034375 0.034375
1 0.47578125 0.603125 0.0265625 0.0203125
1 0.33671875 0.775 0.0328125 0.0328125
1 0.0109375 0.95234375 0.01875 0.01875
1 0.1578125 0.7 0.0296875 0.0265625
9 0.103125 0.71015625 0.078125 0.075
9 0.3203125 0.5265625 0.065625 0.040625
9 0.2546875 0.4984375 0.04375 0.0421875
9 0.55234375 0.08125 0.0671875 0.05625
9 0.56875 0.178125 0.04296875 0.04296875
9 0.56796875 0.44609375 0.0546875 0.0546875
9 0.7625 0.69453125 0.065625 0.0609375
9 0.82421875 0.5875 0.0578125 0.0578125
9 0.76484375 0.3859375 0.05 0.0515625
9 0.6265625 0.30703125 0.0515625 0.0421875
9 0.73125 0.2640625 0.0390625 0.0390625
5 0.2234375 0.75 0.08671875 0.08671875
5 0.221875 0.69453125 0.059375 0.046875
3 0.62265625 0.96640625 0.025 0.034375
3 0.57109375 0.92578125 0.03828125 0.03828125
3 0.55703125 0.83828125 0.040625 0.0265625
3 0.3984375 0.815625 0.0375 0.0375
3 0.5453125 0.71640625 0.125 0.075
3 0.52578125 0.63828125 0.0421875 0.0421875
3 0.43125 0.571875 0.05625 0.0375
3 0.37734375 0.6015625 0.0359375 0.025
3 0.48046875 0.53359375 0.0609375 0.0609375
3 0.56796875 0.5953125 0.0359375 0.034375
3 0.6109375 0.58203125 0.0390625 0.0359375
3 0.421875 0.43203125 0.0546875 0.0546875
9 0.6390625 0.49453125 0.028125 0.034375
3 0.63046875 0.1015625 0.034375 0.0375
3 0.70390625 0.14375 0.034375 0.034375
3 0.6515625 0.221875 0.0765625 0.065625
3 0.67109375 0.28125 0.0515625 0.04375
3 0.5578125 0.34296875 0.06875 0.0765625
3 0.6078125 0.38515625 0.0671875 0.0796875
3 0.696875 0.4515625 0.0296875 0.0234375
3 0.715625 0.3828125 0.0390625 0.028125
6 0.8125 0.93125 0.046875 0.025
6 0.9375 0.909375 0.0359375 0.0296875
6 0.991796875 0.858984375 0.01640625 0.01953125
6 0.9828125 0.78125 0.03125 0.034375
6 0.84453125 0.6859375 0.046875 0.0421875
6 0.85390625 0.72734375 0.04375 0.0421875
6 0.98515625 0.6734375 0.0265625 0.0265625
6 0.94453125 0.6390625 0.03359375 0.03359375
6 0.8984375 0.58125 0.0328125 0.0296875
6 0.96484375 0.45078125 0.040625 0.040625
6 0.80078125 0.42265625 0.028125 0.025
6 0.84296875 0.38515625 0.0296875 0.0234375
6 0.95234375 0.38515625 0.02421875 0.02421875
6 0.98125 0.3546875 0.0375 0.040625
6 0.91640625 0.29921875 0.0484375 0.0328125
6 0.94921875 0.23203125 0.0421875 0.0421875
6 0.79140625 0.20859375 0.040625 0.040625
6 0.85625 0.11875 0.0703125 0.0390625
0 0.82890625 0.51328125 0.21640625 0.21640625
0 0.8234375 0.3 0.090625 0.1
0 0.88515625 0.3328125 0.0234375 0.0140625
0 0.96796875 0.190625 0.0640625 0.0828125
2 0.28828125 0.15625 0.221875 0.2875
2 0.428125 0.082421875 0.04375 0.04296875
2 0.44453125 0.18125 0.03515625 0.03515625
2 0.456640625 0.292578125 0.04453125 0.03359375
2 0.058203125 0.026953125 0.046875 0.046875
2 0.160546875 0.886328125 0.32109375 0.20703125
2 0.9 0.168359375 0.0265625 0.03828125
2 0.88203125 0.260546875 0.0234375 0.02734375
2 0.911328125 0.357421875 0.034375 0.034375