6 0.296875 0.99296875 0.04375 0.0140625
6 0.47421875 0.9046875 0.03203125 0.03203125
6 0.34453125 0.8359375 0.0296875 0.0296875
6 0.38828125 0.778125 0.0484375 0.0328125
6 0.25078125 0.6875 0.034375 0.028125
6 0.33671875 0.678125 0.0578125 0.046875
6 0.45390625 0.71953125 0.0515625 0.0515625
6 0.57890625 0.62421875 0.034375 0.028125
6 0.48359375 0.56328125 0.02890625 0.02890625
6 0.26015625 0.56953125 0.0390625 0.0234375
6 0.3390625 0.47265625 0.0421875 0.0296875
6 0.55859375 0.47109375 0.025 0.021875
6 0.6578125 0.521875 0.04375 0.0296875
6 0.78828125 0.40078125 0.0359375 0.03125
6 0.625 0.378125 0.0375 0.0234375
6 0.4109375 0.3796875 0.0484375 0.0265625
6 0.39921875 0.26953125 0.059375 0.0359375
6 0.478125 0.2765625 0.0546875 0.0359375
6 0.61171875 0.2796875 0.0546875 0.040625
6 0.73125 0.3234375 0.0390625 0.0265625
6 0.66171875 0.1796875 0.04375 0.0359375
6 0.73046875 0.08515625 0.04140625 0.04140625
6 0.659375 0.04375 0.04609375 0.04609375
6 0.59375 0.1359375 0.03203125 0.03203125
6 0.5296875 0.2265625 0.0359375 0.028125
6 0.35390625 0.18203125 0.0390625 0.025
6 0.44609375 0.1328125 0.03125 0.03125
6 0.46015625 0.0484375 0.0390625 0.0328125
6 0.22421875 0.07734375 0.0265625 0.021875
7 0.659375 0.90859375 0.0578125 0.0578125
7 0.62890625 0.77890625 0.04453125 0.04453125
7 0.8640625 0.8765625 0.0546875 0.03125
7 0.77265625 0.7453125 0.0578125 0.0359375
7 0.94375 0.71640625 0.0484375 0.028125
7 0.4703125 0.67421875 0.0453125 0.0453125
7 0.61015625 0.67109375 0.04296875 0.04296875
7 0.5203125 0.61953125 0.05625 0.0390625
7 0.79453125 0.621875 0.04375 0.028125
7 0.725 0.496875 0.046875 0.0375
7 0.82421875 0.46875 0.0453125 0.034375
7 0.5828125 0.425 0.0515625 0.0390625
7 0.659375 0.3359375 0.0515625 0.0515625
7 0.46328125 0.33046875 0.0359375 0.0359375
7 0.34453125 0.3328125 0.0625 0.034375
7 0.33828125 0.3796875 0.028125 0.028125
7 0.321875 0.56328125 0.053125 0.046875
7 0.41484375 0.5671875 0.04375 0.04375
7 0.659375 0.23046875 0.0625 0.0296875
7 0.80390625 0.1734375 0.0375 0.0375
7 0.6625 0.09921875 0.0421875 0.0421875
7 0.528125 0.05625 0.046875 0.046875
7 0.48203125 0.0890625 0.0609375 0.04375
7 0.45859375 0.2328125 0.04453125 0.04453125
7 0.459375 0.5109375 0.046875 0.04375
7 0.33828125 0.22109375 0.0390625 0.03125
3 0.796875 0.98828125 0.040625 0.0234375
3 0.7703125 0.85546875 0.040625 0.040625
3 0.9859375 0.921875 0.028125 0.0328125
3 0.96796875 0.76640625 0.059375 0.084375
3 0.9609375 0.6671875 0.0421875 0.028125
3 0.884375 0.59375 0.084375 0.0640625
3 0.72421875 0.66171875 0.0328125 0.0203125
3 0.65859375 0.62265625 0.0453125 0.028125
3 0.61171875 0.56953125 0.046875 0.028125
3 0.7265625 0.434375 0.06640625 0.06640625
3 0.88359375 0.4859375 0.053125 0.0421875
3 0.9921875 0.39921875 0.015625 0.0296875
3 0.93046875 0.36953125 0.040625 0.040625
3 0.8359375 0.3203125 0.040625 0.040625
3 0.77265625 0.2203125 0.0546875 0.0390625
3 0.66015625 0.1375 0.04375 0.0296875
3 0.93046875 0.11796875 0.0859375 0.0609375
3 0.8890625 0.06640625 0.084375 0.0578125
1 0.1921875 0.9921875 0.0375 0.015625
1 0.54140625 0.7734375 0.046875 0.046875
1 0.05703125 0.93515625 0.0375 0.0234375
1 0.190625 0.89765625 0.0453125 0.0296875
1 0.153125 0.82578125 0.0578125 0.0328125
1 0.32109375 0.778125 0.0484375 0.0359375
1 0.20859375 0.68046875 0.040625 0.025
1 0.24921875 0.6171875 0.0859375 0.05
1 0.09375 0.71484375 0.06015625 0.06015625
1 0.0203125 0.6203125 0.034375 0.034375
1 0.14921875 0.5640625 0.0390625 0.0234375
1 0.1796875 0.5171875 0.0515625 0.0515625
1 0.2109375 0.46484375 0.0625 0.0375
1 0.33203125 0.425 0.0453125 0.025
1 0.03046875 0.46015625 0.0390625 0.03125
1 0.14609375 0.40859375 0.071875 0.0390625
1 0.2625 0.33359375 0.078125 0.04375
1 0.09609375 0.3140625 0.0421875 0.03125
1 0.3859375 0.23125 0.0359375 0.028125
1 0.3828125 0.12734375 0.0515625 0.0296875
1 0.2140625 0.25546875 0.084375 0.0578125
1 0.26171875 0.2140625 0.0703125 0.0484375
1 0.284375 0.08828125 0.04609375 0.04609375
1 0.15078125 0.1609375 0.0578125 0.053125
1 0.1203125 0.20546875 0.053125 0.0328125
1 0.18828125 0.02578125 0.0671875 0.0390625
1 0.03828125 0.11640625 0.0546875 0.0296875
1 0.057421875 0.020703125 0.04453125 0.04140625