0 0.41328125 0.903125 0.121875 0.1578125
0 0.2875 0.86640625 0.065625 0.0609375
0 0.315625 0.946875 0.1015625 0.1015625
0 0.77734375 0.82578125 0.05 0.0671875
0 0.9421875 0.984375 0.071875 0.03125
6 0.234375 0.98671875 0.046875 0.0265625
1 0.09140625 0.825 0.0328125 0.0328125
1 0.1484375 0.690625 0.021875 0.0390625
1 0.05234375 0.63984375 0.0265625 0.0265625
1 0.19375 0.75 0.03125 0.03125
1 0.23828125 0.9359375 0.0265625 0.0328125
1 0.2828125 0.6875 0.03125 0.034375
1 0.3734375 0.74375 0.0515625 0.075
1 0.4921875 0.671875 0.0625 0.0625
1 0.634375 0.846875 0.05625 0.05625
1 0.72265625 0.8984375 0.05625 0.05625
1 0.8 0.65625 0.0765625 0.10625
1 0.8609375 0.42578125 0.0625 0.0625
1 0.974609375 0.526953125 0.05078125 0.06171875
1 0.6140625 0.49140625 0.021875 0.0484375
1 0.53046875 0.5 0.0296875 0.034375
1 0.45078125 0.50625 0.025 0.034375
1 0.28125 0.5671875 0.06875 0.06875
1 0.3984375 0.453125 0.034375 0.0421875
1 0.484375 0.340625 0.0328125 0.0328125
1 0.22578125 0.3515625 0.0875 0.11875
0 0.54453125 0.84375 0.0453125 0.0703125
3 0.94921875 0.64296875 0.0421875 0.0421875
3 0.81875 0.3796875 0.046875 0.0484375
3 0.7 0.43046875 0.0515625 0.0515625
3 0.5671875 0.565625 0.0546875 0.075
3 0.528125 0.284375 0.0546875 0.0546875
3 0.36015625 0.51328125 0.0359375 0.05
3 0.19609375 0.815625 0.0515625 0.0546875
3 0.23125 0.2484375 0.04375 0.053125
3 0.1171875 0.40859375 0.0578125 0.0609375
7 0.02890625 0.16171875 0.028125 0.028125
7 0.22734375 0.0921875 0.1328125 0.1296875
7 0.3859375 0.0171875 0.0328125 0.0328125
5 0.44453125 0.29296875 0.0390625 0.0453125
5 0.60703125 0.33515625 0.0328125 0.0453125
5 0.8859375 0.196875 0.0546875 0.0796875
5 0.6890625 0.06171875 0.1171875 0.1171875
5 0.96875 0.02578125 0.05625 0.0515625
2 0.9140625 0.529296875 0.053125 0.05234375
2 0.785546875 0.5390625 0.07109375 0.040625
2 0.659765625 0.5453125 0.04921875 0.059375