9 0.109375 0.6390625 0.0984375 0.08125
9 0.446875 0.625 0.1484375 0.0625
9 0.50234375 0.47109375 0.134375 0.05625
9 0.62421875 0.47578125 0.1015625 0.053125
9 0.23671875 0.33515625 0.0609375 0.0609375
9 0.25625 0.22265625 0.059375 0.034375
9 0.71328125 0.19765625 0.0390625 0.0390625
9 0.88671875 0.12265625 0.0484375 0.046875
9 0.7546875 0.18828125 0.0515625 0.0359375
9 0.32265625 0.21640625 0.053125 0.028125
9 0.24296875 0.8421875 0.0828125 0.028125
9 0.01796875 0.937109375 0.0359375 0.03984375
9 0.965625 0.4515625 0.06875 0.0609375
0 0.019140625 0.985546875 0.03203125 0.02890625
0 0.0234375 0.8640625 0.046875 0.025
0 0.10625 0.69609375 0.0328125 0.0328125
0 0.00234375 0.61484375 0.0046875 0.01875
0 0.06171875 0.540625 0.0625 0.0328125
0 0.06640625 0.46484375 0.03046875 0.03046875
0 0.0421875 0.37890625 0.07265625 0.07265625
0 0.034375 0.2046875 0.06875 0.08125
0 0.9875 0.21015625 0.025 0.053125
0 0.89921875 0.26328125 0.071875 0.1140625
0 0.9171875 0.61796875 0.1625 0.128125
0 0.94140625 0.80390625 0.0390625 0.0359375
6 0.7359375 0.23046875 0.0859375 0.046875
6 0.8359375 0.2625 0.0546875 0.034375
6 0.6703125 0.3265625 0.103125 0.0421875
6 0.84375 0.43046875 0.05 0.03125
6 0.6703125 0.3984375 0.0578125 0.0375
6 0.58046875 0.40625 0.0546875 0.03125
6 0.67578125 0.46484375 0.05 0.0328125
6 0.84453125 0.53046875 0.11953125 0.11953125
6 0.6203125 0.60703125 0.03359375 0.03359375
6 0.79140625 0.61953125 0.0640625 0.0296875
6 0.62265625 0.703125 0.08671875 0.08671875
6 0.80859375 0.74296875 0.040625 0.040625
6 0.68671875 0.7828125 0.05 0.025
6 0.8765625 0.8109375 0.0375 0.0375
6 0.7578125 0.853125 0.04375 0.03125
6 0.81328125 0.8875 0.053125 0.028125
6 0.63203125 0.93515625 0.059375 0.028125
2 0.6546875 0.058984375 0.06171875 0.0625
2 0.626953125 0.185546875 0.0609375 0.046875
2 0.598046875 0.287109375 0.05546875 0.05546875
2 0.261328125 0.23515625 0.165625 0.165625
2 0.234375 0.808984375 0.246875 0.1234375
2 0.754296875 0.620703125 0.2015625 0.11328125