0 0.0671875 0.378125 0.02890625 0.02890625
0 0.06796875 0.2 0.01875 0.0234375
0 0.1046875 0.19453125 0.03671875 0.03671875
0 0.30234375 0.26015625 0.0640625 0.065625
0 0.41640625 0.23515625 0.0640625 0.115625
0 0.3046875 0.50078125 0.046875 0.096875
0 0.66328125 0.490625 0.0671875 0.0671875
0 0.7828125 0.22265625 0.0453125 0.078125
0 0.55390625 0.359375 0.0578125 0.0671875
9 0.959375 0.9546875 0.065625 0.0828125
9 0.803125 0.85234375 0.03671875 0.03671875
9 0.62109375 0.8671875 0.03125 0.0375
9 0.534375 0.9734375 0.053125 0.053125
9 0.42421875 0.74765625 0.0859375 0.128125
5 0.35 0.94765625 0.05 0.071875
5 0.20546875 0.75390625 0.09453125 0.09453125
5 0.56640625 0.6453125 0.05 0.075
5 0.69609375 0.76796875 0.046875 0.0734375
5 0.83203125 0.6203125 0.0484375 0.08125
3 0.93046875 0.66796875 0.0578125 0.08125
3 0.77109375 0.63046875 0.0375 0.0390625
3 0.6453125 0.63671875 0.06875 0.06875
3 0.49296875 0.7390625 0.0359375 0.0359375
3 0.45625 0.54296875 0.0390625 0.0484375
3 0.41953125 0.6015625 0.0390625 0.05
3 0.3453125 0.646875 0.01875 0.0328125
3 0.27421875 0.70078125 0.02421875 0.02421875
3 0.13203125 0.609375 0.02578125 0.02578125
3 0.2015625 0.55625 0.01875 0.034375
3 0.234375 0.5078125 0.02421875 0.02421875
3 0.20546875 0.41484375 0.025 0.025
3 0.3703125 0.3609375 0.059375 0.059375
3 0.51640625 0.2625 0.0328125 0.0296875
3 0.6875 0.3671875 0.03828125 0.03828125
3 0.7625 0.3984375 0.05 0.05
3 0.865625 0.33046875 0.0359375 0.1
6 0.0703125 0.246875 0.0375 0.046875
6 0.234375 0.271875 0.034375 0.034375
6 0.3578125 0.29609375 0.03125 0.04375
6 0.45546875 0.40546875 0.04140625 0.04140625
6 0.6515625 0.25546875 0.0953125 0.140625
6 0.721875 0.14140625 0.06875 0.034375
6 0.6109375 0.0140625 0.034375 0.028125
6 0.47578125 0.12890625 0.0390625 0.0421875
6 0.33984375 0.18515625 0.0359375 0.0453125
6 0.303125 0.046875 0.0453125 0.0453125
6 0.33828125 0.0125 0.0421875 0.025
6 0.13671875 0.059375 0.03125 0.0421875
10 0.58203125 0.0828125 0.040625 0.059375
10 0.47109375 0.009375 0.0296875 0.01875
10 0.37890625 0.053125 0.053125 0.071875
10 0.23359375 0.09296875 0.059375 0.075
10 0.13984375 0.01484375 0.0515625 0.0296875
2 0.879296875 0.09296875 0.03984375 0.0359375
2 0.783984375 0.090234375 0.02890625 0.04453125
2 0.68125 0.083984375 0.05078125 0.05
2 0.8984375 0.528515625 0.04296875 0.04296875
2 0.799609375 0.53203125 0.03359375 0.046875
2 0.697265625 0.535546875 0.05078125 0.03359375
2 0.84375 0.28828125 0.146875 0.2328125
2 0.6328125 0.7109375 0.2140625 0.26875
2 0.387109375 0.337890625 0.2703125 0.2703125