7 0.696875 0.94765625 0.0703125 0.0703125
7 0.5390625 0.8515625 0.06875 0.084375
7 0.48203125 0.81953125 0.0953125 0.0953125
7 0.38359375 0.84765625 0.17734375 0.17734375
7 0.21484375 0.6171875 0.140625 0.140625
7 0.1578125 0.62265625 0.040625 0.040625
7 0.02578125 0.94921875 0.046875 0.0828125
7 0.04453125 0.59921875 0.04140625 0.04140625
7 0.009375 0.65859375 0.0171875 0.0453125
8 0.87265625 0.76484375 0.0453125 0.071875
8 0.9 0.39453125 0.0921875 0.0875
8 0.93828125 0.19609375 0.0453125 0.065625
8 0.75234375 0.1515625 0.065625 0.0765625
8 0.64140625 0.34140625 0.0546875 0.059375
8 0.70703125 0.5890625 0.03125 0.046875
8 0.59296875 0.51015625 0.0421875 0.0453125
8 0.57265625 0.2796875 0.05 0.065625
8 0.4484375 0.296875 0.034375 0.0375
8 0.48046875 0.5546875 0.0578125 0.05625
8 0.4515625 0.98203125 0.0296875 0.0359375
8 0.31328125 0.93515625 0.0453125 0.0453125
8 0.21484375 0.865625 0.0375 0.0609375
8 0.2234375 0.946875 0.109375 0.103125
8 0.0640625 0.896875 0.09375 0.09375
8 0.0296875 0.50546875 0.04375 0.046875
8 0.07890625 0.49375 0.0296875 0.0390625
8 0.0140625 0.43984375 0.028125 0.05
8 0.034375 0.3265625 0.0234375 0.0234375
8 0.203125 0.5140625 0.025 0.0296875
8 0.11640625 0.61015625 0.03515625 0.03515625
8 0.12578125 0.31953125 0.034375 0.0546875
8 0.15625 0.33984375 0.0453125 0.05625
8 0.18984375 0.47109375 0.0390625 0.0390625
8 0.26015625 0.28984375 0.0578125 0.0578125
8 0.28671875 0.16640625 0.028125 0.034375
8 0.375 0.36015625 0.03125 0.0359375
8 0.3078125 0.56328125 0.0515625 0.0375
8 0.4 0.50078125 0.0453125 0.0625
0 0.93359375 0.3 0.07734375 0.07734375
0 0.89921875 0.50078125 0.0515625 0.053125
0 0.7546875 0.271875 0.04375 0.0796875
0 0.7375 0.0484375 0.034375 0.05
0 0.54375 0.15234375 0.028125 0.04375
0 0.65 0.51484375 0.065625 0.075
0 0.41796875 0.56796875 0.04375 0.04375
0 0.47890625 0.25234375 0.0671875 0.08125
0 0.359375 0.065625 0.05625 0.0953125
0 0.30546875 0.0484375 0.040625 0.05625
0 0.22890625 0.15625 0.06875 0.0828125
0 0.15859375 0.1515625 0.03125 0.0453125
0 0.084375 0.10703125 0.0328125 0.0328125
0 0.01640625 0.2578125 0.0265625 0.075
0 0.12734375 0.42734375 0.03828125 0.03828125
0 0.06015625 0.31796875 0.01875 0.028125
0 0.13671875 0.3828125 0.04453125 0.04453125
0 0.20625 0.3828125 0.04375 0.05
0 0.2640625 0.421875 0.03125 0.0328125
0 0.29921875 0.50859375 0.034375 0.034375
0 0.38359375 0.22734375 0.0390625 0.0390625