1 0.63515625 0.69921875 0.15078125 0.15078125
1 0.56875 0.4671875 0.08125 0.08125
1 0.51640625 0.415625 0.0296875 0.1171875
1 0.5328125 0.76796875 0.03125 0.1203125
1 0.45703125 0.50078125 0.07265625 0.07265625
1 0.3796875 0.3375 0.01875 0.09375
1 0.36171875 0.290625 0.0234375 0.1140625
1 0.31015625 0.178125 0.0390625 0.1171875
1 0.2640625 0.07734375 0.07421875 0.07421875
1 0.034375 0.125 0.0453125 0.06875
1 0.09609375 0.2359375 0.06328125 0.06328125
1 0.12421875 0.28984375 0.034375 0.06875
1 0.2109375 0.46484375 0.040625 0.071875
1 0.2484375 0.57890625 0.04765625 0.04765625
1 0.2765625 0.64296875 0.06484375 0.06484375
1 0.35078125 0.91875 0.0421875 0.1015625
1 0.51796875 0.02109375 0.03984375 0.03984375
7 0.59609375 0.14921875 0.05 0.05
10 0.92109375 0.59921875 0.0703125 0.240625
10 0.884375 0.46640625 0.0796875 0.0796875
10 0.71328125 0.51640625 0.0671875 0.0671875
10 0.4796875 0.20390625 0.1484375 0.1484375
10 0.6546875 0.065625 0.0421875 0.13125
9 0.6625 0.95078125 0.05625 0.0984375
9 0.49609375 0.5671875 0.0484375 0.1296875
9 0.4296875 0.5125 0.015625 0.05
9 0.4140625 0.446875 0.0171875 0.0515625
9 0.4109375 0.090625 0.04375 0.1390625
9 0.315625 0.08984375 0.0390625 0.1140625
9 0.21640625 0.72421875 0.01875 0.059375
9 0.184375 0.5234375 0.0203125 0.065625
9 0.08984375 0.35234375 0.04453125 0.04453125
9 0.00859375 0.14296875 0.0125 0.078125
9 0.17734375 0.23203125 0.0390625 0.1734375
3 0.434375 0.7453125 0.03125 0.1015625
3 0.42421875 0.61796875 0.0234375 0.065625
3 0.359375 0.45 0.034375 0.121875
3 0.30546875 0.571875 0.04921875 0.04921875
3 0.24453125 0.45390625 0.075 0.075
3 0.15078125 0.59375 0.06015625 0.06015625
3 0.1859375 0.88359375 0.01875 0.0515625
3 0.18671875 0.80859375 0.0390625 0.0390625
3 0.11484375 0.68515625 0.01875 0.0546875
3 0.053125 0.62578125 0.04453125 0.04453125
3 0.0890625 0.54453125 0.0484375 0.0484375
3 0.0234375 0.54375 0.0234375 0.084375
6 0.01484375 0.9203125 0.0296875 0.13125
6 0.153125 0.7484375 0.11484375 0.11484375
6 0.1859375 0.96171875 0.053125 0.053125
6 0.28828125 0.96640625 0.0609375 0.0609375
6 0.34453125 0.76015625 0.0390625 0.13125
6 0.4140625 0.9625 0.03125 0.075
6 0.54140625 0.97578125 0.04375 0.0484375
2 0.8265625 0.948046875 0.0921875 0.09140625
2 0.73359375 0.693359375 0.071875 0.13359375
2 0.644140625 0.4609375 0.0609375 0.1265625
2 0.565234375 0.253515625 0.06015625 0.12890625