8 0.77109375 0.51875 0.0421875 0.06875
8 0.71640625 0.37578125 0.0453125 0.0671875
8 0.6734375 0.28203125 0.046875 0.078125
8 0.59453125 0.2015625 0.03984375 0.03984375
8 0.55546875 0.1109375 0.0375 0.065625
6 0.4609375 0.5359375 0.04375 0.04375
8 0.30390625 0.30390625 0.04921875 0.04921875
8 0.384375 0.16171875 0.0640625 0.0640625
8 0.30390625 0.20703125 0.0390625 0.05625
8 0.3140625 0.0265625 0.0546875 0.053125
8 0.22890625 0.16484375 0.0359375 0.0484375
8 0.19765625 0.0640625 0.0265625 0.05
8 0.07890625 0.05546875 0.025 0.0296875
8 0.0703125 0.19375 0.021875 0.028125
8 0.065625 0.2921875 0.028125 0.03125
7 0.15390625 0.01640625 0.0234375 0.028125
7 0.44375 0.028125 0.071875 0.05
7 0.590625 0.028125 0.0296875 0.0265625
7 0.88203125 0.08359375 0.08125 0.13125
7 0.96328125 0.071875 0.0515625 0.0515625
7 0.33984375 0.1171875 0.021875 0.0296875
0 0.94296875 0.27109375 0.04140625 0.04140625
0 0.8703125 0.375 0.053125 0.059375
0 0.82578125 0.2765625 0.0453125 0.065625
0 0.56796875 0.29296875 0.06484375 0.06484375
0 0.68671875 0.5328125 0.0421875 0.0546875
0 0.81328125 0.575 0.05 0.05
0 0.4484375 0.3671875 0.03359375 0.03359375
0 0.31796875 0.425 0.04140625 0.04140625
0 0.5328125 0.5875 0.0421875 0.0515625
0 0.53125 0.65 0.0609375 0.0609375
0 0.1875 0.35 0.06796875 0.06796875
10 0.99140625 0.46328125 0.0171875 0.090625
10 0.6109375 0.584375 0.0296875 0.05
10 0.74296875 0.53984375 0.0265625 0.0359375
10 0.78046875 0.28046875 0.0265625 0.0359375
10 0.4171875 0.45703125 0.04453125 0.04453125
10 0.3546875 0.4125 0.046875 0.046875
10 0.29921875 0.75234375 0.071875 0.1234375
10 0.05 0.894921875 0.1 0.10078125
3 0.78125 0.80234375 0.065625 0.0515625
3 0.5703125 0.97578125 0.1375 0.0484375
3 0.45546875 0.77890625 0.059375 0.0546875
3 0.3875 0.96953125 0.08125 0.0359375
3 0.25703125 0.86875 0.059375 0.0421875
3 0.13046875 0.93671875 0.04921875 0.04921875
1 0.45546875 0.98828125 0.0171875 0.0234375
1 0.6609375 0.9765625 0.03203125 0.03203125
2 0.74921875 0.6171875 0.2328125 0.2328125
2 0.730859375 0.739453125 0.04453125 0.046875
2 0.865234375 0.732421875 0.04609375 0.04609375
2 0.98125 0.728125 0.0375 0.040625
2 0.979296875 0.208203125 0.04140625 0.05234375
2 0.862109375 0.228125 0.03984375 0.046875
2 0.74375 0.240625 0.0609375 0.05
2 0.453125 0.807421875 0.221875 0.22265625
2 0.418359375 0.401953125 0.24609375 0.24765625
2 0.706640625 0.940234375 0.1546875 0.1078125