0 0.57734375 0.1359375 0.0703125 0.04375
0 0.45546875 0.1921875 0.065625 0.0515625
0 0.484375 0.2390625 0.05234375 0.05234375
0 0.575 0.32890625 0.05625 0.05625
0 0.4875 0.35234375 0.028125 0.0234375
0 0.4609375 0.3140625 0.0546875 0.0546875
0 0.378125 0.3 0.0625 0.046875
0 0.2875 0.3625 0.02734375 0.02734375
0 0.42265625 0.415625 0.028125 0.0203125
0 0.45234375 0.446875 0.0671875 0.0421875
0 0.4734375 0.49921875 0.05625 0.0328125
0 0.365625 0.56640625 0.06875 0.04375
0 0.36796875 0.61328125 0.059375 0.0359375
0 0.26171875 0.696875 0.0421875 0.0328125
0 0.27734375 0.7578125 0.05546875 0.05546875
0 0.1828125 0.82890625 0.05859375 0.05859375
0 0.21953125 0.91953125 0.0625 0.05
0 0.2375 0.56796875 0.0359375 0.01875
0 0.02890625 0.60859375 0.03046875 0.03046875
0 0.19375 0.53984375 0.0359375 0.021875
0 0.24609375 0.47734375 0.0265625 0.0203125
8 0.93671875 0.075 0.065625 0.065625
8 0.7109375 0.18203125 0.06875 0.05625
8 0.74140625 0.35859375 0.1828125 0.1375
8 0.90625 0.53046875 0.0953125 0.0625
8 0.58125 0.571875 0.04296875 0.04296875
8 0.5609375 0.69140625 0.03125 0.0234375
8 0.84453125 0.61953125 0.0359375 0.0234375
8 0.9640625 0.69765625 0.071875 0.096875
8 0.82578125 0.88515625 0.125 0.109375
8 0.56171875 0.9078125 0.0515625 0.0375
1 0.959375 0.35 0.04375 0.025
1 0.603125 0.48671875 0.0921875 0.065625
1 0.7859375 0.54921875 0.0328125 0.0203125
1 0.83671875 0.66171875 0.059375 0.046875
1 0.70703125 0.68671875 0.05859375 0.05859375
1 0.6234375 0.8078125 0.06484375 0.06484375
1 0.91171875 0.7921875 0.06484375 0.06484375
1 0.98671875 0.9140625 0.0265625 0.0484375
1 0.8109375 0.98671875 0.075 0.0265625
10 0.66171875 0.44375 0.0484375 0.034375
10 0.69765625 0.503125 0.0515625 0.03125
10 0.6390625 0.5515625 0.0484375 0.0203125
10 0.7375 0.609375 0.04140625 0.04140625
10 0.90234375 0.665625 0.0390625 0.0296875
10 0.7546875 0.82890625 0.0515625 0.0328125
10 0.628125 0.9328125 0.0515625 0.04375
9 0.3375 0.1625 0.028125 0.0234375
9 0.59453125 0.2828125 0.02734375 0.02734375
9 0.6296875 0.346875 0.028125 0.0234375
9 0.59609375 0.39453125 0.0390625 0.0234375
9 0.50859375 0.28671875 0.02578125 0.02578125
9 0.42734375 0.328125 0.02734375 0.02734375
9 0.44140625 0.54140625 0.0328125 0.025
9 0.44296875 0.5703125 0.0578125 0.0359375
9 0.47890625 0.640625 0.05625 0.0546875
9 0.36875 0.82890625 0.04765625 0.04765625
9 0.51015625 0.90703125 0.0421875 0.0359375
9 0.2984375 0.86640625 0.0546875 0.0375
9 0.35390625 0.47421875 0.1140625 0.078125
9 0.171875 0.36640625 0.09375 0.09375
9 0.06328125 0.2140625 0.040625 0.03125
3 0.14140625 0.54375 0.05 0.028125
3 0.02421875 0.8046875 0.0484375 0.05625
5 0.17578125 0.97421875 0.075 0.0453125
5 0.0328125 0.88125 0.0625 0.05
5 0.2265625 0.86171875 0.05 0.040625
5 0.06875 0.79765625 0.04609375 0.04609375
5 0.1328125 0.740625 0.05703125 0.05703125
5 0.3046875 0.671875 0.0328125 0.0203125
5 0.19921875 0.63828125 0.04765625 0.04765625
5 0.1046875 0.565625 0.059375 0.0328125
5 0.13984375 0.59140625 0.0625 0.025
5 0.23984375 0.53984375 0.03125 0.03125
5 0.31171875 0.39140625 0.03125 0.0234375
5 0.2 0.43359375 0.028125 0.015625
5 0.0359375 0.43203125 0.028125 0.028125
5 0.03359375 0.3203125 0.03125 0.021875
5 0.24609375 0.3171875 0.03125 0.025
2 0.513671875 0.9625 0.04140625 0.0328125
2 0.544921875 0.832421875 0.0390625 0.0390625
2 0.377734375 0.81171875 0.11875 0.11875
2 0.0765625 0.92109375 0.03515625 0.03515625
2 0.0875 0.841796875 0.03984375 0.0390625
2 0.091015625 0.771875 0.03359375 0.0328125
0 0.903515625 0.384765625 0.19296875 0.18359375
0 0.534765625 0.698046875 0.11171875 0.09765625