7 0.83828125 0.39296875 0.0859375 0.0578125
8 0.903125 0.96640625 0.175 0.0671875
8 0.2046875 0.871875 0.2515625 0.175
8 0.13671875 0.73359375 0.15078125 0.15078125
8 0.3375 0.26171875 0.134375 0.0875
8 0.6546875 0.075 0.196875 0.125
8 0.86015625 0.50390625 0.0765625 0.0765625
1 0.66953125 0.93203125 0.15 0.1359375
1 0.46484375 0.53203125 0.49375 0.2921875
1 0.47265625 0.40625 0.06953125 0.06953125
1 0.42734375 0.7890625 0.0890625 0.05
1 0.06875 0.634375 0.0828125 0.0515625
1 0.98125 0.56640625 0.0375 0.0390625
1 0.9515625 0.31328125 0.06015625 0.06015625
1 0.83515625 0.21640625 0.121875 0.0671875
1 0.58984375 0.17734375 0.0703125 0.0703125
1 0.52578125 0.11953125 0.08828125 0.08828125
1 0.95859375 0.021484375 0.0515625 0.04296875
0 0.54375 0.89375 0.196875 0.14375
0 0.54296875 0.7171875 0.11640625 0.11640625
0 0.0984375 0.5015625 0.08515625 0.08515625
0 0.1796875 0.2515625 0.05078125 0.05078125
0 0.24453125 0.08828125 0.078125 0.0328125
0 0.33828125 0.04609375 0.07421875 0.07421875
0 0.55234375 0.3328125 0.1625 0.08125
0 0.76484375 0.175 0.0796875 0.0359375
0 0.9140625 0.1109375 0.10625 0.0578125
0 0.88828125 0.04140625 0.0640625 0.0640625
9 0.66328125 0.21171875 0.084375 0.04375