0 0.87578125 0.3125 0.065625 0.065625
0 0.74765625 0.2015625 0.08515625 0.08515625
0 0.95703125 0.8875 0.08125 0.1
0 0.6765625 0.8078125 0.09375 0.046875
0 0.49375 0.6671875 0.0453125 0.0421875
0 0.39296875 0.4171875 0.109375 0.075
5 0.6828125 0.24375 0.0390625 0.034375
5 0.46875 0.27265625 0.10625 0.10625
5 0.3890625 0.18828125 0.04375 0.028125
5 0.3453125 0.33203125 0.0453125 0.028125
5 0.5 0.48203125 0.0703125 0.1125
5 0.178125 0.56015625 0.09453125 0.09453125
5 0.01875 0.31953125 0.0375 0.03125
10 0.61640625 0.3046875 0.04609375 0.04609375
10 0.29375 0.153125 0.04140625 0.04140625
10 0.23671875 0.25546875 0.040625 0.040625
10 0.39296875 0.3703125 0.0515625 0.028125
10 0.70390625 0.51640625 0.0578125 0.0421875
10 0.89296875 0.67421875 0.05625 0.04375
10 0.64375 0.74921875 0.0515625 0.04375
10 0.665625 0.9203125 0.06015625 0.06015625
10 0.6703125 0.98984375 0.046875 0.0203125
10 0.40546875 0.7609375 0.0484375 0.053125
10 0.34375 0.68359375 0.0515625 0.0328125
10 0.28515625 0.48359375 0.0421875 0.053125
10 0.2890625 0.68359375 0.040625 0.0375
10 0.34453125 0.5234375 0.0546875 0.028125
7 0.31171875 0.89296875 0.0859375 0.0484375
7 0.1703125 0.72890625 0.065625 0.0515625
7 0.2375 0.64453125 0.0359375 0.021875
7 0.05390625 0.68671875 0.0578125 0.0390625
7 0.06484375 0.475 0.06484375 0.06484375
7 0.065625 0.396875 0.06875 0.053125
7 0.12578125 0.2421875 0.0453125 0.0265625
2 0.559765625 0.93125 0.0484375 0.046875
2 0.041796875 0.8734375 0.053125 0.053125
2 0.052734375 0.734375 0.0546875 0.05546875
2 0.365625 0.840234375 0.28828125 0.2203125
2 0.621484375 0.71171875 0.29140625 0.221875
2 0.693359375 0.490625 0.18515625 0.18515625
2 0.7828125 0.4859375 0.1359375 0.11875