10 0.97109375 0.08046875 0.0453125 0.0390625
10 0.78515625 0.26328125 0.028125 0.021875
10 0.9578125 0.603125 0.028125 0.0359375
10 0.925 0.66015625 0.0453125 0.040625
0 0.92890625 0.6953125 0.034375 0.03125
0 0.871875 0.8203125 0.065625 0.0671875
0 0.8984375 0.57109375 0.0515625 0.0359375
0 0.7921875 0.459375 0.0734375 0.05
0 0.78359375 0.2234375 0.0625 0.034375
0 0.8859375 0.18984375 0.0671875 0.05
0 0.78671875 0.1203125 0.046875 0.0375
6 0.9921875 0.28359375 0.015625 0.0328125
8 0.8796875 0.33125 0.0609375 0.04375
8 0.7890625 0.36796875 0.0515625 0.05
8 0.696875 0.43671875 0.05 0.0328125
8 0.60625 0.47265625 0.0546875 0.0421875
8 0.38359375 0.50625 0.046875 0.04375
8 0.4359375 0.546875 0.06875 0.04375
6 0.440625 0.615625 0.075 0.0453125
6 0.51953125 0.71171875 0.0671875 0.04375
6 0.665625 0.64375 0.075 0.04375
6 0.72421875 0.7171875 0.0515625 0.040625
6 0.81328125 0.715625 0.046875 0.04375
6 0.84140625 0.94453125 0.04375 0.025
6 0.73671875 0.940625 0.040625 0.034375
6 0.6734375 0.7875 0.0390625 0.0296875
6 0.584375 0.83046875 0.0390625 0.03125
6 0.48359375 0.7953125 0.0515625 0.028125
6 0.43984375 0.871875 0.034375 0.021875
6 0.59296875 0.94921875 0.0328125 0.01875
6 0.49140625 0.953125 0.0375 0.025
6 0.38984375 0.9140625 0.040625 0.0296875
8 0.3453125 0.878125 0.0671875 0.0484375
5 0.13984375 0.66640625 0.06875 0.059375
5 0.38359375 0.58203125 0.059375 0.0453125
5 0.01875 0.3046875 0.0375 0.0359375
7 0.60078125 0.08203125 0.075 0.0578125
7 0.60625 0.16015625 0.128125 0.084375
7 0.3640625 0.303125 0.1203125 0.078125
7 0.42265625 0.37265625 0.03125 0.021875
7 0.51796875 0.43984375 0.028125 0.0234375
7 0.47578125 0.46484375 0.0328125 0.0359375
7 0.3328125 0.50078125 0.0328125 0.0390625
7 0.5265625 0.5890625 0.0625 0.078125
7 0.61796875 0.68125 0.0359375 0.025
7 0.3875 0.72734375 0.0375 0.0234375
7 0.5390625 0.8734375 0.0359375 0.0234375
9 0.2203125 0.090625 0.0875 0.0640625
9 0.1078125 0.209375 0.05625 0.0390625
9 0.09921875 0.3953125 0.0359375 0.0328125
9 0.19609375 0.48984375 0.075 0.059375
9 0.38359375 0.68515625 0.0546875 0.0609375
9 0.3390625 0.80703125 0.1484375 0.1015625
2 0.269921875 0.088671875 0.042578125 0.046875
2 0.269140625 0.203125 0.046875 0.03984375
2 0.28203125 0.302734375 0.044140625 0.0453125
2 0.73515625 0.0765625 0.041015625 0.03984375
2 0.734375 0.1859375 0.033984375 0.05390625
2 0.744140625 0.292578125 0.03984375 0.03125