10 0.18984375 0.228125 0.028125 0.0375
10 0.2421875 0.12734375 0.0265625 0.0328125
10 0.28359375 0.35625 0.028125 0.04375
10 0.32109375 0.075 0.0265625 0.0453125
10 0.4703125 0.3328125 0.028125 0.0390625
10 0.5046875 0.40078125 0.0203125 0.028125
10 0.55 0.30703125 0.0234375 0.0234375
10 0.665625 0.5203125 0.015625 0.03125
10 0.6796875 0.34765625 0.01875 0.0375
10 0.77890625 0.328125 0.028125 0.0515625
10 0.88984375 0.23046875 0.0359375 0.0359375
10 0.93203125 0.3203125 0.0328125 0.0578125
10 0.84453125 0.04453125 0.03046875 0.03046875
10 0.790625 0.0640625 0.03515625 0.03515625
10 0.6546875 0.0078125 0.021875 0.015625
10 0.59921875 0.14140625 0.03515625 0.03515625
10 0.559375 0.1421875 0.0265625 0.046875
3 0.5515625 0.046875 0.0453125 0.0859375
3 0.26640625 0.01484375 0.046875 0.0296875
7 0.08046875 0.0171875 0.02734375 0.02734375
7 0.10703125 0.05078125 0.0265625 0.0421875
7 0.57109375 0.79375 0.04609375 0.04609375
7 0.6390625 0.66875 0.040625 0.0515625
7 0.8671875 0.946875 0.0515625 0.0515625
7 0.94765625 0.7953125 0.05859375 0.05859375
0 0.26328125 0.23359375 0.1 0.1375
0 0.05078125 0.637890625 0.1015625 0.10234375
0 0.15234375 0.86953125 0.06875 0.1109375
0 0.31328125 0.59296875 0.071875 0.1328125
0 0.44921875 0.63359375 0.0515625 0.090625
0 0.56796875 0.4359375 0.18828125 0.18828125
0 0.7421875 0.2125 0.18125 0.225
7 0.66328125 0.0640625 0.02890625 0.02890625
0 0.87578125 0.3953125 0.08125 0.08125
0 0.96484375 0.367578125 0.0703125 0.07734375
0 0.41640625 0.2625 0.10859375 0.10859375
8 0.05625 0.13828125 0.0484375 0.0875
8 0.1796875 0.68203125 0.05390625 0.05390625
8 0.21875 0.58203125 0.0578125 0.0984375
8 0.28359375 0.4390625 0.053125 0.0671875
8 0.39296875 0.1421875 0.08515625 0.08515625
8 0.4125 0.38984375 0.06953125 0.06953125
8 0.40546875 0.54453125 0.0734375 0.0734375
8 0.56015625 0.240625 0.0640625 0.0640625
8 0.72734375 0.54765625 0.053125 0.059375
8 0.7953125 0.5125 0.06015625 0.06015625
8 0.8828125 0.30078125 0.0296875 0.05625
8 0.98984375 0.47734375 0.0203125 0.1296875
8 0.56640625 0.6203125 0.0609375 0.0875
8 0.63671875 0.75703125 0.08203125 0.08203125
1 0.153125 0.73828125 0.021875 0.0296875
1 0.18125 0.778125 0.0234375 0.0359375
1 0.23671875 0.79140625 0.034375 0.0515625
1 0.309375 0.7625 0.028125 0.0390625
1 0.40390625 0.62421875 0.03125 0.03125
1 0.45703125 0.76640625 0.0296875 0.0359375
1 0.540625 0.77109375 0.0375 0.071875
1 0.6015625 0.8453125 0.04375 0.075
1 0.68515625 0.921875 0.0375 0.0796875
1 0.91875 0.94453125 0.040625 0.0546875
9 0.403125 0.75390625 0.065625 0.21875
9 0.45390625 0.50625 0.03671875 0.03671875
9 0.4921875 0.446875 0.0234375 0.053125
9 0.65390625 0.31328125 0.0375 0.0375
9 0.9234375 0.49140625 0.059375 0.1
9 0.984375 0.68984375 0.03125 0.0859375
9 0.759375 0.6859375 0.0578125 0.0890625
9 0.509375 0.965625 0.0625 0.06875
9 0.45703125 0.8796875 0.028125 0.06875
9 0.62109375 0.6328125 0.028125 0.065625
9 0.57890625 0.7234375 0.0484375 0.075
2 0.9515625 0.630859375 0.040625 0.0484375
2 0.853125 0.67890625 0.05 0.05625
2 0.69453125 0.814453125 0.0375 0.05546875
2 0.103125 0.363671875 0.175 0.24453125
2 0.762890625 0.0234375 0.03125 0.046875