0 0.096875 0.41328125 0.1578125 0.121875
0 0.13359375 0.2875 0.06328125 0.06328125
0 0.053125 0.315625 0.1015625 0.1015625
0 0.17421875 0.77734375 0.0671875 0.05
0 0.015625 0.9421875 0.03125 0.071875
6 0.01328125 0.234375 0.0265625 0.046875
1 0.175 0.09140625 0.0390625 0.0265625
1 0.309375 0.1484375 0.0390625 0.021875
1 0.36015625 0.05234375 0.028125 0.025
1 0.25 0.19375 0.0390625 0.0234375
1 0.0640625 0.23828125 0.0328125 0.0265625
1 0.3125 0.2828125 0.0328125 0.0328125
1 0.25625 0.3734375 0.075 0.0515625
1 0.328125 0.4921875 0.0625 0.0625
1 0.153125 0.634375 0.05625 0.05625
1 0.1015625 0.72265625 0.05625 0.05625
1 0.34375 0.8 0.10625 0.0765625
1 0.57421875 0.8609375 0.0625 0.0625
1 0.47265625 0.9796875 0.0828125 0.040625
1 0.50859375 0.6140625 0.0484375 0.021875
1 0.5 0.53046875 0.034375 0.0296875
1 0.49375 0.45078125 0.034375 0.025
1 0.4328125 0.28125 0.0828125 0.0546875
1 0.546875 0.3984375 0.0421875 0.034375
1 0.659375 0.484375 0.0375 0.028125
1 0.6484375 0.22578125 0.11875 0.0875
0 0.15625 0.54453125 0.0703125 0.0453125
3 0.35703125 0.94921875 0.0421875 0.0421875
3 0.6203125 0.81875 0.0484375 0.046875
3 0.56953125 0.7 0.0515625 0.0515625
3 0.434375 0.5671875 0.075 0.0546875
3 0.715625 0.528125 0.059375 0.05
3 0.48671875 0.36015625 0.04296875 0.04296875
3 0.184375 0.19609375 0.0546875 0.0515625
3 0.7515625 0.23125 0.053125 0.04375
3 0.59140625 0.1171875 0.0609375 0.0578125
7 0.83828125 0.02890625 0.034375 0.021875
7 0.9078125 0.22734375 0.1296875 0.1328125
7 0.9828125 0.3859375 0.028125 0.0375
5 0.70703125 0.44453125 0.0453125 0.0390625
5 0.66484375 0.60703125 0.0453125 0.0328125
5 0.803125 0.8859375 0.0796875 0.0546875
5 0.93828125 0.6890625 0.1171875 0.1171875
5 0.973828125 0.969140625 0.05234375 0.05390625
2 0.470703125 0.9140625 0.05234375 0.053125
2 0.4609375 0.785546875 0.05625 0.05625
2 0.4546875 0.659765625 0.059375 0.04921875