9 0.3609375 0.109375 0.08984375 0.08984375
9 0.375 0.446875 0.0625 0.1484375
9 0.52890625 0.50234375 0.0953125 0.0953125
9 0.52421875 0.62421875 0.07734375 0.07734375
9 0.66484375 0.23671875 0.0609375 0.0609375
9 0.77734375 0.25625 0.034375 0.059375
9 0.80234375 0.71328125 0.028125 0.05
9 0.87734375 0.88671875 0.04765625 0.04765625
9 0.81171875 0.7546875 0.04375 0.04375
9 0.78359375 0.32265625 0.028125 0.053125
9 0.1578125 0.24296875 0.028125 0.0828125
9 0.0625 0.01640625 0.046875 0.0328125
9 0.5484375 0.965625 0.0609375 0.06875
0 0.0125 0.01953125 0.025 0.0390625
0 0.1359375 0.0234375 0.025 0.046875
0 0.30390625 0.10625 0.0203125 0.0453125
0 0.385546875 0.00390625 0.01171875 0.0078125
0 0.459375 0.06171875 0.04765625 0.04765625
0 0.53515625 0.06640625 0.0234375 0.0375
0 0.62109375 0.0421875 0.0609375 0.084375
0 0.7953125 0.034375 0.08125 0.06875
0 0.78984375 0.983984375 0.0390625 0.03203125
0 0.73671875 0.89921875 0.1140625 0.071875
0 0.38203125 0.9171875 0.128125 0.1625
0 0.19609375 0.94140625 0.0359375 0.0390625
6 0.76953125 0.7359375 0.046875 0.0859375
6 0.7375 0.8359375 0.034375 0.0546875
6 0.6734375 0.6703125 0.07265625 0.07265625
6 0.56953125 0.84375 0.03125 0.05
6 0.6015625 0.6703125 0.0375 0.0578125
6 0.59375 0.58046875 0.03125 0.0546875
6 0.53515625 0.67578125 0.0328125 0.05
6 0.46953125 0.84453125 0.11953125 0.11953125
6 0.39296875 0.6203125 0.03125 0.0359375
6 0.38046875 0.79140625 0.0296875 0.0640625
6 0.296875 0.62265625 0.0578125 0.115625
6 0.25703125 0.80859375 0.0328125 0.0484375
6 0.2171875 0.68671875 0.025 0.05
6 0.1890625 0.8765625 0.0375 0.0375
6 0.146875 0.7578125 0.03125 0.04375
6 0.1125 0.81328125 0.028125 0.053125
6 0.06484375 0.63203125 0.028125 0.059375
2 0.941015625 0.6546875 0.0625 0.06171875
2 0.814453125 0.626953125 0.046875 0.0609375
2 0.712890625 0.598046875 0.05546875 0.05546875
2 0.76484375 0.261328125 0.1203125 0.21015625
2 0.191015625 0.234375 0.1234375 0.246875
2 0.379296875 0.754296875 0.11328125 0.2015625