6 0.06875 0.71484375 0.0421875 0.1140625
6 0.27734375 0.72421875 0.09140625 0.09140625
6 0.1640625 0.415625 0.065625 0.065625
6 0.31796875 0.50703125 0.053125 0.053125
6 0.36171875 0.43125 0.0328125 0.0703125
6 0.321875 0.25078125 0.0625 0.1296875
6 0.484375 0.4546875 0.0609375 0.1078125
6 0.4765625 0.53515625 0.046875 0.0453125
6 0.65234375 0.49609375 0.040625 0.1078125
6 0.6484375 0.4171875 0.04375 0.090625
6 0.75234375 0.54609375 0.0625 0.0625
6 0.83515625 0.43984375 0.0453125 0.1140625
6 0.55078125 0.24609375 0.046875 0.1125
0 0.6328125 0.8078125 0.0515625 0.0984375
0 0.5859375 0.834375 0.053125 0.1578125
0 0.48828125 0.7578125 0.065625 0.115625
0 0.45546875 0.93828125 0.0203125 0.0484375
0 0.37421875 0.984375 0.0296875 0.03125
0 0.32109375 0.95234375 0.0765625 0.0765625
0 0.41015625 0.8578125 0.025 0.0578125
0 0.228125 0.90390625 0.04296875 0.04296875
0 0.19296875 0.678125 0.040625 0.040625
0 0.0953125 0.9296875 0.03671875 0.03671875
0 0.1390625 0.9890625 0.03125 0.021875
3 0.1078125 0.034375 0.021875 0.0484375
3 0.13515625 0.18203125 0.02890625 0.02890625
3 0.17421875 0.11796875 0.0140625 0.03125
3 0.20859375 0.1578125 0.03125 0.03125
3 0.2453125 0.09453125 0.0265625 0.0265625
3 0.2765625 0.203125 0.01875 0.0390625
3 0.31640625 0.1328125 0.028125 0.0578125
3 0.353125 0.1203125 0.015625 0.03125
3 0.36015625 0.365625 0.0234375 0.0453125
3 0.35703125 0.29921875 0.0375 0.0375
3 0.40703125 0.5515625 0.015625 0.046875
3 0.35859375 0.5734375 0.0125 0.065625
3 0.40625 0.778125 0.040625 0.040625
3 0.41015625 0.9390625 0.028125 0.040625
3 0.53984375 0.821875 0.05078125 0.05078125
3 0.61484375 0.5734375 0.04375 0.075
3 0.7796875 0.7703125 0.0359375 0.0921875
3 0.77109375 0.690625 0.046875 0.059375
3 0.95 0.9140625 0.046875 0.1578125
9 0.63984375 0.89140625 0.0453125 0.0453125
9 0.5265625 0.59765625 0.078125 0.1578125
9 0.3953125 0.22734375 0.028125 0.0359375
9 0.35234375 0.06328125 0.03125 0.0359375
9 0.790625 0.53984375 0.1125 0.1125
9 0.9875 0.4125 0.025 0.115625
9 0.76171875 0.05078125 0.059375 0.1
9 0.66640625 0.0140625 0.02734375 0.02734375
3 0.671875 0.21796875 0.0421875 0.09375
3 0.66484375 0.1015625 0.0609375 0.0609375
3 0.50234375 0.0890625 0.0375 0.0703125
3 0.4265625 0.02421875 0.04453125 0.04453125
1 0.96796875 0.1265625 0.0609375 0.2
1 0.80859375 0.21484375 0.07265625 0.07265625
1 0.69921875 0.02109375 0.028125 0.0421875
1 0.5640625 0.3828125 0.053125 0.096875
1 0.465625 0.1515625 0.05 0.0765625
1 0.434375 0.096875 0.040625 0.071875
1 0.3875 0.0171875 0.040625 0.034375