6 0.7890625 0.778125 0.0515625 0.0765625
6 0.81953125 0.80546875 0.0640625 0.0640625
6 0.70078125 0.9703125 0.0765625 0.059375
6 0.52421875 0.96796875 0.109375 0.0640625
6 0.44453125 0.9328125 0.0796875 0.0796875
6 0.40234375 0.978125 0.0609375 0.0296875
6 0.25703125 0.987109375 0.0296875 0.02578125
6 0.26796875 0.6984375 0.07421875 0.07421875
6 0.62109375 0.578125 0.1140625 0.071875
0 0.1375 0.86875 0.021875 0.0328125
0 0.175 0.94453125 0.02578125 0.02578125
0 0.14296875 0.9484375 0.025 0.0328125
0 0.24296875 0.89765625 0.015625 0.0234375
0 0.2046875 0.8171875 0.0203125 0.034375
0 0.26640625 0.65 0.0203125 0.021875
0 0.2703125 0.76953125 0.0234375 0.0234375
0 0.27265625 0.81484375 0.015625 0.028125
0 0.30234375 0.84765625 0.05 0.0625
0 0.340625 0.92734375 0.04140625 0.04140625
0 0.4 0.84296875 0.0484375 0.0484375
0 0.3984375 0.721875 0.028125 0.028125
0 0.43515625 0.88359375 0.0390625 0.046875
0 0.49453125 0.91015625 0.015625 0.0328125
0 0.55390625 0.909375 0.0203125 0.028125
0 0.55390625 0.8703125 0.021875 0.0296875
0 0.5828125 0.90859375 0.01875 0.0296875
0 0.7015625 0.896875 0.0328125 0.034375
0 0.784375 0.9625 0.0359375 0.0515625
0 0.759375 0.85234375 0.025 0.0421875
0 0.67578125 0.78671875 0.0265625 0.0453125
0 0.6140625 0.7875 0.04375 0.053125
0 0.55390625 0.7953125 0.028125 0.0296875
0 0.49140625 0.79765625 0.0375 0.071875
0 0.5546875 0.6734375 0.03125 0.053125
3 0.1609375 0.65625 0.0765625 0.09375
3 0.23203125 0.77421875 0.05625 0.084375
3 0.29453125 0.59765625 0.0546875 0.0953125
3 0.36484375 0.76875 0.05 0.0890625
3 0.3953125 0.64375 0.0546875 0.0890625
3 0.46015625 0.7546875 0.04375 0.0890625
3 0.55234375 0.75703125 0.028125 0.0453125
3 0.64296875 0.70859375 0.03046875 0.03046875
3 0.76015625 0.70234375 0.0234375 0.0359375
3 0.70390625 0.62734375 0.03359375 0.03359375
3 0.82109375 0.58046875 0.0296875 0.06875
3 0.76328125 0.58203125 0.03359375 0.03359375
3 0.55546875 0.590625 0.0296875 0.0359375
3 0.5234375 0.5078125 0.0453125 0.0609375
3 0.4921875 0.59140625 0.0359375 0.05
3 0.45859375 0.640625 0.03828125 0.03828125
3 0.390625 0.55546875 0.03671875 0.03671875
3 0.39375 0.5109375 0.04140625 0.04140625
3 0.15390625 0.48125 0.0578125 0.0828125
1 0.11953125 0.390625 0.0484375 0.0484375
1 0.32109375 0.34921875 0.04453125 0.04453125
1 0.14140625 0.08828125 0.0359375 0.0296875
1 0.5765625 0.01796875 0.028125 0.03125
1 0.6375 0.0765625 0.03671875 0.03671875
1 0.75390625 0.07265625 0.0953125 0.0953125
1 0.8578125 0.184375 0.0875 0.10625
1 0.9046875 0.384375 0.046875 0.0703125
1 0.64609375 0.42578125 0.025 0.0359375
1 0.69375 0.2546875 0.025 0.0203125
1 0.64921875 0.2359375 0.0203125 0.0203125
9 0.1140625 0.29765625 0.02890625 0.02890625
9 0.125 0.56484375 0.01875 0.0328125
9 0.15234375 0.34609375 0.02421875 0.02421875
9 0.18515625 0.29375 0.0171875 0.0265625
9 0.246875 0.11328125 0.01875 0.0328125
9 0.31953125 0.065625 0.02890625 0.02890625
9 0.28125 0.1625 0.0234375 0.021875
9 0.35546875 0.2515625 0.0234375 0.0234375
9 0.384375 0.2 0.0359375 0.0515625
9 0.4578125 0.2953125 0.02890625 0.02890625
9 0.4234375 0.38203125 0.03203125 0.03203125
9 0.36484375 0.43046875 0.04609375 0.04609375
9 0.32734375 0.4390625 0.0375 0.0375
9 0.4890625 0.465625 0.0234375 0.034375
9 0.51875 0.3859375 0.02890625 0.02890625
9 0.584375 0.42578125 0.0203125 0.0375
9 0.61484375 0.4640625 0.0203125 0.0296875
9 0.52109375 0.59609375 0.015625 0.0484375
9 0.5859375 0.63125 0.025 0.0296875
9 0.64453125 0.5046875 0.0265625 0.0359375
9 0.7046875 0.46875 0.0453125 0.0765625
9 0.76796875 0.421875 0.05234375 0.05234375
9 0.82578125 0.5 0.05625 0.0640625
9 0.7046875 0.28671875 0.0609375 0.0609375
9 0.609375 0.2875 0.0359375 0.040625
9 0.484375 0.21171875 0.0375 0.0609375
9 0.553125 0.084375 0.0328125 0.0515625
5 0.177734375 0.023046875 0.05859375 0.04609375
5 0.296875 0.2421875 0.084375 0.084375
5 0.25546875 0.31875 0.071875 0.09375
5 0.41953125 0.4421875 0.021875 0.0375
5 0.53203125 0.35546875 0.0296875 0.0375
5 0.56796875 0.25859375 0.02734375 0.02734375
5 0.6234375 0.3203125 0.028125 0.0359375
5 0.69453125 0.2265625 0.03125 0.040625
5 0.73203125 0.375 0.0328125 0.053125
5 0.92421875 0.309375 0.10234375 0.10234375
9 0.91796875 0.41796875 0.05625 0.05625
2 0.853515625 0.537109375 0.03125 0.03125
2 0.792578125 0.541015625 0.03671875 0.03671875
2 0.736328125 0.546875 0.04140625 0.034375
2 0.841015625 0.918359375 0.03359375 0.03828125
2 0.787109375 0.9203125 0.03125 0.03125
2 0.7328125 0.928125 0.040625 0.025