0 0.4640625 0.04453125 0.0328125 0.046875
0 0.74921875 0.040625 0.021875 0.021875
6 0.4015625 0.15 0.115625 0.08125
6 0.7453125 0.01875 0.08125 0.0375
3 0.21171875 0.16328125 0.0375 0.0625
3 0.31953125 0.1125 0.03125 0.046875
3 0.26953125 0.15703125 0.03125 0.0484375
3 0.259375 0.040625 0.04765625 0.04765625
3 0.37421875 0.02265625 0.03671875 0.03671875
3 0.46953125 0.1265625 0.03125 0.05625
3 0.50234375 0.20546875 0.0421875 0.06875
3 0.53125 0.12265625 0.04296875 0.04296875
3 0.55703125 0.0671875 0.0359375 0.0546875
3 0.61875 0.06484375 0.0546875 0.0984375
3 0.625 0.18828125 0.0421875 0.0421875
3 0.62421875 0.15 0.0515625 0.040625
3 0.71796875 0.0984375 0.07421875 0.07421875
3 0.85078125 0.03359375 0.0671875 0.0671875
3 0.85546875 0.1921875 0.0734375 0.0859375
9 0.13671875 0.3046875 0.0328125 0.04375
9 0.2140625 0.23828125 0.0453125 0.0625
9 0.27265625 0.30546875 0.0546875 0.0546875
9 0.3328125 0.25859375 0.05234375 0.05234375
9 0.3375 0.41328125 0.046875 0.046875
9 0.3828125 0.21953125 0.015625 0.021875
9 0.41484375 0.25390625 0.01875 0.0203125
9 0.44609375 0.29296875 0.025 0.025
9 0.4359375 0.0890625 0.01875 0.021875
9 0.5 0.125 0.0171875 0.025
9 0.5390625 0.23671875 0.0171875 0.0234375
9 0.50859375 0.32734375 0.02265625 0.02265625
9 0.57265625 0.4 0.015625 0.028125
9 0.596875 0.31875 0.01875 0.028125
9 0.65625 0.26640625 0.0328125 0.0546875
9 0.69140625 0.25390625 0.04375 0.04375
9 0.8859375 0.1078125 0.0234375 0.028125
9 0.86328125 0.3234375 0.0234375 0.0234375
9 0.83125 0.3765625 0.01875 0.015625
9 0.9015625 0.36875 0.0234375 0.028125
9 0.6703125 0.43046875 0.0140625 0.021875
9 0.54375 0.47890625 0.0578125 0.0578125
9 0.42734375 0.41796875 0.03203125 0.03203125
9 0.4890625 0.571875 0.0265625 0.05
9 0.64140625 0.48203125 0.0359375 0.0375
9 0.73671875 0.5140625 0.021875 0.0375
9 0.76953125 0.546875 0.028125 0.028125
9 0.70546875 0.5984375 0.0203125 0.0265625
5 0.6015625 0.2578125 0.0296875 0.034375
5 0.13203125 0.403125 0.08671875 0.08671875
5 0.30859375 0.34609375 0.0234375 0.028125
5 0.3546875 0.4578125 0.01796875 0.01796875
5 0.41328125 0.3921875 0.0265625 0.0234375
5 0.4984375 0.35390625 0.0234375 0.03125
5 0.46640625 0.446875 0.025 0.025
5 0.72109375 0.43828125 0.0734375 0.09375
5 0.76171875 0.359375 0.0796875 0.0796875
5 0.84765625 0.66171875 0.08125 0.103125
5 0.959375 0.84921875 0.0296875 0.046875
5 0.67890625 0.7390625 0.03515625 0.03515625
5 0.57421875 0.69765625 0.02890625 0.02890625
1 0.89453125 0.28046875 0.0484375 0.0484375
1 0.6953125 0.3375 0.0515625 0.059375
1 0.46328125 0.62890625 0.040625 0.0453125
1 0.41015625 0.5875 0.034375 0.040625
1 0.38359375 0.29921875 0.0296875 0.034375
1 0.30859375 0.58828125 0.078125 0.0984375
1 0.20546875 0.503125 0.0703125 0.0921875
1 0.15 0.33203125 0.053125 0.0640625
1 0.8703125 0.559375 0.03125 0.03125
1 0.74765625 0.7640625 0.03984375 0.03984375
1 0.546875 0.73828125 0.06171875 0.06171875
1 0.55859375 0.9109375 0.0328125 0.04375
1 0.38125 0.82265625 0.0484375 0.0484375
1 0.38203125 0.7625 0.0546875 0.0578125
5 0.73359375 0.9859375 0.03125 0.028125
1 0.49296875 0.95859375 0.053125 0.0765625
7 0.6046875 0.70625 0.0359375 0.0453125
7 0.7078125 0.74140625 0.0375 0.0375
7 0.6484375 0.840625 0.034375 0.0421875
7 0.3890625 0.95625 0.053125 0.0859375
7 0.2546875 0.7765625 0.04921875 0.04921875
7 0.18828125 0.81875 0.03125 0.0359375
7 0.29140625 0.9859375 0.05625 0.025
1 0.39140625 0.453125 0.0203125 0.025
10 0.227734375 0.988671875 0.02578125 0.02265625
10 0.35390625 0.9546875 0.025 0.0421875
2 0.183203125 0.207421875 0.04140625 0.04140625
2 0.237890625 0.203125 0.03515625 0.0375
2 0.301953125 0.1859375 0.046875 0.0421875
2 0.128515625 0.908984375 0.04453125 0.0453125
2 0.192578125 0.9046875 0.03828125 0.034375
2 0.2578125 0.857421875 0.05625 0.05234375
2 0.786328125 0.87578125 0.07109375 0.07109375
2 0.904296875 0.761328125 0.0609375 0.08828125
2 0.87421875 0.54609375 0.1125 0.1546875