6 0.04140625 0.40390625 0.0734375 0.171875
6 0.18125 0.36484375 0.05 0.0828125
6 0.28828125 0.545703125 0.0578125 0.103125
6 0.4484375 0.44296875 0.025 0.0421875
6 0.39453125 0.3765625 0.0265625 0.0359375
6 0.38515625 0.621875 0.046875 0.0640625
6 0.24609375 0.765625 0.0453125 0.0609375
6 0.36171875 0.7375 0.0296875 0.046875
6 0.4421875 0.7390625 0.0234375 0.03125
6 0.503125 0.70546875 0.021875 0.0390625
6 0.62421875 0.84609375 0.0234375 0.053125
6 0.59375 0.68046875 0.021875 0.05
6 0.57578125 0.77890625 0.028125 0.0609375
6 0.7078125 0.6875 0.0265625 0.05
6 0.7328125 0.84609375 0.0171875 0.0296875
6 0.76015625 0.84375 0.0171875 0.0296875
6 0.83359375 0.69140625 0.01796875 0.01796875
6 0.85625 0.8078125 0.0125 0.04375
9 0.7296875 0.91875 0.071875 0.0765625
9 0.3796875 0.91328125 0.065625 0.059375
9 0.1328125 0.98203125 0.153125 0.03125
10 0.8125 0.978125 0.034375 0.04375
10 0.62265625 0.475 0.040625 0.0609375
10 0.8078125 0.42578125 0.0734375 0.0734375
10 0.92109375 0.41640625 0.065625 0.0828125
10 0.78515625 0.7671875 0.0703125 0.090625
10 0.3953125 0.52734375 0.03359375 0.03359375
10 0.67578125 0.56640625 0.0484375 0.0453125
10 0.50625 0.4078125 0.065625 0.090625
10 0.47109375 0.18828125 0.078125 0.078125
10 0.2453125 0.03359375 0.059375 0.0671875
10 0.4 0.0765625 0.0359375 0.0421875
10 0.353125 0.20546875 0.04296875 0.04296875
6 0.378125 0.2609375 0.0453125 0.046875
6 0.67734375 0.82265625 0.0359375 0.1
3 0.90390625 0.83515625 0.0515625 0.0671875
3 0.88203125 0.95234375 0.0375 0.065625
3 0.7875 0.91875 0.053125 0.103125
3 0.23046875 0.96875 0.078125 0.0578125
3 0.10390625 0.853125 0.040625 0.05
3 0.020703125 0.8953125 0.04140625 0.0421875
0 0.784375 0.64375 0.0703125 0.0703125
0 0.6828125 0.521875 0.0359375 0.021875
0 0.6859375 0.31796875 0.0734375 0.1453125
0 0.60703125 0.234375 0.04296875 0.04296875
0 0.4953125 0.315625 0.0921875 0.0578125
0 0.4125 0.290625 0.0296875 0.05
0 0.14453125 0.47109375 0.0875 0.0875
0 0.12734375 0.5421875 0.0578125 0.0765625
0 0.35859375 0.515625 0.04140625 0.04140625
0 0.39453125 0.47734375 0.040625 0.0453125
0 0.10078125 0.28125 0.0515625 0.0546875
2 0.040625 0.201171875 0.05 0.078125
2 0.178125 0.24140625 0.06484375 0.06484375
2 0.294140625 0.271484375 0.06640625 0.0671875
2 0.3921875 0.71875 0.1875 0.1875
2 0.559765625 0.7015625 0.07421875 0.3953125
2 0.5953125 0.2203125 0.103125 0.115625
2 0.659765625 0.162109375 0.05859375 0.0484375
2 0.7046875 0.137109375 0.06875 0.06875
2 0.74375 0.190234375 0.053125 0.05078125
2 0.78125 0.240625 0.053125 0.0640625
2 0.825390625 0.2203125 0.0484375 0.065625
2 0.871484375 0.192578125 0.10078125 0.10078125