0 0.8640625 0.57734375 0.04375 0.0703125
0 0.8078125 0.45546875 0.0515625 0.065625
0 0.7609375 0.484375 0.046875 0.0578125
0 0.67109375 0.575 0.053125 0.059375
0 0.64765625 0.4875 0.0234375 0.028125
0 0.6859375 0.4609375 0.0546875 0.0546875
0 0.7 0.378125 0.046875 0.0625
0 0.6375 0.2875 0.01875 0.0359375
0 0.584375 0.42265625 0.0203125 0.028125
0 0.553125 0.45234375 0.0421875 0.0671875
0 0.50078125 0.4734375 0.04453125 0.04453125
0 0.43359375 0.365625 0.04375 0.06875
0 0.38671875 0.36796875 0.0359375 0.059375
0 0.303125 0.26171875 0.0375 0.0375
0 0.2421875 0.27734375 0.034375 0.0765625
0 0.17109375 0.1828125 0.0453125 0.071875
0 0.08046875 0.21953125 0.05 0.0625
0 0.43203125 0.2375 0.01875 0.0359375
0 0.39140625 0.02890625 0.021875 0.0390625
0 0.46015625 0.19375 0.021875 0.0359375
0 0.52265625 0.24609375 0.0234375 0.0234375
8 0.925 0.93671875 0.0546875 0.0765625
8 0.81796875 0.7109375 0.05625 0.06875
8 0.64140625 0.74140625 0.1375 0.1828125
8 0.46953125 0.90625 0.07890625 0.07890625
8 0.428125 0.58125 0.04296875 0.04296875
8 0.30859375 0.5609375 0.0234375 0.03125
8 0.38046875 0.84453125 0.0234375 0.0359375
8 0.30234375 0.9765625 0.1484375 0.0453125
8 0.11484375 0.82578125 0.1171875 0.1171875
8 0.0921875 0.56171875 0.0375 0.0515625
1 0.65 0.959375 0.025 0.04375
1 0.51328125 0.603125 0.065625 0.0921875
1 0.45078125 0.7859375 0.0203125 0.0328125
1 0.33828125 0.83671875 0.053125 0.053125
1 0.31328125 0.70703125 0.0453125 0.071875
1 0.1921875 0.6234375 0.0546875 0.075
1 0.2078125 0.91171875 0.0609375 0.06875
1 0.0859375 0.983984375 0.0375 0.03203125
1 0.019140625 0.811328125 0.03828125 0.05078125
10 0.55625 0.66171875 0.034375 0.0484375
10 0.496875 0.69765625 0.03125 0.0515625
10 0.4484375 0.6390625 0.0203125 0.0484375
10 0.390625 0.7375 0.0328125 0.05
10 0.334375 0.90234375 0.0296875 0.0390625
10 0.17109375 0.7546875 0.0328125 0.0515625
10 0.0671875 0.628125 0.04375 0.0515625
9 0.8375 0.3375 0.0234375 0.028125
9 0.7171875 0.59453125 0.028125 0.0265625
9 0.653125 0.6296875 0.02578125 0.02578125
9 0.60546875 0.59609375 0.03125 0.03125
9 0.71328125 0.50859375 0.0234375 0.028125
9 0.671875 0.42734375 0.0234375 0.03125
9 0.45859375 0.44140625 0.025 0.0328125
9 0.4296875 0.44296875 0.0359375 0.0578125
9 0.359375 0.47890625 0.0546875 0.05625
9 0.17109375 0.36875 0.028125 0.0671875
9 0.09296875 0.51015625 0.0390625 0.0390625
9 0.13359375 0.2984375 0.0375 0.0546875
9 0.52578125 0.35390625 0.078125 0.1140625
9 0.63359375 0.171875 0.0796875 0.1078125
9 0.7859375 0.06328125 0.03125 0.040625
3 0.45625 0.14140625 0.028125 0.05
3 0.194921875 0.025390625 0.05234375 0.05078125
5 0.02578125 0.17578125 0.0453125 0.075
5 0.11875 0.0328125 0.05 0.0625
5 0.13828125 0.2265625 0.0453125 0.0453125
5 0.20234375 0.06875 0.04609375 0.04609375
5 0.259375 0.1328125 0.0484375 0.065625
5 0.328125 0.3046875 0.0203125 0.0328125
5 0.36171875 0.19921875 0.0359375 0.059375
5 0.434375 0.1046875 0.0328125 0.059375
5 0.40859375 0.13984375 0.025 0.0625
5 0.46015625 0.23984375 0.03125 0.03125
5 0.60859375 0.31171875 0.0234375 0.03125
5 0.56640625 0.2 0.021875 0.021875
5 0.56796875 0.0359375 0.025 0.03125
5 0.6796875 0.03359375 0.021875 0.03125
5 0.6828125 0.24609375 0.025 0.03125
2 0.0375 0.513671875 0.0328125 0.04140625
2 0.167578125 0.544921875 0.03671875 0.04140625
2 0.18828125 0.377734375 0.11875 0.11875
2 0.07890625 0.0765625 0.03515625 0.03515625
2 0.158203125 0.0875 0.03828125 0.040625
2 0.228125 0.091015625 0.0296875 0.03671875
0 0.615234375 0.903515625 0.18828125 0.18828125
0 0.301953125 0.534765625 0.09765625 0.11171875