10 0.38828125 0.95234375 0.034375 0.025
10 0.528125 0.87265625 0.0625 0.0375
10 0.565625 0.79453125 0.0640625 0.0359375
10 0.46484375 0.70546875 0.06328125 0.06328125
10 0.36015625 0.6359375 0.040625 0.0296875
10 0.5453125 0.5125 0.03828125 0.03828125
10 0.7171875 0.62890625 0.0875 0.053125
10 0.89765625 0.415625 0.0421875 0.0265625
10 0.75078125 0.35 0.0390625 0.0359375
10 0.8265625 0.2453125 0.04453125 0.04453125
10 0.80078125 0.24609375 0.0375 0.0421875
10 0.9640625 0.2796875 0.0421875 0.0328125
10 0.81796875 0.0265625 0.0375 0.03125
10 0.928125 0.06796875 0.0875 0.071875
10 0.989453125 0.052734375 0.02109375 0.02421875
5 0.984375 0.76328125 0.03125 0.05
5 0.98984375 0.64765625 0.0203125 0.0203125
5 0.93125 0.540625 0.0453125 0.0453125
5 0.9328125 0.47578125 0.0546875 0.034375
5 0.8671875 0.3484375 0.13125 0.13125
5 0.82109375 0.09609375 0.1265625 0.0734375
7 0.6890625 0.15703125 0.1421875 0.140625
7 0.62265625 0.284375 0.140625 0.121875
7 0.43515625 0.36328125 0.05078125 0.05078125
7 0.39140625 0.446875 0.140625 0.140625
7 0.42421875 0.55546875 0.10703125 0.10703125
7 0.67421875 0.56953125 0.046875 0.034375
7 0.55078125 0.61484375 0.0515625 0.0421875
7 0.63984375 0.7109375 0.04375 0.040625
7 0.6140625 0.8828125 0.1 0.0734375
7 0.365625 0.778125 0.05234375 0.05234375
1 0.21640625 0.32421875 0.096875 0.05625
1 0.1 0.65078125 0.0671875 0.04375
1 0.07421875 0.8375 0.08984375 0.08984375
1 0.028125 0.80546875 0.05625 0.090625
1 0.08515625 0.5734375 0.0484375 0.0484375
1 0.01484375 0.584375 0.0296875 0.0703125
1 0.009765625 0.656640625 0.01953125 0.02421875
1 0.1203125 0.1828125 0.0875 0.05
1 0.26328125 0.1234375 0.0671875 0.0453125
9 0.09453125 0.26796875 0.1484375 0.10625
9 0.2234375 0.10078125 0.06875 0.06875
2 0.865625 0.8265625 0.03203125 0.03203125
2 0.861328125 0.765625 0.0328125 0.03125
2 0.862890625 0.701171875 0.03828125 0.03828125
2 0.47734375 0.9140625 0.0421875 0.0296875
2 0.426953125 0.853125 0.05234375 0.0375
2 0.466796875 0.775 0.04140625 0.040625
2 0.9375 0.611328125 0.125 0.16953125
2 0.94609375 0.215234375 0.0703125 0.08046875
2 0.96171875 0.341796875 0.0765625 0.10390625