10 0.771875 0.18984375 0.0375 0.028125
10 0.87265625 0.2421875 0.0296875 0.0296875
10 0.64375 0.28359375 0.04375 0.028125
10 0.925 0.32109375 0.0359375 0.0359375
10 0.6671875 0.4703125 0.0390625 0.028125
10 0.59921875 0.5046875 0.028125 0.0203125
10 0.69296875 0.55 0.0296875 0.0171875
10 0.4796875 0.665625 0.03125 0.015625
10 0.65234375 0.6796875 0.028125 0.028125
10 0.671875 0.77890625 0.0515625 0.028125
10 0.76953125 0.88984375 0.0515625 0.0203125
10 0.6796875 0.93203125 0.0578125 0.0328125
10 0.95546875 0.84453125 0.03046875 0.03046875
10 0.9359375 0.790625 0.046875 0.0234375
10 0.9921875 0.6546875 0.015625 0.021875
10 0.85859375 0.59921875 0.03515625 0.03515625
10 0.8578125 0.559375 0.046875 0.0265625
3 0.953125 0.5515625 0.0859375 0.0453125
3 0.98515625 0.26640625 0.0296875 0.046875
7 0.9828125 0.08046875 0.02734375 0.02734375
7 0.94921875 0.10703125 0.0421875 0.0265625
7 0.20625 0.57109375 0.0578125 0.034375
7 0.33125 0.6390625 0.0515625 0.040625
7 0.053125 0.8671875 0.0609375 0.0421875
7 0.2046875 0.94765625 0.075 0.0421875
0 0.76640625 0.26328125 0.1375 0.1
0 0.36171875 0.05 0.128125 0.0765625
0 0.13046875 0.15234375 0.1109375 0.06875
0 0.40703125 0.31328125 0.1328125 0.071875
0 0.36640625 0.44921875 0.090625 0.0515625
0 0.5640625 0.56796875 0.253125 0.1234375
0 0.7875 0.7421875 0.225 0.18125
7 0.9359375 0.66328125 0.0296875 0.028125
0 0.6046875 0.87578125 0.103125 0.059375
0 0.632421875 0.96484375 0.07734375 0.0703125
0 0.7375 0.41640625 0.10859375 0.10859375
8 0.86171875 0.05625 0.0875 0.0484375
8 0.31796875 0.1796875 0.05390625 0.05390625
8 0.41796875 0.21875 0.0984375 0.0578125
8 0.5609375 0.28359375 0.06015625 0.06015625
8 0.8578125 0.39296875 0.103125 0.0671875
8 0.61015625 0.4125 0.0859375 0.053125
8 0.45546875 0.40546875 0.0921875 0.0546875
8 0.759375 0.56015625 0.075 0.053125
8 0.45234375 0.72734375 0.059375 0.053125
8 0.4875 0.7953125 0.0734375 0.046875
8 0.69921875 0.8828125 0.04296875 0.04296875
8 0.52265625 0.98984375 0.1296875 0.0203125
8 0.3796875 0.56640625 0.0875 0.0609375
8 0.24296875 0.63671875 0.0984375 0.065625
1 0.26171875 0.153125 0.0296875 0.021875
1 0.221875 0.18125 0.0296875 0.0296875
1 0.20859375 0.23671875 0.04296875 0.04296875
1 0.2375 0.309375 0.03359375 0.03359375
1 0.37578125 0.40390625 0.03125 0.03125
1 0.23359375 0.45703125 0.0359375 0.0296875
1 0.22890625 0.540625 0.0546875 0.0546875
1 0.1546875 0.6015625 0.059375 0.059375
1 0.078125 0.68515625 0.0796875 0.0375
1 0.05546875 0.91875 0.0546875 0.040625
9 0.24609375 0.403125 0.21875 0.065625
9 0.49375 0.45390625 0.03671875 0.03671875
9 0.553125 0.4921875 0.03828125 0.03828125
9 0.68671875 0.65390625 0.046875 0.028125
9 0.50859375 0.9234375 0.0796875 0.0796875
9 0.310546875 0.977734375 0.05859375 0.04453125
9 0.3140625 0.759375 0.0734375 0.0734375
9 0.034375 0.509375 0.06875 0.0625
9 0.1203125 0.45703125 0.06875 0.028125
9 0.3671875 0.62109375 0.065625 0.028125
9 0.2765625 0.57890625 0.075 0.0484375
2 0.369140625 0.9515625 0.04453125 0.04375
2 0.32109375 0.853125 0.05625 0.05
2 0.185546875 0.69453125 0.05546875 0.0375
2 0.636328125 0.103125 0.24453125 0.175
2 0.9765625 0.762890625 0.046875 0.03125