6 0.125 0.13671875 0.0734375 0.0734375
6 0.29921875 0.13203125 0.096875 0.0328125
6 0.48515625 0.134375 0.096875 0.028125
6 0.47890625 0.09453125 0.0515625 0.021875
6 0.61484375 0.11484375 0.03125 0.03125
6 0.6609375 0.1171875 0.0453125 0.03125
6 0.6703125 0.04140625 0.1171875 0.0375
6 0.934375 0.01953125 0.059375 0.0390625
3 0.0078125 0.265625 0.015625 0.03125
3 0.09140625 0.36015625 0.021875 0.01875
3 0.196875 0.27734375 0.034375 0.025
3 0.31640625 0.215625 0.03125 0.0234375
3 0.2765625 0.30390625 0.0203125 0.0203125
3 0.3953125 0.35390625 0.0390625 0.0265625
3 0.446875 0.2078125 0.0328125 0.0171875
3 0.4921875 0.325 0.02578125 0.02578125
3 0.5546875 0.34921875 0.0265625 0.028125
3 0.69609375 0.2109375 0.0828125 0.0578125
3 0.71953125 0.34453125 0.0234375 0.0265625
1 0.59140625 0.234375 0.04375 0.04375
1 0.4328125 0.325 0.028125 0.0203125
1 0.1234375 0.4109375 0.1 0.1
1 0.51484375 0.53359375 0.05 0.0328125
1 0.4625 0.69453125 0.0328125 0.0296875
1 0.1671875 0.6359375 0.0515625 0.0515625
9 0.9515625 0.425 0.07421875 0.07421875
9 0.68125 0.4359375 0.040625 0.040625
9 0.63828125 0.40859375 0.0515625 0.0296875
9 0.596875 0.34453125 0.040625 0.040625
9 0.6 0.496875 0.040625 0.040625
9 0.5078125 0.47109375 0.04296875 0.04296875
9 0.43125 0.5296875 0.0640625 0.0296875
9 0.3484375 0.50234375 0.05 0.040625
9 0.3015625 0.5296875 0.0515625 0.0515625
9 0.27421875 0.4390625 0.053125 0.053125
9 0.23125 0.4421875 0.0453125 0.04375
9 0.19609375 0.3890625 0.0515625 0.0546875
5 0.01875 0.59609375 0.03515625 0.03515625
5 0.1796875 0.53515625 0.0671875 0.0296875
5 0.23359375 0.7234375 0.075 0.0546875
5 0.32421875 0.7328125 0.0703125 0.0640625
5 0.428125 0.59296875 0.0265625 0.0265625
5 0.465625 0.5625 0.0265625 0.0265625
5 0.66953125 0.5578125 0.03203125 0.03203125
5 0.56015625 0.59765625 0.025 0.021875
5 0.83125 0.61875 0.021875 0.021875
5 0.8265625 0.68359375 0.03125 0.0234375
5 0.5953125 0.81171875 0.06796875 0.06796875
5 0.653125 0.8125 0.06875 0.06875
5 0.74609375 0.85390625 0.1234375 0.10625
7 0.3125 0.8609375 0.10625 0.10625
7 0.74609375 0.61171875 0.1125 0.1125
7 0.903125 0.59375 0.0921875 0.08125
7 0.70234375 0.96953125 0.0859375 0.0609375
2 0.0234375 0.796875 0.040625 0.0453125
2 0.105078125 0.796875 0.0453125 0.0453125
2 0.103515625 0.479296875 0.03671875 0.0328125
2 0.223828125 0.47734375 0.04921875 0.034375
2 0.03828125 0.216015625 0.03125 0.03359375
2 0.1078125 0.20234375 0.0421875 0.0265625
2 0.185546875 0.2046875 0.03515625 0.028125
2 0.823828125 0.184765625 0.21875 0.21875
2 0.589453125 0.57109375 0.125 0.1328125
2 0.802734375 0.557421875 0.34921875 0.26328125