10 0.02890625 0.91953125 0.0453125 0.0390625
10 0.21484375 0.73671875 0.028125 0.021875
10 0.0421875 0.396875 0.03203125 0.03203125
10 0.075 0.33984375 0.0453125 0.040625
0 0.07109375 0.3046875 0.034375 0.03125
0 0.128125 0.1796875 0.06640625 0.06640625
0 0.1015625 0.42890625 0.0515625 0.0359375
0 0.2078125 0.540625 0.0734375 0.05
0 0.21640625 0.7765625 0.0625 0.034375
0 0.1140625 0.81015625 0.05859375 0.05859375
0 0.21328125 0.8796875 0.0421875 0.0421875
6 0.0078125 0.71640625 0.015625 0.0328125
8 0.1203125 0.66875 0.0609375 0.04375
8 0.2109375 0.63203125 0.05078125 0.05078125
8 0.303125 0.56328125 0.04140625 0.04140625
8 0.39375 0.52734375 0.0484375 0.0484375
8 0.61640625 0.49375 0.0453125 0.0453125
8 0.5640625 0.453125 0.06875 0.04375
6 0.559375 0.384375 0.075 0.0453125
6 0.48046875 0.28828125 0.05546875 0.05546875
6 0.334375 0.35625 0.075 0.04375
6 0.27578125 0.2828125 0.0515625 0.040625
6 0.18671875 0.284375 0.046875 0.04375
6 0.15859375 0.05546875 0.04375 0.025
6 0.26328125 0.059375 0.040625 0.034375
6 0.3265625 0.2125 0.034375 0.034375
6 0.415625 0.16953125 0.03515625 0.03515625
6 0.51640625 0.2046875 0.03984375 0.03984375
6 0.56015625 0.128125 0.034375 0.021875
6 0.40703125 0.05078125 0.02578125 0.02578125
6 0.50859375 0.046875 0.0375 0.025
6 0.61015625 0.0859375 0.040625 0.0296875
8 0.6546875 0.121875 0.0578125 0.0578125
5 0.86015625 0.33359375 0.0640625 0.0640625
5 0.61640625 0.41796875 0.059375 0.0453125
5 0.98125 0.6953125 0.0375 0.0359375
7 0.39921875 0.91796875 0.06640625 0.06640625
7 0.39375 0.83984375 0.128125 0.084375
7 0.6359375 0.696875 0.1203125 0.078125
7 0.57734375 0.62734375 0.0265625 0.0265625
7 0.48203125 0.56015625 0.028125 0.0234375
7 0.52421875 0.53515625 0.034375 0.034375
7 0.6671875 0.49921875 0.0359375 0.0359375
7 0.4734375 0.4109375 0.0625 0.078125
7 0.38203125 0.31875 0.0359375 0.025
7 0.6125 0.27265625 0.03046875 0.03046875
7 0.4609375 0.1265625 0.0359375 0.0234375
9 0.7796875 0.909375 0.0875 0.0640625
9 0.8921875 0.790625 0.05625 0.0390625
9 0.90078125 0.6046875 0.0359375 0.0328125
9 0.80390625 0.51015625 0.075 0.059375
9 0.61640625 0.31484375 0.0546875 0.0609375
9 0.6609375 0.19296875 0.1484375 0.1015625
2 0.730078125 0.911328125 0.04296875 0.046875
2 0.730859375 0.796875 0.046875 0.040625
2 0.71796875 0.697265625 0.04375 0.0453125
2 0.26484375 0.9234375 0.040625 0.040625
2 0.265625 0.8140625 0.04375 0.04375
2 0.255859375 0.707421875 0.03984375 0.03125