1 0.12578125 0.09375 0.0796875 0.05625
1 0.05390625 0.2109375 0.05625 0.05625
1 0.06796875 0.3828125 0.06015625 0.06015625
1 0.06640625 0.51953125 0.04375 0.0359375
1 0.06875 0.5828125 0.05625 0.0421875
1 0.09453125 0.85390625 0.0546875 0.034375
3 0.34375 0.94140625 0.071875 0.0484375
3 0.42421875 0.79140625 0.05 0.0328125
3 0.22265625 0.70390625 0.1390625 0.1390625
3 0.16328125 0.51015625 0.0453125 0.028125
3 0.1421875 0.2234375 0.0828125 0.0484375
3 0.40234375 0.08359375 0.096875 0.096875
3 0.50390625 0.01484375 0.0890625 0.0296875
3 0.2703125 0.1453125 0.04375 0.04375
3 0.2390625 0.39375 0.04375 0.04375
3 0.35859375 0.27421875 0.0890625 0.0890625
3 0.3265625 0.3953125 0.0671875 0.0421875
3 0.55703125 0.3046875 0.04609375 0.04609375
3 0.42734375 0.50390625 0.071875 0.0625
3 0.39765625 0.56796875 0.04921875 0.04921875
3 0.49140625 0.66015625 0.046875 0.0421875
7 0.78671875 0.98828125 0.0421875 0.0234375
7 0.54921875 0.9140625 0.034375 0.034375
7 0.6796875 0.86171875 0.0328125 0.0265625
7 0.84296875 0.74921875 0.02734375 0.02734375
7 0.59375 0.7671875 0.0328125 0.015625
7 0.6625 0.63984375 0.0640625 0.0546875
7 0.821875 0.590625 0.04765625 0.04765625
7 0.98984375 0.61015625 0.0203125 0.025
7 0.9734375 0.4109375 0.0375 0.0234375
7 0.865625 0.2625 0.090625 0.065625
7 0.8890625 0.1625 0.0546875 0.040625
7 0.83046875 0.040625 0.0609375 0.040625
7 0.59375 0.07265625 0.0515625 0.0390625
7 0.73671875 0.11328125 0.0546875 0.046875
7 0.67421875 0.20234375 0.0296875 0.0234375
7 0.528125 0.25234375 0.0421875 0.03125
7 0.80390625 0.35390625 0.0625 0.0453125
7 0.85546875 0.49453125 0.059375 0.0359375
7 0.6734375 0.46328125 0.0734375 0.040625
7 0.63125 0.4109375 0.075 0.0703125
9 0.5125 0.98984375 0.046875 0.0203125
9 0.603125 0.8265625 0.040625 0.025
9 0.8609375 0.87578125 0.03828125 0.03828125
9 0.584375 0.70625 0.05078125 0.05078125
9 0.496875 0.6046875 0.05625 0.0359375
9 0.5484375 0.4640625 0.03984375 0.03984375
9 0.4375 0.375 0.1 0.0734375
9 0.68828125 0.296875 0.0671875 0.0671875
9 0.59609375 0.17421875 0.05 0.05
9 0.671875 0.09296875 0.05234375 0.05234375
9 0.72890625 0.0703125 0.03515625 0.03515625
9 0.64296875 0.01796875 0.0421875 0.0359375
9 0.88671875 0.41875 0.0484375 0.0484375
9 0.73125 0.51953125 0.078125 0.0578125
9 0.66875 0.353125 0.04140625 0.04140625
9 0.83203125 0.1875 0.0390625 0.0390625
10 0.81875 0.7984375 0.0578125 0.0421875
10 0.90703125 0.7625 0.053125 0.0390625
10 0.9625 0.71328125 0.06953125 0.06953125
10 0.94921875 0.4578125 0.1015625 0.04375
10 0.84765625 0.328125 0.05625 0.0359375
10 0.94609375 0.07578125 0.0328125 0.0328125
10 0.972265625 0.019140625 0.04296875 0.03828125