5 0.75859375 0.79375 0.1140625 0.1265625
5 0.82734375 0.7265625 0.0390625 0.0390625
5 0.68515625 0.6703125 0.025 0.03125
5 0.5390625 0.809375 0.0890625 0.0890625
5 0.4734375 0.52265625 0.096875 0.0515625
5 0.35625 0.32734375 0.08515625 0.08515625
5 0.21015625 0.240625 0.0390625 0.0390625
5 0.15859375 0.334375 0.0453125 0.04375
5 0.6671875 0.4296875 0.03359375 0.03359375
5 0.5296875 0.18359375 0.0265625 0.0390625
5 0.409375 0.15625 0.01875 0.034375
10 0.84375 0.64140625 0.0359375 0.04375
10 0.73984375 0.58671875 0.025 0.0375
10 0.7421875 0.95703125 0.040625 0.040625
10 0.64921875 0.71171875 0.0296875 0.0296875
10 0.53671875 0.609375 0.040625 0.040625
10 0.50234375 0.65 0.03828125 0.03828125
10 0.3625 0.61171875 0.0359375 0.0828125
10 0.28046875 0.671875 0.0421875 0.0421875
10 0.24765625 0.92734375 0.0578125 0.0578125
10 0.0609375 0.93671875 0.0609375 0.05625
0 0.603125 0.70234375 0.071875 0.0890625
0 0.35390625 0.7703125 0.05625 0.0328125
0 0.1796875 0.95546875 0.0484375 0.0890625
7 0.8234375 0.27421875 0.03046875 0.03046875
7 0.68046875 0.31640625 0.0921875 0.0921875
7 0.734375 0.5109375 0.0265625 0.040625
7 0.60546875 0.45859375 0.0546875 0.0609375
7 0.540625 0.446875 0.0546875 0.0546875
7 0.4484375 0.3671875 0.021875 0.0375
7 0.56875 0.34921875 0.025 0.0390625
7 0.384375 0.4265625 0.0484375 0.04375
7 0.403125 0.55234375 0.01875 0.0390625
7 0.3375 0.5 0.04375 0.0484375
7 0.17890625 0.59296875 0.0546875 0.059375
7 0.18515625 0.3703125 0.0390625 0.0390625
7 0.1046875 0.3921875 0.0390625 0.059375
1 0.85078125 0.0265625 0.0234375 0.0296875
1 0.84453125 0.1109375 0.0203125 0.040625
1 0.8796875 0.06796875 0.02890625 0.02890625
1 0.87421875 0.1921875 0.028125 0.028125
1 0.67109375 0.12734375 0.0703125 0.1
1 0.55625 0.059375 0.028125 0.028125
1 0.5203125 0.01640625 0.025 0.025
1 0.50078125 0.14375 0.0265625 0.034375
1 0.4640625 0.0203125 0.028125 0.034375
1 0.4046875 0.03046875 0.034375 0.034375
1 0.2265625 0.0796875 0.0328125 0.0484375
1 0.13046875 0.0171875 0.0390625 0.034375
3 0.25625 0.1203125 0.04375 0.04375
3 0.3421875 0.0765625 0.03515625 0.03515625
3 0.4640625 0.19140625 0.0328125 0.040625
3 0.6765625 0.21171875 0.0375 0.04375
3 0.7515625 0.0890625 0.0515625 0.0734375
3 0.5796875 0.01796875 0.0359375 0.0359375
2 0.083984375 0.8203125 0.0453125 0.05546875
2 0.13359375 0.4390625 0.0421875 0.0515625
2 0.236328125 0.411328125 0.05234375 0.03515625
2 0.347265625 0.425390625 0.03515625 0.05234375
2 0.208984375 0.644921875 0.25234375 0.22734375
2 0.3046875 0.876953125 0.24375 0.24609375