6 0.19296875 0.31875 0.0671875 0.090625
6 0.33359375 0.315625 0.075 0.0546875
6 0.48828125 0.32578125 0.075 0.040625
6 0.4859375 0.25859375 0.0484375 0.0484375
6 0.5921875 0.2953125 0.034375 0.0484375
6 0.63046875 0.3 0.040625 0.05625
6 0.63828125 0.17578125 0.0734375 0.0734375
6 0.69765625 0.0890625 0.0421875 0.04375
6 0.86953125 0.1484375 0.0578125 0.06875
3 0.66484375 0.45234375 0.08984375 0.08984375
3 0.45703125 0.446875 0.03125 0.03125
3 0.35234375 0.4453125 0.03125 0.03125
3 0.25546875 0.5453125 0.03125 0.03125
3 0.08359375 0.71875 0.05 0.05
3 0.171875 0.67421875 0.0203125 0.0203125
3 0.31796875 0.59453125 0.015625 0.028125
3 0.41640625 0.67421875 0.0296875 0.04375
3 0.49296875 0.6359375 0.028125 0.034375
3 0.54453125 0.6734375 0.0203125 0.0484375
3 0.68515625 0.67578125 0.025 0.0375
1 0.578125 0.490625 0.04609375 0.04609375
1 0.19609375 0.75390625 0.11171875 0.11171875
1 0.45 0.62890625 0.0234375 0.0421875
1 0.51796875 0.96953125 0.0421875 0.0609375
9 0.88828125 0.8203125 0.09609375 0.09609375
9 0.6546875 0.821875 0.040625 0.05
9 0.61953125 0.77578125 0.0421875 0.06875
9 0.58671875 0.66953125 0.0359375 0.0640625
9 0.51171875 0.86953125 0.053125 0.053125
9 0.5859375 0.91875 0.05 0.065625
9 0.4515625 0.96171875 0.05 0.05
9 0.37734375 0.90546875 0.0390625 0.0609375
9 0.34140625 0.95546875 0.0359375 0.0734375
9 0.3171875 0.8078125 0.0375 0.0703125
9 0.2828125 0.8078125 0.0390625 0.0609375
9 0.2578125 0.72109375 0.07109375 0.07109375
5 0.2453125 0.95234375 0.05703125 0.05703125
5 0.09140625 0.97890625 0.0328125 0.0421875
2 0.096484375 0.848828125 0.03359375 0.04453125
2 0.183984375 0.855078125 0.0296875 0.03984375
2 0.28046875 0.855078125 0.0296875 0.03359375
2 0.098828125 0.5140625 0.0296875 0.025
2 0.127734375 0.434765625 0.02890625 0.03125
2 0.240625 0.426171875 0.0296875 0.03359375
2 0.1859375 0.42890625 0.025 0.028125
2 0.762109375 0.896875 0.22890625 0.20625