10 0.01953125 0.903125 0.0390625 0.075
10 0.09375 0.7921875 0.0828125 0.053125
10 0.040625 0.74765625 0.0796875 0.059375
10 0.03828125 0.70625 0.0546875 0.0421875
10 0.07421875 0.553125 0.06484375 0.06484375
10 0.15546875 0.59375 0.0921875 0.053125
10 0.1484375 0.5203125 0.0828125 0.0828125
10 0.084375 0.51328125 0.0328125 0.0328125
10 0.07734375 0.47265625 0.0328125 0.0234375
10 0.02734375 0.39609375 0.0546875 0.0546875
10 0.027734375 0.35 0.05546875 0.05625
10 0.23125 0.359375 0.04375 0.0265625
10 0.22109375 0.15390625 0.11875 0.078125
10 0.0625 0.0890625 0.10078125 0.10078125
10 0.0640625 0.22890625 0.115625 0.084375
0 0.212890625 0.980859375 0.06171875 0.03828125
0 0.32578125 0.8875 0.17265625 0.17265625
0 0.10234375 0.6671875 0.1015625 0.1015625
0 0.16640625 0.31328125 0.1078125 0.1078125
0 0.38671875 0.05390625 0.1296875 0.103125
0 0.61953125 0.7484375 0.0984375 0.0984375
0 0.55703125 0.71015625 0.021875 0.028125
0 0.66484375 0.50078125 0.4703125 0.103125
6 0.540625 0.9640625 0.065625 0.046875
6 0.62890625 0.84921875 0.0546875 0.04375
6 0.45078125 0.8390625 0.04296875 0.04296875
6 0.51171875 0.75390625 0.0578125 0.034375
6 0.41796875 0.6921875 0.053125 0.040625
6 0.4703125 0.6546875 0.028125 0.021875
6 0.60234375 0.64453125 0.0328125 0.021875
6 0.67578125 0.6046875 0.0390625 0.01875
6 0.46484375 0.57890625 0.04921875 0.04921875
6 0.24765625 0.54921875 0.07265625 0.07265625
6 0.409375 0.503125 0.03125 0.0265625
6 0.35 0.440625 0.05625 0.0421875
6 0.40625 0.38828125 0.05234375 0.05234375
6 0.3109375 0.3515625 0.0625 0.0265625
6 0.2859375 0.14765625 0.03046875 0.03046875
6 0.34140625 0.21640625 0.0484375 0.0375
6 0.49375 0.19140625 0.0296875 0.0296875
6 0.4953125 0.10546875 0.03671875 0.03671875
6 0.6015625 0.0609375 0.02734375 0.02734375
6 0.75703125 0.06171875 0.04375 0.0265625
6 0.6484375 0.26875 0.065625 0.046875
6 0.6484375 0.3140625 0.0578125 0.0578125
6 0.45390625 0.315625 0.0484375 0.028125
6 0.50390625 0.36171875 0.0453125 0.028125
6 0.55234375 0.42421875 0.0375 0.0203125
3 0.821875 0.946875 0.0484375 0.0390625
3 0.72421875 0.90859375 0.0515625 0.03125
3 0.83203125 0.81015625 0.07578125 0.07578125
3 0.82421875 0.7484375 0.0671875 0.04375
3 0.78125 0.640625 0.040625 0.0234375
3 0.94609375 0.63046875 0.0875 0.071875
3 0.9734375 0.67734375 0.046875 0.0859375
3 0.8375 0.56875 0.0453125 0.0265625
3 0.95546875 0.53671875 0.040625 0.0203125
3 0.890625 0.43359375 0.0421875 0.01875
3 0.9296875 0.4203125 0.04140625 0.04140625
3 0.98203125 0.384375 0.0359375 0.034375
3 0.97109375 0.3015625 0.0578125 0.071875
3 0.97578125 0.0625 0.0375 0.0359375
9 0.75625 0.3125 0.084375 0.0765625
9 0.65 0.4171875 0.078125 0.0515625
9 0.98046875 0.56484375 0.0390625 0.046875
9 0.7203125 0.64375 0.06015625 0.06015625
9 0.8765625 0.715625 0.05234375 0.05234375
9 0.9203125 0.853125 0.0609375 0.0453125
9 0.91484375 0.9578125 0.0703125 0.05625
9 0.7203125 0.77734375 0.0625 0.05
9 0.9203125 0.521875 0.0328125 0.0171875
2 0.268359375 0.720703125 0.21328125 0.1578125
2 0.083203125 0.591015625 0.1359375 0.1359375
2 0.104296875 0.987109375 0.078125 0.02578125
2 0.498046875 0.90703125 0.03828125 0.0359375
2 0.542578125 0.7953125 0.0484375 0.06875
2 0.521875 0.690234375 0.0375 0.04296875