5 0.48125 0.056640625 0.1265625 0.11328125
5 0.14375 0.11171875 0.2234375 0.096875
5 0.46328125 0.40546875 0.1609375 0.1609375
5 0.565625 0.559375 0.08125 0.08125
5 0.50078125 0.7234375 0.075 0.028125
5 0.615625 0.86640625 0.06875 0.03125
5 0.328125 0.974609375 0.0515625 0.05078125
5 0.3109375 0.76484375 0.0390625 0.0390625
5 0.26640625 0.63984375 0.05078125 0.05078125
5 0.04453125 0.5953125 0.0671875 0.0328125
5 0.28359375 0.53359375 0.0515625 0.0171875
5 0.1734375 0.47890625 0.03984375 0.03984375
5 0.0703125 0.3125 0.140625 0.0796875
8 0.62578125 0.60703125 0.040625 0.040625
8 0.7875 0.5234375 0.078125 0.034375
8 0.87890625 0.353125 0.2 0.1484375
1 0.93359375 0.16640625 0.10625 0.0578125
1 0.81015625 0.45859375 0.0796875 0.0578125
1 0.60234375 0.4453125 0.0625 0.046875
1 0.49765625 0.87578125 0.146875 0.071875
7 0.809375 0.08671875 0.07265625 0.07265625
7 0.63828125 0.10703125 0.07578125 0.07578125
7 0.4296875 0.18828125 0.1796875 0.05625
7 0.228125 0.23046875 0.075 0.075
7 0.28515625 0.33828125 0.075 0.028125
7 0.7375 0.39140625 0.0609375 0.0609375
7 0.434375 0.52265625 0.06484375 0.06484375
7 0.20234375 0.41953125 0.075 0.0296875
7 0.04296875 0.47421875 0.05625 0.05625
7 0.17109375 0.6359375 0.0828125 0.04375
7 0.04921875 0.76328125 0.0578125 0.0578125
7 0.11328125 0.825 0.065625 0.0265625
7 0.04453125 0.91953125 0.046875 0.0296875
7 0.0421875 0.98046875 0.0546875 0.0296875
10 0.1640625 0.92109375 0.05625 0.025
7 0.2546875 0.7515625 0.04296875 0.04296875
10 0.74375 0.64921875 0.1171875 0.0625
10 0.78125 0.4890625 0.05703125 0.05703125
3 0.2234375 0.18125 0.05078125 0.05078125
3 0.209375 0.27578125 0.053125 0.053125
3 0.1953125 0.32265625 0.05 0.03125
3 0.33515625 0.50546875 0.0625 0.0296875
3 0.3625 0.58359375 0.04375 0.0234375
3 0.31171875 0.71796875 0.075 0.065625
3 0.39140625 0.76484375 0.07578125 0.07578125
3 0.103125 0.959375 0.05546875 0.05546875
3 0.1125 0.88203125 0.05390625 0.05390625
3 0.05 0.70078125 0.075 0.028125
3 0.03671875 0.6390625 0.0703125 0.0703125
3 0.13515625 0.5546875 0.078125 0.078125
2 0.684765625 0.07734375 0.0484375 0.04921875
2 0.705859375 0.177734375 0.0515625 0.0515625
2 0.68046875 0.270703125 0.0828125 0.05546875
0 0.748046875 0.7515625 0.27109375 0.184375
0 0.887109375 0.78046875 0.075 0.075
0 0.9625 0.64921875 0.075 0.0890625