9 0.41875 0.35 0.0828125 0.1109375
9 0.89765625 0.56953125 0.06875 0.06875
9 0.77265625 0.4671875 0.034375 0.0421875
9 0.59765625 0.4734375 0.028125 0.0359375
9 0.5140625 0.5671875 0.0515625 0.0515625
9 0.3203125 0.765625 0.053125 0.0546875
9 0.20546875 0.72265625 0.096875 0.1203125
6 0.04921875 0.8921875 0.04296875 0.04296875
6 0.1640625 0.984375 0.03046875 0.03046875
6 0.09375 0.78203125 0.03125 0.0375
6 0.13046875 0.83671875 0.0265625 0.0375
6 0.2078125 0.875 0.0359375 0.040625
6 0.046875 0.991796875 0.0171875 0.01640625
6 0.2890625 0.9125 0.0546875 0.071875
6 0.39375 0.81328125 0.04375 0.0765625
6 0.46640625 0.8046875 0.0359375 0.0765625
6 0.50234375 0.746875 0.0578125 0.0578125
6 0.54609375 0.9796875 0.0453125 0.040625
7 0.9640625 0.9546875 0.0578125 0.05625
7 0.88359375 0.95078125 0.08671875 0.08671875
7 0.71171875 0.72109375 0.10078125 0.10078125
7 0.640625 0.784375 0.0203125 0.028125
7 0.57578125 0.89140625 0.0203125 0.0265625
7 0.5515625 0.840625 0.034375 0.0484375
7 0.42421875 0.9 0.0734375 0.0640625
7 0.5015625 0.70078125 0.034375 0.034375
7 0.12734375 0.94140625 0.03125 0.0328125
7 0.284375 0.76796875 0.03046875 0.03046875
5 0.42578125 0.75546875 0.053125 0.059375
5 0.3453125 0.528125 0.06015625 0.06015625
5 0.1375 0.73515625 0.0421875 0.0625
5 0.2 0.34140625 0.0734375 0.090625
5 0.5625 0.259375 0.06640625 0.06640625
5 0.67734375 0.38671875 0.040625 0.0796875
5 0.8265625 0.25390625 0.06875 0.06875
1 0.91796875 0.30546875 0.0578125 0.0734375
1 0.76640625 0.25234375 0.04140625 0.04140625
1 0.63984375 0.253125 0.0703125 0.0703125
1 0.47890625 0.35 0.028125 0.0515625
1 0.4484375 0.14453125 0.0515625 0.0640625
1 0.4109375 0.20390625 0.0359375 0.05625
1 0.3375 0.246875 0.01875 0.0359375
1 0.26796875 0.29140625 0.0203125 0.0390625
1 0.1875 0.13671875 0.0265625 0.0265625
1 0.11796875 0.18671875 0.021875 0.04375
1 0.21875 0.08515625 0.028125 0.028125
1 0.78125 0.01796875 0.034375 0.0359375
0 0.66953125 0.103125 0.0484375 0.1046875
0 0.28984375 0.0875 0.07734375 0.07734375
2 0.908203125 0.1546875 0.04140625 0.0515625
2 0.808984375 0.1546875 0.046875 0.040625
2 0.703125 0.15625 0.04765625 0.0484375
2 0.630859375 0.31875 0.19921875 0.2453125
2 0.9078125 0.61015625 0.0484375 0.04375
2 0.803125 0.622265625 0.04375 0.0484375
2 0.69609375 0.637890625 0.0546875 0.04296875