0 0.903125 0.58671875 0.1578125 0.121875
0 0.86640625 0.7125 0.0609375 0.065625
0 0.946875 0.684375 0.1015625 0.1015625
0 0.82578125 0.22265625 0.0671875 0.05
0 0.984375 0.0578125 0.03125 0.071875
6 0.98671875 0.765625 0.0265625 0.046875
1 0.825 0.90859375 0.0390625 0.0265625
1 0.690625 0.8515625 0.0390625 0.021875
1 0.63984375 0.94765625 0.028125 0.025
1 0.75 0.80625 0.0390625 0.0234375
1 0.9359375 0.76171875 0.0328125 0.0265625
1 0.6875 0.7171875 0.034375 0.03125
1 0.74375 0.6265625 0.075 0.0515625
1 0.671875 0.5078125 0.0625 0.0625
1 0.846875 0.365625 0.05625 0.05625
1 0.8984375 0.27734375 0.0734375 0.0390625
1 0.65625 0.2 0.10625 0.0765625
1 0.42578125 0.1390625 0.0734375 0.0515625
1 0.52734375 0.0203125 0.0828125 0.040625
1 0.49140625 0.3859375 0.0484375 0.021875
1 0.5 0.46953125 0.034375 0.0296875
1 0.50625 0.54921875 0.034375 0.025
1 0.5671875 0.71875 0.0828125 0.0546875
1 0.453125 0.6015625 0.0421875 0.034375
1 0.340625 0.515625 0.0375 0.028125
1 0.3515625 0.77421875 0.11875 0.0875
0 0.84375 0.45546875 0.0703125 0.0453125
3 0.64296875 0.05078125 0.05 0.034375
3 0.3796875 0.18125 0.0484375 0.046875
3 0.43046875 0.3 0.0515625 0.0515625
3 0.565625 0.4328125 0.075 0.0546875
3 0.284375 0.471875 0.059375 0.05
3 0.51328125 0.63984375 0.05 0.0359375
3 0.815625 0.80390625 0.0546875 0.0515625
3 0.2484375 0.76875 0.053125 0.04375
3 0.40859375 0.8828125 0.0609375 0.0578125
7 0.16171875 0.97109375 0.034375 0.021875
7 0.0921875 0.77265625 0.1296875 0.1328125
7 0.0171875 0.6140625 0.028125 0.0375
5 0.29296875 0.55546875 0.0453125 0.0390625
5 0.33515625 0.39296875 0.0453125 0.0328125
5 0.196875 0.1140625 0.0796875 0.0546875
5 0.06171875 0.3109375 0.1203125 0.1140625
5 0.02578125 0.03125 0.0515625 0.05625
2 0.529296875 0.0859375 0.052734375 0.052734375
2 0.5390625 0.214453125 0.041015625 0.07109375
2 0.5453125 0.340234375 0.059765625 0.049609375