8 0.58515625 0.73125 0.0703125 0.0375
8 0.846875 0.66015625 0.0828125 0.0375
8 0.4765625 0.6015625 0.0796875 0.0296875
8 0.53515625 0.5125 0.059375 0.028125
8 0.86171875 0.440625 0.0609375 0.03125
8 0.55625 0.4078125 0.046875 0.03125
8 0.66171875 0.3625 0.0640625 0.0140625
8 0.6609375 0.24765625 0.0734375 0.0234375
8 0.60078125 0.2234375 0.0625 0.028125
8 0.9765625 0.13828125 0.046875 0.025
10 0.6828125 0.8953125 0.0625 0.053125
10 0.75390625 0.69296875 0.05625 0.028125
10 0.9171875 0.48359375 0.15 0.1203125
10 0.9828125 0.6265625 0.034375 0.0421875
0 0.5640625 0.659375 0.0796875 0.0359375
0 0.65703125 0.50703125 0.09375 0.0609375
0 0.61796875 0.40234375 0.075 0.0578125
0 0.6328125 0.12109375 0.25 0.1609375
0 0.890625 0.01640625 0.065625 0.0296875
0 0.425 0.31171875 0.0640625 0.0265625
0 0.23828125 0.22109375 0.075 0.0203125
0 0.28671875 0.43671875 0.1859375 0.0703125
1 0.05390625 0.08125 0.1078125 0.05625
1 0.85 0.0984375 0.1390625 0.0578125
1 0.86796875 0.20703125 0.1078125 0.040625
1 0.7578125 0.2953125 0.08125 0.0328125
1 0.86171875 0.37734375 0.0921875 0.0328125
1 0.4125 0.26171875 0.059375 0.028125
1 0.290625 0.16796875 0.125 0.0546875
1 0.08203125 0.25546875 0.1453125 0.05
1 0.13671875 0.33125 0.128125 0.05
1 0.45078125 0.43203125 0.0796875 0.04375
1 0.1046875 0.42109375 0.0703125 0.0328125
1 0.021875 0.4859375 0.04375 0.034375
1 0.13828125 0.5328125 0.1171875 0.04375
1 0.3109375 0.60625 0.059375 0.028125
1 0.0828125 0.67265625 0.165625 0.1046875
1 0.109375 0.77265625 0.06875 0.028125
1 0.3 0.846875 0.29375 0.1125
1 0.2125 0.98125 0.0953125 0.0375
1 0.721875 0.53984375 0.078125 0.0296875
1 0.5828125 0.4390625 0.065625 0.0328125
1 0.7640625 0.63515625 0.0546875 0.01875
1 0.9828125 0.57890625 0.034375 0.0171875
1 0.98046875 0.7265625 0.0390625 0.021875
2 0.736328125 0.36875 0.421875 0.197265625
0 0.783203125 0.89765625 0.299609375 0.15625