1 0.869921875 0.323046875 0.094140625 0.140234375
1 0.8890625 0.496484375 0.080078125 0.067578125
1 0.803515625 0.421875 0.16953125 0.14296875
1 0.237109375 0.646484375 0.072265625 0.08515625
3 0.31796875 0.3296875 0.0515625 0.046875
9 0.42109375 0.412890625 0.05234375 0.063671875
9 0.4890625 0.525 0.056640625 0.076953125
1 0.836328125 0.061328125 0.094140625 0.092578125
10 0.917578125 0.764453125 0.0671875 0.069921875
9 0.620703125 0.675390625 0.09765625 0.080859375
2 0.05703125 0.216796875 0.041796875 0.041796875
1 0.3515625 0.56328125 0.053515625 0.069921875
3 0.420703125 0.6171875 0.041796875 0.035546875
3 0.49609375 0.74453125 0.051171875 0.036328125
3 0.52109375 0.57578125 0.042578125 0.04765625
1 0.328125 0.75546875 0.040625 0.035546875
3 0.38046875 0.3875 0.03671875 0.032421875
1 0.758203125 0.183203125 0.152734375 0.133203125
3 0.386328125 0.528515625 0.037109375 0.03515625
3 0.47890625 0.464453125 0.042578125 0.041015625
5 0.144921875 0.23515625 0.052734375 0.04765625
6 0.226953125 0.49765625 0.041796875 0.0453125
6 0.26171875 0.405078125 0.041796875 0.045703125
1 0.18046875 0.744921875 0.0609375 0.0515625
10 0.916796875 0.699609375 0.0359375 0.031640625
5 0.191796875 0.665625 0.041796875 0.0375
1 0.07890625 0.278515625 0.042578125 0.0796875
9 0.543359375 0.48359375 0.090625 0.07578125
2 0.24453125 0.352734375 0.0375 0.03515625
9 0.6359375 0.541015625 0.04609375 0.03828125
2 0.83828125 0.227734375 0.033984375 0.036328125
6 0.276171875 0.241796875 0.04921875 0.028125
9 0.601171875 0.59296875 0.081640625 0.07421875
1 0.771875 0.7375 0.069140625 0.0734375
6 0.17578125 0.56953125 0.03671875 0.033984375
2 0.69453125 0.447265625 0.028125 0.030859375
2 0.310546875 0.4296875 0.03046875 0.031640625
6 0.296875 0.284765625 0.04375 0.037109375
1 0.060546875 0.61875 0.02578125 0.021484375
3 0.298828125 0.57265625 0.018359375 0.016015625
1 0.73984375 0.597265625 0.085546875 0.053515625
3 0.41640625 0.7078125 0.019921875 0.019140625
6 0.2015625 0.56796875 0.03125 0.0296875
9 0.462890625 0.354296875 0.080078125 0.065625
6 0.985546875 0.70546875 0.0265625 0.0265625
1 0.065625 0.1390625 0.10546875 0.080859375
6 0.211328125 0.717578125 0.03125 0.023828125
2 0.19765625 0.2671875 0.034765625 0.037109375
6 0.327734375 0.48046875 0.023046875 0.019921875
6 0.20859375 0.444921875 0.049609375 0.053515625
5 0.178125 0.46953125 0.05390625 0.04921875
2 0.52421875 0.3875 0.026953125 0.02734375
6 0.18828125 0.3484375 0.044921875 0.030859375
1 0.754296875 0.496875 0.019140625 0.01875
6 0.93359375 0.632421875 0.03671875 0.03515625
5 0.1765625 0.51484375 0.02578125 0.0328125
6 0.13046875 0.79765625 0.027734375 0.019140625
3 0.373828125 0.7796875 0.020703125 0.019140625
5 0.1421875 0.285546875 0.03984375 0.04453125
2 0.95 0.25390625 0.04375 0.0453125
5 0.19921875 0.18046875 0.03203125 0.037890625
1 0.601953125 0.494921875 0.037890625 0.03828125
6 0.2703125 0.305859375 0.029296875 0.0234375
6 0.29375 0.642578125 0.03046875 0.0234375
9 0.5265625 0.309765625 0.057421875 0.043359375
3 0.33125 0.690625 0.01875 0.019140625
1 0.85546875 0.787109375 0.01953125 0.01796875
1 0.78359375 0.796484375 0.0234375 0.016796875
1 0.79453125 0.64609375 0.031640625 0.0359375
1 0.96015625 0.51875 0.047265625 0.04296875
5 0.03828125 0.544921875 0.052734375 0.0609375
6 0.208203125 0.7640625 0.030078125 0.021875
3 0.25546875 0.52265625 0.016015625 0.015625
2 0.69140625 0.387109375 0.030078125 0.0296875
6 0.220703125 0.59296875 0.02109375 0.0171875
10 0.890625 0.62890625 0.04140625 0.02578125
1 0.67109375 0.324609375 0.036328125 0.021875
1 0.742578125 0.76328125 0.055078125 0.057421875
1 0.553515625 0.6203125 0.016796875 0.016015625
1 0.040234375 0.473828125 0.06796875 0.04375
6 0.9890625 0.3296875 0.021875 0.0625
6 0.991015625 0.584765625 0.016796875 0.02734375
6 0.9875 0.3640625 0.025 0.034375
10 0.976171875 0.459375 0.04765625 0.1640625
1 0.011328125 0.53359375 0.02265625 0.03046875
6 0.898046875 0.791015625 0.01953125 0.017578125
1 0.683203125 0.521484375 0.043359375 0.03125
5 0.005078125 0.315234375 0.01015625 0.032421875
1 0.648828125 0.377734375 0.024609375 0.033984375
5 0.144921875 0.2015625 0.062109375 0.035546875
5 0.071484375 0.39140625 0.0421875 0.05546875
5 0.0953125 0.416796875 0.0265625 0.050390625
5 0.079296875 0.541796875 0.050390625 0.048828125
1 0.091796875 0.461328125 0.040234375 0.0609375
1 0.056640625 0.4421875 0.112890625 0.1546875
1 0.640625 0.699609375 0.012109375 0.012109375
1 0.61953125 0.6390625 0.0125 0.013671875
1 0.669921875 0.41484375 0.04140625 0.03125
1 0.766796875 0.255859375 0.0421875 0.033203125
6 0.942578125 0.744921875 0.018359375 0.026171875
10 0.877734375 0.61328125 0.018359375 0.0234375
1 0.594140625 0.55859375 0.013671875 0.019921875
9 0.4640625 0.574609375 0.011328125 0.012109375
9 0.46015625 0.63828125 0.020703125 0.012109375
9 0.478515625 0.68203125 0.020703125 0.0171875