3 0.115625 0.671875 0.0703125 0.0703125
3 0.202734375 0.38984375 0.09765625 0.05
6 0.2046875 0.49375 0.090625 0.05625
3 0.0625 0.399609375 0.1140625 0.06328125
10 0.4359375 0.474609375 0.06875 0.03984375
7 0.939453125 0.628515625 0.07109375 0.05546875
5 0.770703125 0.465625 0.059375 0.034375
6 0.293359375 0.412890625 0.11015625 0.0484375
6 0.8375 0.324609375 0.0515625 0.0515625
5 0.927734375 0.480859375 0.075 0.075
3 0.19453125 0.3359375 0.065625 0.04375
1 0.18984375 0.4515625 0.071875 0.071875
6 0.394921875 0.328515625 0.06015625 0.04921875
3 0.02421875 0.451171875 0.0484375 0.0625
3 0.14921875 0.546875 0.07421875 0.07421875
9 0.894140625 0.36875 0.14921875 0.071875
6 0.457421875 0.313671875 0.0765625 0.0765625
10 0.429296875 0.3828125 0.10703125 0.04375
9 0.898828125 0.43515625 0.06484375 0.0390625
7 0.63515625 0.831640625 0.034375 0.02109375
6 0.052734375 0.62265625 0.10078125 0.05
7 0.973046875 0.41015625 0.05 0.028125
7 0.709375 0.801953125 0.0390625 0.02265625
2 0.94921875 0.313671875 0.0390625 0.03984375
3 0.309765625 0.238671875 0.12109375 0.06328125
7 0.88984375 0.827734375 0.03359375 0.03359375
10 0.366015625 0.447265625 0.04765625 0.03125
8 0.138671875 0.28359375 0.08203125 0.04375
6 0.019921875 0.769921875 0.03984375 0.02734375
5 0.66953125 0.217578125 0.1 0.040625
10 0.283984375 0.74453125 0.03046875 0.0203125
8 0.14609375 0.1078125 0.178125 0.0984375
10 0.25390625 0.641015625 0.04375 0.03203125
7 0.983984375 0.510546875 0.03203125 0.03203125
0 0.023828125 0.112109375 0.04609375 0.10390625
7 0.842578125 0.696484375 0.0328125 0.0328125
10 0.512109375 0.814453125 0.02578125 0.01640625
8 0.015625 0.02109375 0.02890625 0.02890625
7 0.87265625 0.7625 0.046875 0.021875
7 0.925 0.5375 0.05 0.0296875
10 0.356640625 0.545703125 0.04765625 0.03125
7 0.616796875 0.664453125 0.0609375 0.0609375
5 0.48125 0.68046875 0.0328125 0.0234375
10 0.48828125 0.59296875 0.046875 0.0234375
10 0.6703125 0.605859375 0.05625 0.02734375
10 0.4703125 0.648828125 0.040625 0.02421875
1 0.75859375 0.216015625 0.04296875 0.04296875
1 0.34765625 0.3734375 0.0390625 0.0328125
5 0.465234375 0.526953125 0.04921875 0.03203125
9 0.794140625 0.6015625 0.16640625 0.096875
9 0.75234375 0.534375 0.134375 0.0921875
9 0.980078125 0.555078125 0.03984375 0.05390625
9 0.657421875 0.68828125 0.121875 0.121875
1 0.35078125 0.813671875 0.13125 0.13125
1 0.239453125 0.767578125 0.14765625 0.14765625
1 0.78828125 0.0859375 0.321875 0.171875
1 0.669140625 0.049609375 0.06953125 0.0546875
2 0.08203125 0.076953125 0.0765625 0.05234375
2 0.164453125 0.20625 0.09296875 0.040625
2 0.7328125 0.15234375 0.0578125 0.03125
2 0.700390625 0.27265625 0.04765625 0.04765625
2 0.53828125 0.2890625 0.0390625 0.03125
2 0.977734375 0.23515625 0.04453125 0.0203125
5 0.719921875 0.444140625 0.05546875 0.06796875
5 0.6875 0.5046875 0.0421875 0.034375
5 0.62265625 0.55078125 0.0375 0.0265625
8 0.101953125 0.251171875 0.0484375 0.0484375
7 0.85546875 0.649609375 0.07578125 0.07578125