6 0.167578125 0.249609375 0.08671875 0.09765625
3 0.198046875 0.54140625 0.07109375 0.0953125
3 0.315234375 0.726171875 0.07109375 0.11015625
8 0.065625 0.7484375 0.128125 0.2109375
5 0.2375 0.64765625 0.11875 0.1296875
6 0.769140625 0.285546875 0.06796875 0.13984375
1 0.457421875 0.956640625 0.0515625 0.08671875
6 0.24921875 0.066796875 0.1015625 0.1171875
0 0.23359375 0.34765625 0.109375 0.090625
6 0.622265625 0.2671875 0.0703125 0.0703125
0 0.3734375 0.675 0.09375 0.09375
6 0.6171875 0.883984375 0.08828125 0.08828125
5 0.1359375 0.1390625 0.04375 0.0609375
5 0.527734375 0.31953125 0.07421875 0.07421875
5 0.158984375 0.063671875 0.06484375 0.08203125
3 0.08828125 0.596875 0.08046875 0.08046875
8 0.035546875 0.9671875 0.07109375 0.065625
5 0.208203125 0.157421875 0.09140625 0.10234375
3 0.183203125 0.449609375 0.04609375 0.06328125
5 0.057421875 0.10859375 0.05234375 0.0765625
3 0.45546875 0.49765625 0.0671875 0.103125
10 0.7234375 0.33359375 0.0421875 0.0640625
3 0.60078125 0.1953125 0.0296875 0.053125
5 0.284765625 0.426953125 0.04609375 0.05703125
5 0.654296875 0.083203125 0.02890625 0.05078125
5 0.65625 0.203515625 0.0265625 0.04453125
5 0.69609375 0.2265625 0.0265625 0.053125
5 0.575390625 0.20546875 0.02421875 0.0453125
5 0.736328125 0.6703125 0.05078125 0.0515625
5 0.748046875 0.72890625 0.0484375 0.078125
6 0.262890625 0.246484375 0.04609375 0.06875
5 0.055859375 0.271875 0.07734375 0.1046875
3 0.619140625 0.13984375 0.02734375 0.046875
10 0.53125 0.060546875 0.028125 0.05078125
5 0.3078125 0.14921875 0.0453125 0.0859375
10 0.32265625 0.105078125 0.0234375 0.05234375
3 0.787109375 0.06171875 0.01953125 0.0390625
7 0.676953125 0.1578125 0.02734375 0.0375
3 0.770703125 0.18984375 0.025 0.02421875
0 0.68984375 0.390625 0.08125 0.08125
10 0.626171875 0.415234375 0.03671875 0.03671875
5 0.41328125 0.943359375 0.05 0.0796875
7 0.5546875 0.1359375 0.05625 0.05625
5 0.026171875 0.19609375 0.05234375 0.1671875
10 0.5140625 0.022265625 0.0328125 0.04453125
6 0.793359375 0.184765625 0.03203125 0.03203125
10 0.775 0.129296875 0.05 0.07890625
6 0.3875 0.152734375 0.1125 0.1125
8 0.262890625 0.8765625 0.25234375 0.246875
8 0.34765625 0.347265625 0.1375 0.13515625
5 0.348828125 0.527734375 0.10546875 0.1890625
0 0.061328125 0.44375 0.12265625 0.1359375
0 0.07734375 0.49921875 0.1546875 0.36875
6 0.36796875 0.084375 0.034375 0.0578125
6 0.530078125 0.83046875 0.04765625 0.0828125
6 0.566796875 0.875 0.04140625 0.1125
0 0.461328125 0.6609375 0.10390625 0.18125
8 0.4828125 0.80546875 0.059375 0.103125
5 0.45546875 0.86953125 0.0625 0.0828125
5 0.586328125 0.67578125 0.04453125 0.0625
6 0.582421875 0.033203125 0.01796875 0.0296875
6 0.558203125 0.042578125 0.01953125 0.03359375
10 0.466015625 0.26484375 0.12578125 0.12578125
10 0.54375 0.2109375 0.059375 0.1
9 0.3265625 0.0453125 0.0515625 0.0515625
9 0.73828125 0.021484375 0.0859375 0.04296875
5 0.497265625 0.1359375 0.04140625 0.0578125