6 0.31171875 0.455859375 0.0703125 0.06875
6 0.24375 0.875 0.073046875 0.068359375
8 0.371484375 0.683984375 0.092578125 0.090234375
8 0.729296875 0.150390625 0.101953125 0.135546875
3 0.33671875 0.3375 0.109375 0.084765625
3 0.18046875 0.457421875 0.08828125 0.09453125
9 0.6328125 0.352734375 0.0453125 0.058203125
3 0.1375 0.854296875 0.07109375 0.080078125
8 0.783203125 0.33515625 0.09140625 0.119921875
8 0.748046875 0.633984375 0.073046875 0.076171875
5 0.95859375 0.72578125 0.0484375 0.050390625
9 0.58046875 0.40390625 0.087890625 0.1015625
8 0.662109375 0.53125 0.17421875 0.183984375
5 0.95625 0.66484375 0.0453125 0.046875
6 0.41953125 0.578515625 0.0796875 0.063671875
6 0.2828125 0.2765625 0.06015625 0.0421875
3 0.478125 0.21640625 0.072265625 0.093359375
3 0.087109375 0.513671875 0.0515625 0.05390625
8 0.80546875 0.40078125 0.0828125 0.101171875
3 0.31015625 0.391796875 0.046875 0.0375
8 0.359765625 0.864453125 0.044921875 0.0421875
3 0.39453125 0.315625 0.04921875 0.044921875
1 0.85546875 0.637890625 0.0390625 0.04609375
6 0.305859375 0.50859375 0.031640625 0.028515625
6 0.298828125 0.726953125 0.03984375 0.043359375
6 0.32421875 0.771875 0.044140625 0.04453125
9 0.4765625 0.4828125 0.075 0.0796875
5 0.966796875 0.81796875 0.0453125 0.0515625
3 0.432421875 0.491015625 0.046484375 0.042578125
1 0.80234375 0.844140625 0.04375 0.040234375
1 0.876171875 0.386328125 0.065625 0.079296875
8 0.77890625 0.524609375 0.0859375 0.11796875
6 0.23203125 0.355859375 0.05234375 0.024609375
6 0.378515625 0.574609375 0.049609375 0.037109375
0 0.933203125 0.368359375 0.062109375 0.069921875
8 0.846484375 0.465234375 0.027734375 0.033984375
2 0.509765625 0.39765625 0.03515625 0.03515625
3 0.173046875 0.723828125 0.045703125 0.04375
10 0.819140625 0.647265625 0.025390625 0.0484375
1 0.059765625 0.344140625 0.1125 0.075390625
0 0.89296875 0.76875 0.11953125 0.16953125
2 0.575390625 0.24921875 0.037890625 0.038671875
9 0.566796875 0.663671875 0.073828125 0.076953125
10 0.673046875 0.81640625 0.019140625 0.024609375
0 0.951953125 0.5828125 0.016796875 0.027734375
2 0.68828125 0.335546875 0.03046875 0.032421875
3 0.131640625 0.6953125 0.052734375 0.040234375
1 0.925 0.500390625 0.03203125 0.026171875
10 0.901171875 0.642578125 0.025390625 0.028515625
3 0.099609375 0.646484375 0.11171875 0.128515625
1 0.811328125 0.69375 0.029296875 0.05234375
9 0.6390625 0.186328125 0.116796875 0.1
9 0.06484375 0.71875 0.045703125 0.037890625
0 0.956640625 0.428125 0.01953125 0.02421875
9 0.03125 0.80234375 0.02578125 0.022265625
10 0.89921875 0.471875 0.037109375 0.03671875
10 0.989453125 0.550390625 0.02109375 0.02421875
0 0.96015625 0.545703125 0.017578125 0.01953125
9 0.55234375 0.561328125 0.042578125 0.04921875
1 0.94296875 0.463671875 0.02265625 0.02734375
10 0.74296875 0.709375 0.019921875 0.01796875
2 0.49140625 0.3234375 0.040234375 0.037890625
8 0.826953125 0.484765625 0.0265625 0.025
9 0.576171875 0.851171875 0.0359375 0.033203125
9 0.51328125 0.607421875 0.08671875 0.088671875
10 0.85859375 0.6859375 0.019921875 0.023046875
9 0.665234375 0.71484375 0.044921875 0.078125
9 0.4609375 0.7078125 0.05703125 0.04765625
3 0.244140625 0.694921875 0.027734375 0.027734375
9 0.063671875 0.476171875 0.031640625 0.0265625
9 0.02578125 0.519140625 0.033203125 0.035546875
9 0.033203125 0.555078125 0.052734375 0.04375
2 0.746875 0.259375 0.025 0.037109375
2 0.256640625 0.384765625 0.031640625 0.029296875
2 0.0828125 0.16015625 0.035546875 0.044921875
1 0.079296875 0.180078125 0.158203125 0.271484375
1 0.08125 0.078515625 0.0515625 0.035546875
8 0.648046875 0.561328125 0.05546875 0.0515625
8 0.614453125 0.541015625 0.03828125 0.03984375
0 0.843359375 0.536328125 0.033984375 0.03671875
0 0.8515625 0.56640625 0.042578125 0.04609375
0 0.977734375 0.465625 0.021484375 0.041796875
0 0.9515625 0.4109375 0.034765625 0.050390625
2 0.925 0.412890625 0.019140625 0.02421875
1 0.937890625 0.448046875 0.019921875 0.009375
1 0.9359375 0.519140625 0.03515625 0.0234375
10 0.906640625 0.526171875 0.020703125 0.0171875
10 0.891015625 0.55 0.028125 0.02578125
1 0.872265625 0.45703125 0.021484375 0.019921875
1 0.8875 0.45234375 0.015234375 0.01640625
2 0.894140625 0.579296875 0.01875 0.023046875
1 0.92734375 0.627734375 0.017578125 0.034375
1 0.933984375 0.599609375 0.015234375 0.015625
10 0.889453125 0.792578125 0.009375 0.00703125
10 0.848828125 0.818359375 0.006640625 0.009375
10 0.747265625 0.690234375 0.019921875 0.01640625
9 0.67578125 0.45390625 0.01484375 0.023828125