0 0.711328125 0.1578125 0.12890625 0.1296875
7 0.406640625 0.337109375 0.09375 0.09375
8 0.864453125 0.1953125 0.09453125 0.09453125
0 0.732421875 0.6828125 0.0890625 0.0875
1 0.07109375 0.803125 0.06875 0.0671875
6 0.532421875 0.40078125 0.05546875 0.05546875
3 0.808203125 0.578125 0.07578125 0.053125
8 0.773046875 0.491015625 0.103125 0.103125
8 0.85546875 0.434765625 0.0859375 0.10234375
8 0.26484375 0.14921875 0.059375 0.0546875
0 0.603125 0.870703125 0.153125 0.10546875
8 0.25546875 0.36484375 0.0640625 0.0640625
7 0.359765625 0.3921875 0.09140625 0.0640625
0 0.719140625 0.385546875 0.0921875 0.11953125
6 0.673828125 0.481640625 0.08828125 0.04296875
6 0.75625 0.8296875 0.059375 0.059375
1 0.138671875 0.8421875 0.06875 0.06875
1 0.078125 0.590625 0.0453125 0.065625
6 0.108984375 0.544140625 0.0484375 0.03671875
8 0.9578125 0.251953125 0.084375 0.08984375
3 0.925 0.490234375 0.0484375 0.059375
6 0.714453125 0.751171875 0.05234375 0.03203125
7 0.21328125 0.484375 0.04609375 0.04609375
8 0.95625 0.37734375 0.0546875 0.0546875
3 0.842578125 0.751171875 0.0734375 0.06328125
3 0.799609375 0.8484375 0.0296875 0.0296875
3 0.9015625 0.537890625 0.0515625 0.05078125
7 0.555859375 0.63671875 0.06015625 0.0546875
8 0.984765625 0.566015625 0.03046875 0.04609375
3 0.96328125 0.610546875 0.0453125 0.04375
2 0.2875 0.200390625 0.0328125 0.03125
3 0.980859375 0.474609375 0.03828125 0.04140625
0 0.301171875 0.624609375 0.1046875 0.12109375
6 0.02890625 0.46328125 0.0421875 0.0421875
3 0.9484375 0.71640625 0.040625 0.0453125
6 0.163671875 0.608984375 0.03359375 0.02421875
7 0.5859375 0.487890625 0.034375 0.03046875
1 0.300390625 0.366015625 0.03671875 0.040625
7 0.672265625 0.71875 0.02578125 0.021875
6 0.033203125 0.859375 0.0328125 0.0328125
6 0.103515625 0.8984375 0.04609375 0.0234375
7 0.156640625 0.909765625 0.04765625 0.03359375
6 0.682421875 0.859375 0.021875 0.0203125
7 0.540234375 0.54609375 0.03515625 0.0296875
8 0.009765625 0.530078125 0.01953125 0.07421875
8 0.301953125 0.266015625 0.01796875 0.02265625
2 0.96796875 0.321484375 0.0390625 0.04296875
7 0.5109375 0.752734375 0.0265625 0.025
6 0.863671875 0.81953125 0.0265625 0.0234375
6 0.050390625 0.675 0.05546875 0.0328125
7 0.500390625 0.8390625 0.03203125 0.028125
7 0.440625 0.557421875 0.0375 0.0453125
8 0.673828125 0.657421875 0.03828125 0.04140625
1 0.238671875 0.590234375 0.02421875 0.01953125
6 0.618359375 0.4234375 0.06484375 0.0640625
3 0.982421875 0.428515625 0.03515625 0.03671875
1 0.304296875 0.312890625 0.03828125 0.0390625
0 0.8515625 0.29921875 0.1359375 0.1640625
1 0.1296875 0.653125 0.01875 0.0171875
1 0.158984375 0.667578125 0.0359375 0.03359375
1 0.346484375 0.564453125 0.02109375 0.01796875
7 0.601953125 0.8203125 0.0171875 0.0171875
6 0.9203125 0.676171875 0.05625 0.03828125
6 0.673046875 0.540234375 0.075 0.075
0 0.46484375 0.665234375 0.10859375 0.1078125
8 0.108203125 0.28046875 0.11015625 0.196875
2 0.74375 0.29140625 0.0421875 0.0421875
6 0.010546875 0.61015625 0.01953125 0.0375
0 0.384375 0.641796875 0.1234375 0.1234375
3 0.015625 0.421484375 0.03125 0.03828125
3 0.846484375 0.68984375 0.04140625 0.0421875
6 0.056640625 0.51796875 0.04609375 0.025
8 0.677734375 0.784765625 0.021875 0.02578125
0 0.7390625 0.448828125 0.0203125 0.021875
6 0.62109375 0.76953125 0.021875 0.02265625
7 0.533203125 0.704296875 0.02265625 0.02265625
0 0.310546875 0.81640625 0.025 0.021875
10 0.018359375 0.321484375 0.03515625 0.03125
1 0.976953125 0.528125 0.0421875 0.040625
3 0.02890625 0.65625 0.02890625 0.02890625
7 0.1375 0.499609375 0.01796875 0.01796875
6 0.905859375 0.796875 0.025 0.02421875
6 0.005078125 0.76796875 0.01015625 0.028125
2 0.25703125 0.422265625 0.0390625 0.0390625
3 0.00546875 0.362109375 0.0109375 0.01484375
2 0.2734375 0.491796875 0.0375 0.03515625
6 0.646875 0.644140625 0.040625 0.04140625
8 0.171875 0.456640625 0.0203125 0.01953125
1 0.97265625 0.7921875 0.0421875 0.0453125
6 0.09765625 0.412890625 0.046875 0.0375
7 0.218359375 0.520703125 0.040625 0.03046875
8 0.01171875 0.70078125 0.0234375 0.065625
1 0.076953125 0.495703125 0.065625 0.04140625
7 0.6453125 0.702734375 0.021875 0.01796875
7 0.579296875 0.57421875 0.02890625 0.02890625
8 0.199609375 0.279296875 0.10859375 0.190625
6 0.755859375 0.61953125 0.05859375 0.0578125
1 0.240234375 0.644140625 0.0625 0.0625
1 0.171875 0.406640625 0.0421875 0.04375
1 0.153515625 0.39140625 0.03203125 0.0421875
8 0.8796875 0.588671875 0.06484375 0.065625
7 0.122265625 0.7375 0.10234375 0.096875
7 0.1859375 0.83515625 0.04375 0.0390625
7 0.271875 0.67578125 0.034375 0.0359375
3 0.25078125 0.203125 0.0375 0.0375
3 0.2625 0.2375 0.025 0.028125
2 0.2703125 0.2703125 0.0203125 0.025
2 0.799609375 0.1890625 0.0328125 0.0328125
2 0.933984375 0.22890625 0.034375 0.0390625
2 0.7984375 0.384765625 0.0203125 0.03984375
8 0.877734375 0.679296875 0.025 0.03515625
0 0.69375 0.61171875 0.0203125 0.0296875
7 0.630859375 0.747265625 0.015625 0.015625
8 0.764453125 0.56015625 0.0421875 0.0421875
7 0.562109375 0.44453125 0.04453125 0.03125
7 0.348046875 0.429296875 0.02109375 0.01953125