3 0.865625 0.3796875 0.15 0.0640625
3 0.683203125 0.67265625 0.11328125 0.0640625
3 0.7390625 0.619921875 0.1 0.05859375
3 0.545703125 0.691015625 0.096875 0.0546875
6 0.883203125 0.76171875 0.19765625 0.1296875
10 0.3109375 0.608203125 0.0703125 0.03828125
3 0.844140625 0.4421875 0.0828125 0.05625
6 0.789453125 0.296484375 0.046875 0.046875
5 0.77578125 0.46015625 0.0578125 0.0578125
6 0.631640625 0.94296875 0.14296875 0.1140625
6 0.805859375 0.6796875 0.07265625 0.05
3 0.94609375 0.265234375 0.059375 0.03046875
6 0.292578125 0.780078125 0.08671875 0.06640625
5 0.166015625 0.752734375 0.07265625 0.05078125
3 0.557421875 0.743359375 0.05546875 0.05546875
6 0.45 0.664453125 0.1078125 0.05
7 0.044921875 0.82890625 0.04921875 0.0484375
6 0.63359375 0.8046875 0.096875 0.096875
8 0.358203125 0.7609375 0.0609375 0.0609375
6 0.987890625 0.29375 0.02421875 0.0421875
3 0.898828125 0.6171875 0.08359375 0.0625
5 0.0765625 0.8921875 0.0890625 0.04375
9 0.01953125 0.55390625 0.0359375 0.0625
7 0.017578125 0.283203125 0.03046875 0.0296875
3 0.455078125 0.85 0.12578125 0.065625
6 0.69296875 0.32109375 0.0546875 0.021875
7 0.090625 0.255078125 0.0265625 0.0265625
10 0.383203125 0.63515625 0.0390625 0.03984375
10 0.216015625 0.271484375 0.02890625 0.021875
10 0.442578125 0.343359375 0.02734375 0.02734375
10 0.323046875 0.70078125 0.1 0.0453125
6 0.965234375 0.708984375 0.06484375 0.09140625
5 0.073046875 0.575 0.09453125 0.05625
10 0.24921875 0.494140625 0.046875 0.028125
5 0.214453125 0.805859375 0.05859375 0.03515625
10 0.06171875 0.484375 0.0546875 0.025
10 0.38359375 0.535546875 0.03984375 0.03984375
7 0.117578125 0.420703125 0.0828125 0.034375
10 0.219140625 0.39765625 0.03984375 0.0265625
3 0.60703125 0.536328125 0.04375 0.04296875
7 0.032421875 0.64609375 0.0609375 0.0828125
5 0.083984375 0.628515625 0.05390625 0.03359375