10 0.555859375 0.483203125 0.11875 0.112109375
0 0.837109375 0.27734375 0.12890625 0.130859375
10 0.433984375 0.6796875 0.055078125 0.05
0 0.884375 0.49921875 0.064453125 0.067578125
10 0.5578125 0.1875 0.12421875 0.13984375
0 0.832421875 0.1125 0.120703125 0.1
5 0.42578125 0.425390625 0.06796875 0.055859375
5 0.5234375 0.562109375 0.04765625 0.055078125
10 0.665234375 0.53515625 0.113671875 0.11015625
10 0.479296875 0.319921875 0.062890625 0.055859375
7 0.324609375 0.59140625 0.1 0.069140625
6 0.094140625 0.51015625 0.065625 0.0625
6 0.326171875 0.712109375 0.05625 0.0625
10 0.553125 0.869140625 0.177734375 0.187109375
7 0.2796875 0.694140625 0.033203125 0.03359375
2 0.88046875 0.183203125 0.04921875 0.0484375
5 0.401953125 0.480078125 0.04609375 0.047265625
7 0.205078125 0.44375 0.05390625 0.064453125
2 0.78515625 0.35703125 0.033984375 0.033984375
0 0.728515625 0.64765625 0.0546875 0.05078125
5 0.615625 0.67890625 0.036328125 0.0390625
1 0.343359375 0.4453125 0.0421875 0.04375
2 0.36875 0.199609375 0.040234375 0.0421875
2 0.40703125 0.324609375 0.03515625 0.039453125
0 0.843359375 0.55234375 0.040625 0.04375
6 0.366015625 0.7640625 0.080078125 0.05
2 0.49765625 0.26328125 0.0421875 0.0421875
1 0.444921875 0.533203125 0.055859375 0.132421875
1 0.953125 0.85078125 0.0734375 0.067578125
5 0.46171875 0.61640625 0.038671875 0.035546875
6 0.09921875 0.3 0.077734375 0.065625
0 0.6046875 0.906640625 0.0578125 0.0796875
5 0.566015625 0.657421875 0.0359375 0.036328125
6 0.029296875 0.401171875 0.058203125 0.120703125
0 0.874609375 0.369921875 0.064453125 0.058203125
10 0.375 0.849609375 0.0390625 0.036328125
7 0.2578125 0.314453125 0.052734375 0.0515625
0 0.042578125 0.824609375 0.04921875 0.0546875
2 0.732421875 0.262890625 0.041015625 0.04296875
10 0.522265625 0.357421875 0.04453125 0.040625
2 0.2578125 0.440234375 0.03359375 0.035546875
1 0.2234375 0.6234375 0.065234375 0.066796875
7 0.5359375 0.721484375 0.05390625 0.0546875
0 0.082421875 0.87421875 0.06484375 0.064453125
2 0.042578125 0.479296875 0.033203125 0.033203125
5 0.79765625 0.64765625 0.03984375 0.03671875
2 0.2984375 0.362890625 0.034375 0.03515625
6 0.121484375 0.561328125 0.071484375 0.051953125
1 0.3328125 0.49765625 0.11015625 0.114453125
2 0.08671875 0.378515625 0.03046875 0.03828125
1 0.848828125 0.679296875 0.05078125 0.044140625
5 0.790234375 0.82265625 0.02734375 0.023828125
0 0.726171875 0.365625 0.036328125 0.0390625
5 0.47890625 0.648046875 0.021484375 0.0171875
7 0.212890625 0.71171875 0.036328125 0.025
1 0.84296875 0.958984375 0.039453125 0.048046875
7 0.36796875 0.62890625 0.028125 0.030078125
6 0.44609375 0.824609375 0.0234375 0.0203125
6 0.201953125 0.68046875 0.051953125 0.025390625
6 0.29453125 0.7546875 0.021875 0.015234375
3 0.03671875 0.905859375 0.028125 0.01953125
7 0.226953125 0.402734375 0.053515625 0.069140625
7 0.19140625 0.535546875 0.0453125 0.050390625
1 0.35390625 0.3578125 0.027734375 0.04453125
0 0.774609375 0.169921875 0.033203125 0.02734375
5 0.495703125 0.730859375 0.023046875 0.01875
1 0.945703125 0.68125 0.06953125 0.044140625
6 0.121484375 0.651953125 0.037109375 0.0203125
3 0.0078125 0.8328125 0.015234375 0.017578125
1 0.901171875 0.717578125 0.19765625 0.22578125
5 0.70234375 0.687109375 0.03359375 0.02890625
1 0.43046875 0.128125 0.07734375 0.159765625
1 0.7390625 0.721484375 0.114453125 0.080859375
0 0.7140625 0.596875 0.044921875 0.03828125
6 0.012109375 0.45625 0.0203125 0.030859375
1 0.623046875 0.7984375 0.053515625 0.04453125
1 0.051171875 0.688671875 0.0359375 0.073046875
1 0.98984375 0.538671875 0.019921875 0.06796875
5 0.578515625 0.88671875 0.025 0.02265625
10 0.66328125 0.506640625 0.220703125 0.216796875
1 0.970703125 0.33671875 0.058203125 0.115234375
1 0.92578125 0.269140625 0.058203125 0.18125
1 0.325390625 0.2890625 0.0421875 0.20234375
1 0.171875 0.587890625 0.03984375 0.1546875
1 0.170703125 0.697265625 0.07421875 0.126953125
0 0.735546875 0.58125 0.018359375 0.035546875