6 0.750390625 0.167578125 0.09765625 0.08671875
3 0.45859375 0.198046875 0.0828125 0.0828125
3 0.273828125 0.315234375 0.090625 0.090625
8 0.2515625 0.065625 0.2109375 0.128125
5 0.35234375 0.2375 0.1296875 0.11875
6 0.714453125 0.769140625 0.10390625 0.10390625
1 0.043359375 0.457421875 0.08671875 0.0515625
6 0.933203125 0.24921875 0.1171875 0.1015625
0 0.65234375 0.23359375 0.090625 0.109375
6 0.7328125 0.622265625 0.0765625 0.06328125
0 0.325 0.3734375 0.09375 0.09375
6 0.116015625 0.6171875 0.11640625 0.059375
5 0.8609375 0.1359375 0.0609375 0.04375
5 0.68046875 0.527734375 0.090625 0.0578125
5 0.936328125 0.158984375 0.0734375 0.0734375
3 0.403125 0.08828125 0.096875 0.0640625
8 0.0328125 0.035546875 0.065625 0.07109375
5 0.842578125 0.208203125 0.096875 0.096875
3 0.550390625 0.183203125 0.0546875 0.0546875
5 0.89140625 0.057421875 0.0765625 0.05234375
3 0.50234375 0.45546875 0.103125 0.0671875
10 0.66640625 0.7234375 0.0640625 0.0421875
3 0.8046875 0.60078125 0.053125 0.0296875
5 0.573046875 0.284765625 0.0515625 0.0515625
5 0.916796875 0.654296875 0.05078125 0.02890625
5 0.796484375 0.65625 0.03515625 0.03515625
5 0.7734375 0.69609375 0.053125 0.0265625
5 0.79453125 0.575390625 0.0453125 0.02421875
5 0.3296875 0.736328125 0.0515625 0.05078125
5 0.27109375 0.748046875 0.078125 0.0484375
6 0.753515625 0.262890625 0.06875 0.04609375
5 0.728125 0.055859375 0.090625 0.09140625
3 0.86015625 0.619140625 0.046875 0.02734375
10 0.939453125 0.53125 0.05078125 0.028125
5 0.85078125 0.3078125 0.065625 0.065625
10 0.894921875 0.32265625 0.05234375 0.0234375
3 0.93828125 0.787109375 0.02890625 0.02890625
7 0.8421875 0.676953125 0.0375 0.02734375
3 0.81015625 0.770703125 0.0296875 0.01953125
0 0.609375 0.68984375 0.084375 0.078125
10 0.584765625 0.626171875 0.04296875 0.03046875
5 0.056640625 0.41328125 0.0796875 0.05
7 0.8640625 0.5546875 0.0625 0.05
5 0.80390625 0.026171875 0.1671875 0.05234375
10 0.977734375 0.5140625 0.03828125 0.0390625
6 0.815234375 0.793359375 0.04609375 0.01796875
10 0.870703125 0.775 0.07890625 0.05
6 0.847265625 0.3875 0.12734375 0.096875
8 0.121484375 0.26328125 0.24296875 0.2609375
8 0.652734375 0.34765625 0.1359375 0.1359375
5 0.472265625 0.348828125 0.146875 0.14765625
0 0.556640625 0.055078125 0.1609375 0.11015625
0 0.500390625 0.10390625 0.26171875 0.2078125
6 0.915625 0.36796875 0.0578125 0.034375
6 0.16953125 0.530078125 0.0828125 0.04765625
6 0.125 0.566796875 0.07734375 0.07734375
0 0.3390625 0.461328125 0.18125 0.10390625
8 0.19453125 0.4828125 0.08125 0.08125
5 0.13046875 0.45546875 0.0828125 0.0625
5 0.32421875 0.586328125 0.0625 0.04453125
6 0.966796875 0.582421875 0.0296875 0.01796875
6 0.957421875 0.558203125 0.03359375 0.01953125
10 0.73515625 0.466015625 0.12578125 0.12578125
10 0.7890625 0.54375 0.0796875 0.0796875
9 0.9546875 0.3265625 0.065625 0.0375
9 0.978515625 0.73828125 0.04296875 0.0859375
5 0.8640625 0.497265625 0.0578125 0.04140625