8 0.575390625 0.345703125 0.07734375 0.08046875
0 0.856640625 0.64140625 0.10703125 0.1265625
6 0.193359375 0.711328125 0.1015625 0.1015625
8 0.176171875 0.1578125 0.0859375 0.08671875
8 0.3046875 0.338671875 0.0546875 0.0546875
6 0.603515625 0.86953125 0.0953125 0.09453125
8 0.72421875 0.834375 0.0296875 0.0296875
3 0.549609375 0.237109375 0.11328125 0.13515625
6 0.687890625 0.883984375 0.10390625 0.0703125
0 0.162890625 0.365234375 0.06796875 0.06796875
9 0.208984375 0.565234375 0.06015625 0.08359375
9 0.8296875 0.46640625 0.0546875 0.05546875
8 0.36953125 0.210546875 0.0515625 0.05078125
9 0.443359375 0.5859375 0.115625 0.0890625
6 0.45859375 0.73671875 0.078125 0.1234375
0 0.684765625 0.374609375 0.0953125 0.0953125
7 0.59375 0.01484375 0.0265625 0.0265625
9 0.360546875 0.48828125 0.05546875 0.0453125
8 0.648828125 0.05703125 0.028125 0.028125
3 0.581640625 0.783984375 0.06484375 0.06484375
8 0.870703125 0.7515625 0.021875 0.02265625
8 0.6875 0.18203125 0.04375 0.04375
9 0.68203125 0.5046875 0.034375 0.03125
3 0.863671875 0.373046875 0.11640625 0.12578125
9 0.711328125 0.54453125 0.03671875 0.0390625
1 0.724609375 0.251953125 0.02734375 0.02734375
8 0.584765625 0.0484375 0.03515625 0.03515625
6 0.776171875 0.27109375 0.02109375 0.0203125
8 0.786328125 0.77421875 0.02421875 0.025
7 0.8671875 0.2609375 0.021875 0.0234375
8 0.425 0.2515625 0.0859375 0.0796875
7 0.809765625 0.207421875 0.01640625 0.01796875
8 0.194921875 0.2203125 0.06015625 0.05
3 0.75234375 0.19296875 0.03125 0.0234375
8 0.767578125 0.791796875 0.0265625 0.025
3 0.24609375 0.908984375 0.0703125 0.0640625
8 0.82890625 0.289453125 0.03125 0.02890625
6 0.755859375 0.219140625 0.0296875 0.0296875
7 0.97890625 0.90234375 0.0234375 0.02265625
8 0.978125 0.871875 0.021875 0.03125
6 0.787109375 0.812890625 0.0328125 0.04765625
3 0.316796875 0.086328125 0.0375 0.0375
6 0.676171875 0.296484375 0.02890625 0.034375
1 0.767578125 0.11875 0.01328125 0.015625
6 0.385546875 0.0140625 0.03359375 0.028125
7 0.72578125 0.0671875 0.0140625 0.0140625
8 0.63359375 0.809765625 0.0265625 0.0375
8 0.67265625 0.811328125 0.0171875 0.021875
8 0.524609375 0.04453125 0.028125 0.028125
2 0.232421875 0.3109375 0.03984375 0.0390625
1 0.7078125 0.014453125 0.015625 0.0171875
6 0.637890625 0.18046875 0.034375 0.0328125
7 0.873046875 0.923046875 0.021875 0.02109375
1 0.749609375 0.038671875 0.01796875 0.02265625
8 0.943359375 0.791796875 0.02578125 0.02578125
3 0.509765625 0.975390625 0.09921875 0.04921875
8 0.384375 0.7640625 0.03359375 0.03359375
3 0.404296875 0.925390625 0.16953125 0.14453125
7 0.752734375 0.087109375 0.021875 0.021875
6 0.709765625 0.216015625 0.0234375 0.0234375
6 0.63359375 0.99453125 0.0421875 0.0109375
8 0.6734375 0.026171875 0.0265625 0.04296875
7 0.693359375 0.0765625 0.02265625 0.021875
6 0.2640625 0.5703125 0.0359375 0.0390625
1 0.65234375 0.005859375 0.0109375 0.0109375
0 0.709375 0.71953125 0.10625 0.10625
8 0.592578125 0.676171875 0.03203125 0.03203125
1 0.840234375 0.70546875 0.03828125 0.040625
7 0.629296875 0.023046875 0.025 0.02265625
7 0.819140625 0.8125 0.028125 0.0234375
2 0.460546875 0.018359375 0.02421875 0.02109375
8 0.86328125 0.850390625 0.025 0.025
8 0.61484375 0.06875 0.0265625 0.0296875
7 0.7703125 0.9828125 0.040625 0.03125
6 0.375390625 0.596875 0.03515625 0.040625
10 0.5515625 0.005859375 0.03125 0.00859375
8 0.518359375 0.760546875 0.03359375 0.05234375
3 0.14453125 0.99453125 0.0484375 0.0109375
7 0.65 0.742578125 0.0265625 0.03671875
6 0.558984375 0.590234375 0.04140625 0.03203125
6 0.469140625 0.062109375 0.02421875 0.02421875
8 0.462109375 0.8171875 0.04140625 0.0375
7 0.6578125 0.005859375 0.01875 0.00859375
7 0.6453125 0.328125 0.0328125 0.0359375
5 0.7921875 0.648828125 0.021875 0.0296875
0 0.240234375 0.269921875 0.01953125 0.02109375
2 0.2453125 0.191796875 0.04140625 0.04140625
2 0.303515625 0.261328125 0.03359375 0.03828125
2 0.358984375 0.534375 0.04609375 0.0453125
2 0.28359375 0.64296875 0.0578125 0.0421875
2 0.330078125 0.958984375 0.04609375 0.0421875
3 0.348046875 0.04765625 0.0484375 0.04921875
3 0.455078125 0.100390625 0.0421875 0.02421875
2 0.41328125 0.187890625 0.0359375 0.02421875
0 0.398046875 0.333203125 0.20078125 0.1984375
0 0.536328125 0.458984375 0.20546875 0.19296875
0 0.67734375 0.59140625 0.18359375 0.184375
6 0.42578125 0.808203125 0.02109375 0.02109375
6 0.355859375 0.6203125 0.05234375 0.0421875
9 0.4953125 0.694921875 0.04375 0.04375
9 0.553515625 0.628125 0.04609375 0.0421875
9 0.6046875 0.619140625 0.046875 0.04765625
9 0.782421875 0.682421875 0.03046875 0.05546875
2 0.213671875 0.019921875 0.03359375 0.02421875
2 0.291796875 0.046484375 0.03359375 0.03359375
1 0.256640625 0.019921875 0.07421875 0.03984375
8 0.671875 0.216796875 0.04609375 0.04609375
8 0.580859375 0.078515625 0.03515625 0.03515625
3 0.5859375 0.122265625 0.0453125 0.02734375
3 0.656640625 0.144921875 0.06484375 0.03046875
6 0.5875 0.186328125 0.0328125 0.0328125
6 0.496875 0.106640625 0.0328125 0.03359375
6 0.531640625 0.119140625 0.01796875 0.01796875
6 0.432421875 0.052734375 0.03828125 0.03828125
6 0.5515625 0.123046875 0.0265625 0.01796875
1 0.805078125 0.173828125 0.08046875 0.0515625
1 0.735546875 0.159375 0.07890625 0.0359375