10 0.70859375 0.360546875 0.13203125 0.1359375
10 0.5421875 0.70703125 0.0796875 0.100390625
0 0.887890625 0.298828125 0.097265625 0.11328125
0 0.0890625 0.828515625 0.08984375 0.12578125
0 0.908984375 0.490625 0.06796875 0.087890625
10 0.54765625 0.605078125 0.062109375 0.09765625
9 0.884765625 0.841796875 0.0828125 0.1046875
9 0.8484375 0.62578125 0.101953125 0.099609375
0 0.864453125 0.448046875 0.073046875 0.08125
6 0.402734375 0.11484375 0.097265625 0.0828125
10 0.49921875 0.883203125 0.0859375 0.090625
0 0.03828125 0.1375 0.076171875 0.125
8 0.7515625 0.856640625 0.053515625 0.059375
7 0.21484375 0.24375 0.053125 0.049609375
6 0.2046875 0.34140625 0.066015625 0.0546875
7 0.103125 0.459765625 0.033203125 0.034375
1 0.5453125 0.369140625 0.06015625 0.052734375
8 0.6953125 0.52578125 0.03671875 0.03359375
6 0.187890625 0.822265625 0.065234375 0.065234375
7 0.0953125 0.28203125 0.03359375 0.038671875
8 0.4765625 0.63984375 0.040234375 0.041796875
6 0.426171875 0.876953125 0.059765625 0.0578125
7 0.177734375 0.55078125 0.04296875 0.041015625
1 0.47734375 0.21875 0.05 0.065625
8 0.598046875 0.393359375 0.040625 0.039453125
7 0.1671875 0.64453125 0.036328125 0.03515625
10 0.84609375 0.1078125 0.04296875 0.04296875
1 0.02109375 0.7421875 0.036328125 0.087890625
8 0.61640625 0.837109375 0.030859375 0.03125
7 0.08515625 0.433984375 0.03203125 0.037890625
2 0.328515625 0.332421875 0.03359375 0.03671875
10 0.719921875 0.28203125 0.03828125 0.037890625
6 0.3671875 0.222265625 0.074609375 0.041015625
10 0.560546875 0.531640625 0.041015625 0.0390625
8 0.66171875 0.769921875 0.0359375 0.031640625
7 0.151171875 0.330078125 0.038671875 0.03828125
6 0.188671875 0.768359375 0.0484375 0.048046875
9 0.94375 0.721875 0.080859375 0.0734375
6 0.401953125 0.287890625 0.048046875 0.056640625
7 0.251171875 0.78359375 0.03359375 0.031640625
9 0.776953125 0.559375 0.105859375 0.056640625
2 0.811328125 0.1671875 0.034765625 0.0375
5 0.884765625 0.727734375 0.048828125 0.055859375
2 0.416796875 0.184765625 0.035546875 0.036328125
1 0.54375 0.221484375 0.13203125 0.15
8 0.588671875 0.4734375 0.03515625 0.034375
1 0.216796875 0.637109375 0.030859375 0.03515625
6 0.269140625 0.507421875 0.025390625 0.0234375
1 0.6171875 0.0390625 0.1953125 0.064453125
2 0.2953125 0.22890625 0.033984375 0.0359375
7 0.104296875 0.412109375 0.0328125 0.03984375
7 0.0828125 0.684375 0.034375 0.038671875
0 0.021484375 0.66171875 0.033203125 0.05859375
6 0.182421875 0.4328125 0.0765625 0.065625
10 0.817578125 0.35703125 0.05 0.04296875
7 0.1015625 0.546484375 0.01796875 0.019921875
7 0.09921875 0.932421875 0.028125 0.029296875
10 0.581640625 0.51171875 0.02734375 0.03671875
8 0.78203125 0.725390625 0.022265625 0.025
6 0.434765625 0.67890625 0.055078125 0.056640625
6 0.158984375 0.5796875 0.021875 0.0203125
2 0.66796875 0.072265625 0.035546875 0.034375
8 0.715234375 0.639453125 0.03671875 0.037109375
2 0.562109375 0.11875 0.03203125 0.03671875
0 0.025 0.49140625 0.01484375 0.01875
9 0.971875 0.4921875 0.017578125 0.021875
2 0.81171875 0.271484375 0.03359375 0.039453125
6 0.222265625 0.41171875 0.039453125 0.02734375
2 0.024609375 0.23125 0.031640625 0.037890625
5 0.881640625 0.755859375 0.028125 0.02578125
0 0.658203125 0.72421875 0.025 0.026171875
0 0.871875 0.56953125 0.023828125 0.019140625
0 0.705078125 0.674609375 0.03125 0.03046875
5 0.987890625 0.651953125 0.019921875 0.019140625
6 0.134765625 0.558203125 0.03046875 0.045703125
0 0.039453125 0.72421875 0.03203125 0.035546875
8 0.630859375 0.61015625 0.0453125 0.033203125
6 0.263671875 0.63203125 0.05703125 0.026171875
0 0.913671875 0.6015625 0.019921875 0.022265625
6 0.284375 0.60625 0.058984375 0.034765625
5 0.991015625 0.62421875 0.0171875 0.025390625
8 0.798828125 0.7109375 0.023046875 0.023046875
7 0.162109375 0.83671875 0.027734375 0.025
1 0.447265625 0.46484375 0.166796875 0.096484375
1 0.37421875 0.5390625 0.0765625 0.06484375
1 0.360546875 0.61171875 0.128125 0.14140625
1 0.311328125 0.796875 0.157421875 0.13359375
6 0.420703125 0.716796875 0.0421875 0.037109375
8 0.735546875 0.623828125 0.034375 0.02265625
0 0.937109375 0.261328125 0.03046875 0.033203125
2 0.93515625 0.3546875 0.029296875 0.031640625
2 0.98671875 0.251171875 0.0265625 0.02109375
2 0.91875 0.42578125 0.025 0.02109375
9 0.96875 0.328125 0.062109375 0.1109375
9 0.756640625 0.476171875 0.08984375 0.1109375
9 0.864453125 0.3828125 0.1203125 0.05703125
5 0.950390625 0.5890625 0.032421875 0.0484375
10 0.64609375 0.705859375 0.027734375 0.029296875
10 0.6421875 0.75 0.027734375 0.022265625
8 0.632421875 0.696484375 0.019140625 0.013671875
7 0.069921875 0.7015625 0.025390625 0.02421875