8 0.192578125 0.203515625 0.07890625 0.09609375
1 0.1734375 0.569921875 0.1 0.1
8 0.418359375 0.848828125 0.06953125 0.07734375
3 0.442578125 0.93359375 0.09453125 0.1125
6 0.769140625 0.59609375 0.09765625 0.0859375
0 0.779296875 0.8859375 0.05078125 0.0546875
3 0.81953125 0.3109375 0.075 0.065625
9 0.7515625 0.715234375 0.059375 0.0828125
6 0.40859375 0.412109375 0.1 0.06953125
9 0.544921875 0.668359375 0.090625 0.090625
3 0.42421875 0.49140625 0.0515625 0.053125
3 0.41328125 0.13984375 0.0625 0.0625
3 0.19453125 0.068359375 0.04296875 0.04296875
3 0.16171875 0.788671875 0.103125 0.10546875
7 0.747265625 0.9828125 0.0515625 0.0328125
8 0.744140625 0.190625 0.0515625 0.046875
8 0.605859375 0.1375 0.06015625 0.0671875
3 0.728125 0.414453125 0.0578125 0.05859375
8 0.2828125 0.030078125 0.075 0.06015625
7 0.647265625 0.17734375 0.03671875 0.05
8 0.81484375 0.018359375 0.125 0.03359375
8 0.550390625 0.172265625 0.05546875 0.06484375
1 0.301171875 0.6625 0.0296875 0.0296875
1 0.327734375 0.703125 0.03203125 0.028125
0 0.56015625 0.243359375 0.0421875 0.0421875
3 0.085546875 0.2171875 0.02421875 0.03125
0 0.32109375 0.809375 0.0859375 0.0859375
2 0.871484375 0.101953125 0.05234375 0.0484375
7 0.54609375 0.938671875 0.0703125 0.06640625
7 0.29375 0.430859375 0.025 0.025
8 0.530859375 0.48125 0.03828125 0.028125
8 0.971875 0.046875 0.05 0.09375
7 0.658203125 0.884765625 0.04140625 0.04453125
7 0.162890625 0.479296875 0.01640625 0.01953125
7 0.160546875 0.8828125 0.01875 0.01953125
1 0.6234375 0.727734375 0.0390625 0.0359375
8 0.11484375 0.16953125 0.0734375 0.0953125
7 0.605859375 0.21875 0.02890625 0.0359375
6 0.169140625 0.396875 0.0203125 0.0203125
7 0.341015625 0.456640625 0.01796875 0.01796875
7 0.24296875 0.471484375 0.015625 0.02109375
9 0.6140625 0.76171875 0.04375 0.04453125
7 0.241796875 0.876953125 0.01796875 0.01953125
3 0.358203125 0.117578125 0.075 0.075
6 0.378515625 0.287890625 0.0296875 0.02890625
1 0.207421875 0.433984375 0.0265625 0.02265625
6 0.326171875 0.3921875 0.0921875 0.065625
1 0.15859375 0.326953125 0.0203125 0.01953125
1 0.195703125 0.71875 0.05 0.05
3 0.293359375 0.291796875 0.03984375 0.04140625
0 0.69921875 0.990625 0.0234375 0.01875
7 0.43046875 0.208203125 0.025 0.02890625
1 0.340234375 0.32109375 0.02734375 0.0296875
2 0.740234375 0.0953125 0.0453125 0.046875
6 0.23828125 0.437109375 0.0328125 0.03203125
7 0.25546875 0.457421875 0.021875 0.02109375
3 0.33671875 0.176953125 0.034375 0.05078125
3 0.491796875 0.29453125 0.09375 0.09453125
1 0.276953125 0.13515625 0.02421875 0.02421875
7 0.062890625 0.373828125 0.01953125 0.03125
7 0.373046875 0.4625 0.02109375 0.025
7 0.196875 0.86015625 0.025 0.025
2 0.6953125 0.6546875 0.0375 0.0375
8 0.415234375 0.579296875 0.02421875 0.02734375
6 0.359765625 0.51640625 0.01953125 0.0265625
7 0.091015625 0.4421875 0.01953125 0.0203125
6 0.53515625 0.547265625 0.0765625 0.096875
7 0.594921875 0.975 0.03984375 0.03125
8 0.48125 0.51875 0.028125 0.040625
3 0.365234375 0.994140625 0.04296875 0.0109375
7 0.209765625 0.926953125 0.01328125 0.01484375
3 0.584375 0.40078125 0.14375 0.1578125
6 0.699609375 0.709765625 0.0296875 0.0296875
6 0.62890625 0.65546875 0.0328125 0.0234375
6 0.6046875 0.6671875 0.0328125 0.0328125
6 0.441015625 0.656640625 0.02734375 0.02265625
6 0.51796875 0.37890625 0.059375 0.0625
8 0.603125 0.54296875 0.03125 0.0328125
8 0.561328125 0.49140625 0.0328125 0.0328125
9 0.44453125 0.617578125 0.0375 0.04453125
9 0.5 0.5765625 0.034375 0.040625
9 0.399609375 0.615625 0.0375 0.0375
9 0.450390625 0.75546875 0.025 0.0234375
9 0.291796875 0.605078125 0.01484375 0.02734375
9 0.239453125 0.53984375 0.03203125 0.05
9 0.191015625 0.519140625 0.03359375 0.02734375
2 0.71171875 0.9171875 0.0375 0.03125
2 0.65625 0.947265625 0.040625 0.034375
2 0.558203125 0.9859375 0.03984375 0.028125
2 0.7453125 0.28828125 0.040625 0.0296875
2 0.6546875 0.36640625 0.034375 0.034375
2 0.95234375 0.108984375 0.040625 0.03984375
0 0.7078125 0.946484375 0.0234375 0.01484375
0 0.308203125 0.53125 0.08671875 0.08671875
0 0.578125 0.886328125 0.15859375 0.15859375
0 0.44765625 0.759765625 0.1515625 0.16015625
0 0.32734375 0.634765625 0.1515625 0.14296875
8 0.3546875 0.84921875 0.034375 0.034375
8 0.3359375 0.93046875 0.0390625 0.0390625
8 0.316015625 0.958984375 0.034375 0.0265625
1 0.285546875 0.89296875 0.02109375 0.0296875
1 0.216796875 0.94921875 0.05234375 0.05234375
1 0.275 0.96640625 0.0640625 0.03046875
7 0.253125 0.282421875 0.03203125 0.03125
7 0.490625 0.14609375 0.0390625 0.0390625
7 0.46953125 0.2125 0.0296875 0.0359375