6 0.83125 0.098828125 0.198828125 0.179296875
6 0.483203125 0.51875 0.18671875 0.19296875
1 0.787109375 0.705859375 0.09453125 0.10078125
0 0.92734375 0.5890625 0.09765625 0.101171875
3 0.23125 0.404296875 0.080078125 0.088671875
1 0.721875 0.591796875 0.10546875 0.094921875
6 0.678125 0.258984375 0.118359375 0.106640625
1 0.66796875 0.520703125 0.06796875 0.0703125
6 0.711328125 0.38828125 0.10703125 0.10703125
1 0.722265625 0.47109375 0.0703125 0.077734375
6 0.452734375 0.198046875 0.1671875 0.244921875
0 0.872265625 0.541015625 0.06328125 0.078515625
3 0.339453125 0.6703125 0.037109375 0.037109375
7 0.59921875 0.76328125 0.03359375 0.0359375
1 0.7953125 0.82265625 0.062890625 0.08203125
8 0.198046875 0.684765625 0.058203125 0.065234375
7 0.634765625 0.583203125 0.05703125 0.066015625
8 0.033203125 0.517578125 0.06640625 0.07421875
7 0.560546875 0.65703125 0.036328125 0.03671875
6 0.233984375 0.510546875 0.047265625 0.101171875
8 0.25625 0.683984375 0.05 0.048828125
7 0.583203125 0.526953125 0.031640625 0.032421875
3 0.3109375 0.06953125 0.05078125 0.05078125
3 0.084765625 0.746484375 0.043359375 0.041015625
3 0.3125 0.39453125 0.1078125 0.05078125
0 0.836328125 0.717578125 0.025390625 0.02734375
7 0.627734375 0.629296875 0.0578125 0.040234375
0 0.81171875 0.6421875 0.025390625 0.033203125
3 0.088671875 0.504296875 0.10234375 0.10234375
8 0.071875 0.577734375 0.030078125 0.02890625
1 0.85546875 0.390234375 0.103515625 0.108984375
3 0.0796875 0.7078125 0.039453125 0.034375
10 0.37734375 0.710546875 0.025 0.023828125
7 0.74453125 0.65703125 0.0375 0.038671875
7 0.640625 0.476953125 0.037890625 0.03359375
2 0.561328125 0.234765625 0.033203125 0.03515625
7 0.651953125 0.705078125 0.0390625 0.043359375
6 0.503125 0.77421875 0.191796875 0.189453125
10 0.351953125 0.5515625 0.032421875 0.02734375
7 0.7546875 0.88671875 0.03203125 0.030859375
3 0.101171875 0.598046875 0.03984375 0.034375
10 0.265234375 0.719140625 0.02421875 0.0234375
7 0.642578125 0.86640625 0.0296875 0.028515625
0 0.975390625 0.429296875 0.04921875 0.06640625
8 0.213671875 0.8421875 0.021875 0.021484375
3 0.090234375 0.864453125 0.019140625 0.0203125
3 0.179296875 0.462890625 0.0390625 0.050390625
7 0.673828125 0.90859375 0.026171875 0.026953125
2 0.26484375 0.225390625 0.035546875 0.04140625
10 0.256640625 0.87265625 0.017578125 0.019140625
2 0.4765625 0.33203125 0.03671875 0.03125
10 0.380078125 0.866796875 0.020703125 0.02421875
2 0.287109375 0.323046875 0.033984375 0.0359375
3 0.3375 0.287890625 0.038671875 0.044921875
10 0.28125 0.8 0.019140625 0.01875
10 0.3375 0.581640625 0.03515625 0.031640625
2 0.6671875 0.187109375 0.031640625 0.034375
10 0.378125 0.4328125 0.03359375 0.0296875
8 0.015625 0.393359375 0.02734375 0.033203125
10 0.340625 0.508984375 0.0328125 0.02734375
10 0.417578125 0.394140625 0.03203125 0.033203125
1 0.70625 0.714453125 0.0234375 0.022265625
10 0.3328125 0.913671875 0.0203125 0.0203125
2 0.3109375 0.14375 0.0390625 0.046875
1 0.984375 0.721484375 0.030859375 0.0828125
7 0.56015625 0.8046875 0.021875 0.028515625
10 0.351953125 0.778515625 0.01953125 0.019921875
7 0.644921875 0.40390625 0.049609375 0.039453125
7 0.65 0.74921875 0.026953125 0.024609375
10 0.384765625 0.82109375 0.017578125 0.01953125
8 0.017578125 0.605859375 0.021484375 0.01875
10 0.42734375 0.635546875 0.033984375 0.030078125
10 0.43515625 0.930859375 0.019921875 0.02109375
10 0.388671875 0.6296875 0.0265625 0.026171875
2 0.71953125 0.143359375 0.025390625 0.029296875
9 0.013671875 0.719921875 0.02734375 0.071875
2 0.815234375 0.3234375 0.030078125 0.031640625
3 0.234375 0.1328125 0.076953125 0.10625
0 0.0296875 0.17890625 0.058984375 0.0671875
2 0.74453125 0.25859375 0.0265625 0.025