3 0.217578125 0.16640625 0.11328125 0.0796875
5 0.297265625 0.076953125 0.1296875 0.1296875
3 0.409765625 0.039453125 0.08671875 0.07890625
6 0.423828125 0.530859375 0.13046875 0.04140625
6 0.7 0.4828125 0.078125 0.065625
5 0.26796875 0.6171875 0.1015625 0.1015625
3 0.464453125 0.311328125 0.0984375 0.06484375
6 0.684765625 0.63046875 0.09453125 0.09453125
8 0.911328125 0.081640625 0.12578125 0.11015625
5 0.877734375 0.511328125 0.04609375 0.03046875
0 0.275390625 0.22890625 0.11328125 0.0828125
5 0.815625 0.051171875 0.1 0.1
0 0.612890625 0.080078125 0.109375 0.109375
5 0.73203125 0.558203125 0.0515625 0.03125
6 0.074609375 0.481640625 0.08984375 0.08984375
3 0.771484375 0.46171875 0.0515625 0.0328125
3 0.821875 0.47734375 0.0421875 0.025
5 0.76328125 0.52109375 0.0296875 0.0296875
7 0.830859375 0.41328125 0.05546875 0.0453125
6 0.390625 0.30390625 0.0625 0.0390625
3 0.898828125 0.64296875 0.0265625 0.0265625
5 0.52109375 0.2625 0.059375 0.059375
7 0.803125 0.536328125 0.034375 0.02734375
8 0.722265625 0.179296875 0.08359375 0.08359375
3 0.5125 0.019140625 0.071875 0.03828125
9 0.954296875 0.594140625 0.0890625 0.0890625
5 0.91640625 0.416796875 0.0359375 0.01953125
6 0.719921875 0.0296875 0.07265625 0.059375
5 0.76015625 0.435546875 0.0359375 0.01953125
9 0.986328125 0.501171875 0.02734375 0.03828125
3 0.983984375 0.412109375 0.03203125 0.07421875
1 0.01640625 0.31796875 0.0328125 0.0515625
5 0.778515625 0.650390625 0.03515625 0.03515625
3 0.769921875 0.629296875 0.03046875 0.01953125
10 0.866796875 0.17109375 0.0390625 0.0390625
5 0.820703125 0.15703125 0.08203125 0.0546875
5 0.533984375 0.210546875 0.03515625 0.03515625
5 0.927734375 0.442578125 0.05078125 0.02265625
9 0.9078125 0.392578125 0.0515625 0.02578125
5 0.07578125 0.3125 0.0765625 0.0765625
6 0.892578125 0.21953125 0.065625 0.065625
6 0.71953125 0.11015625 0.0796875 0.0546875
9 0.740234375 0.365625 0.04609375 0.025
5 0.6484375 0.3921875 0.06328125 0.0640625
8 0.0890625 0.135546875 0.178125 0.27109375
8 0.015625 0.27109375 0.03125 0.034375
8 0.146484375 0.35078125 0.11484375 0.065625
8 0.201953125 0.396484375 0.0328125 0.03359375
8 0.623046875 0.203515625 0.15 0.11953125
8 0.916796875 0.26953125 0.09296875 0.0609375
8 0.98125 0.212890625 0.0375 0.06796875
0 0.2890625 0.317578125 0.1703125 0.10546875
1 0.3359375 0.43125 0.1640625 0.1640625
5 0.432421875 0.200390625 0.1796875 0.1125
5 0.53046875 0.115234375 0.053125 0.04921875
10 0.7 0.3296875 0.175 0.075
10 0.678515625 0.272265625 0.05078125 0.05078125
10 0.75 0.280859375 0.05625 0.0328125
5 0.809375 0.324609375 0.05 0.05
6 0.81484375 0.248046875 0.1484375 0.08828125
0 0.52109375 0.352734375 0.071875 0.03359375
5 0.5359375 0.373046875 0.0984375 0.03828125
6 0.131640625 0.3859375 0.0546875 0.0546875
6 0.076171875 0.426171875 0.10078125 0.04140625
6 0.030078125 0.551953125 0.0390625 0.02421875
5 0.28515625 0.444921875 0.075 0.03828125