8 0.865234375 0.685546875 0.10078125 0.09453125
0 0.39453125 0.33046875 0.067578125 0.06328125
3 0.64296875 0.4734375 0.078515625 0.10078125
6 0.05703125 0.671484375 0.08125 0.058203125
3 0.787890625 0.340625 0.113671875 0.08046875
6 0.746875 0.8734375 0.067578125 0.066015625
1 0.46953125 0.056640625 0.171484375 0.11328125
1 0.2640625 0.5546875 0.10625 0.083984375
6 0.76875 0.4578125 0.06796875 0.06484375
0 0.4265625 0.2796875 0.060546875 0.04453125
6 0.899609375 0.572265625 0.078515625 0.06640625
3 0.64453125 0.8515625 0.068359375 0.076171875
1 0.5453125 0.391796875 0.08046875 0.064453125
0 0.24375 0.11640625 0.066015625 0.069921875
6 0.78203125 0.7328125 0.03828125 0.0421875
8 0.86484375 0.870703125 0.04453125 0.04609375
0 0.292578125 0.478515625 0.061328125 0.04453125
8 0.037109375 0.404296875 0.07421875 0.04921875
3 0.590234375 0.65625 0.0765625 0.107421875
6 0.729296875 0.29140625 0.060546875 0.044140625
6 0.816015625 0.77734375 0.040234375 0.03984375
9 0.95234375 0.466796875 0.084765625 0.083203125
6 0.01875 0.565625 0.03671875 0.072265625
3 0.570703125 0.5359375 0.0515625 0.05234375
3 0.848828125 0.304296875 0.0515625 0.046875
9 0.265625 0.683984375 0.02890625 0.022265625
10 0.143359375 0.363671875 0.05 0.0421875
3 0.66328125 0.724609375 0.04609375 0.048046875
3 0.765234375 0.396875 0.048046875 0.04296875
6 0.7671875 0.511328125 0.03671875 0.03125
3 0.92421875 0.21640625 0.06484375 0.059765625
0 0.377734375 0.16796875 0.0625 0.07109375
2 0.983203125 0.374609375 0.033203125 0.034765625
9 0.476953125 0.681640625 0.02890625 0.026953125
2 0.101171875 0.42578125 0.041015625 0.0296875
1 0.212890625 0.603515625 0.04296875 0.032421875
3 0.902734375 0.478515625 0.0515625 0.04921875
10 0.293359375 0.732421875 0.02421875 0.026171875
10 0.192578125 0.8609375 0.023046875 0.021875
10 0.178515625 0.66484375 0.02421875 0.0203125
9 0.455078125 0.7265625 0.023046875 0.02109375
0 0.3546875 0.547265625 0.091796875 0.053125
10 0.167578125 0.808984375 0.01796875 0.018359375
9 0.4578125 0.87578125 0.026953125 0.02265625
6 0.850390625 0.57421875 0.053125 0.039453125
2 0.956640625 0.292578125 0.04375 0.041796875
10 0.099609375 0.57578125 0.04921875 0.033984375
9 0.453125 0.633984375 0.0296875 0.02890625
6 0.124609375 0.62734375 0.029296875 0.021484375
9 0.97421875 0.57890625 0.046484375 0.061328125
9 0.960546875 0.702734375 0.04765625 0.037109375
10 0.13203125 0.488671875 0.046484375 0.032421875
10 0.13984375 0.59453125 0.0265625 0.017578125
9 0.336328125 0.907421875 0.02109375 0.01796875
9 0.192578125 0.88671875 0.0203125 0.01640625
6 0.68671875 0.37421875 0.041796875 0.033203125
0 0.428125 0.800390625 0.03515625 0.0375
9 0.5484375 0.799609375 0.0234375 0.02265625
1 0.46640625 0.419921875 0.12421875 0.16015625
9 0.314453125 0.85390625 0.0203125 0.019140625
3 0.943359375 0.17890625 0.062109375 0.0796875
1 0.563671875 0.150390625 0.04375 0.046875
6 0.076953125 0.762109375 0.025 0.01953125
1 0.503515625 0.29375 0.039453125 0.040234375
2 0.26171875 0.319140625 0.04921875 0.040234375
1 0.4296875 0.50234375 0.024609375 0.02109375
10 0.15234375 0.712109375 0.014453125 0.013671875
2 0.282421875 0.208203125 0.047265625 0.04765625
10 0.13828125 0.396875 0.074609375 0.03984375
0 0.390625 0.632421875 0.035546875 0.022265625
9 0.291796875 0.65625 0.0296875 0.031640625
2 0.569921875 0.21640625 0.0421875 0.03828125
0 0.298828125 0.375 0.03984375 0.0515625
0 0.271875 0.42578125 0.069921875 0.058203125
10 0.122265625 0.515234375 0.025 0.0171875
10 0.11171875 0.535546875 0.019921875 0.02109375
10 0.19765625 0.5171875 0.025 0.016015625
10 0.182421875 0.56875 0.016015625 0.018359375
1 0.317578125 0.589453125 0.031640625 0.027734375
0 0.408203125 0.52265625 0.02265625 0.029296875
0 0.406640625 0.5984375 0.025 0.02265625
9 0.360546875 0.657421875 0.033203125 0.04765625
9 0.386328125 0.683984375 0.031640625 0.034375
10 0.166015625 0.43046875 0.062109375 0.033203125
10 0.1046875 0.50546875 0.208984375 0.113671875
0 0.205859375 0.371875 0.22890625 0.17734375
1 0.54765625 0.240234375 0.1453125 0.28984375
1 0.46953125 0.4484375 0.079296875 0.092578125
2 0.7109375 0.396875 0.03046875 0.037109375