3 0.2875 0.352734375 0.07578125 0.0765625
5 0.218359375 0.42734375 0.11328125 0.0984375
8 0.303515625 0.575390625 0.15625 0.15625
3 0.1265625 0.461328125 0.06953125 0.06953125
7 0.746875 0.608984375 0.14609375 0.14609375
7 0.85703125 0.509765625 0.1421875 0.10546875
8 0.848046875 0.86328125 0.11328125 0.11328125
3 0.053125 0.875390625 0.09375 0.09375
3 0.7640625 0.8265625 0.05625 0.05625
0 0.240625 0.301171875 0.1015625 0.06484375
9 0.508203125 0.86484375 0.03828125 0.03828125
8 0.032421875 0.283984375 0.06015625 0.06171875
3 0.076171875 0.23671875 0.09921875 0.059375
6 0.70625 0.699609375 0.078125 0.078125
7 0.960546875 0.46953125 0.0609375 0.0609375
9 0.546484375 0.8328125 0.04296875 0.0390625
10 0.96796875 0.39921875 0.0640625 0.0703125
3 0.17890625 0.5421875 0.0625 0.0625
3 0.045703125 0.481640625 0.0546875 0.0546875
8 0.71640625 0.0578125 0.14375 0.115625
5 0.146484375 0.04921875 0.11953125 0.0984375
8 0.272265625 0.718359375 0.16640625 0.12265625
6 0.7265625 0.4890625 0.0828125 0.0625
7 0.875 0.2875 0.0859375 0.08671875
5 0.459375 0.066796875 0.1125 0.05859375
7 0.678125 0.860546875 0.1296875 0.05390625
5 0.12109375 0.330078125 0.16875 0.09140625
8 0.47578125 0.2609375 0.04375 0.04375
1 0.55859375 0.0890625 0.0609375 0.0609375
7 0.75859375 0.77890625 0.0734375 0.0421875
8 0.571875 0.729296875 0.1703125 0.14765625
1 0.639453125 0.194140625 0.059375 0.05859375
7 0.98359375 0.05546875 0.028125 0.05
6 0.583203125 0.251171875 0.046875 0.02890625
10 0.575390625 0.13515625 0.04765625 0.046875
5 0.026171875 0.396875 0.05234375 0.0421875
6 0.57890625 0.188671875 0.0578125 0.03203125
7 0.7234375 0.317578125 0.0859375 0.04140625
9 0.357421875 0.900390625 0.1890625 0.16328125
0 0.6046875 0.91328125 0.1234375 0.1234375
9 0.912109375 0.7234375 0.1453125 0.1453125
9 0.91484375 0.619140625 0.1609375 0.16015625
2 0.157421875 0.7734375 0.10703125 0.046875
0 0.391796875 0.79140625 0.12109375 0.12109375
0 0.06484375 0.59453125 0.1296875 0.121875
0 0.126953125 0.65078125 0.25390625 0.3328125
9 0.9703125 0.29609375 0.059375 0.1265625
9 0.902734375 0.122265625 0.140625 0.140625
10 0.876953125 0.240234375 0.0375 0.0375
10 0.907421875 0.214453125 0.03671875 0.03203125
6 0.731640625 0.346484375 0.06328125 0.0375
1 0.51953125 0.229296875 0.109375 0.06015625
5 0.425 0.2265625 0.0640625 0.0640625
8 0.332421875 0.15859375 0.04609375 0.021875
6 0.390625 0.157421875 0.0671875 0.0296875
6 0.440625 0.122265625 0.0921875 0.05078125
8 0.36953125 0.1921875 0.0828125 0.0484375
3 0.372265625 0.244140625 0.03984375 0.03984375
8 0.76015625 0.228125 0.153125 0.171875
8 0.7140625 0.119921875 0.16484375 0.1640625
1 0.852734375 0.347265625 0.16484375 0.05703125
1 0.83515625 0.391796875 0.0625 0.03203125
6 0.89921875 0.399609375 0.0609375 0.05859375
6 0.628515625 0.769921875 0.0921875 0.0921875
0 0.246484375 0.229296875 0.16640625 0.10859375
1 0.209375 0.12578125 0.165625 0.165625
0 0.061328125 0.1359375 0.109375 0.109375
3 0.203515625 0.121875 0.03359375 0.0234375
5 0.26953125 0.103515625 0.0765625 0.04921875
8 0.423046875 0.361328125 0.16953125 0.16953125
9 0.608203125 0.353125 0.25703125 0.16875
7 0.548046875 0.39453125 0.07890625 0.07890625
8 0.493359375 0.444140625 0.0265625 0.0265625
0 0.531640625 0.44765625 0.03359375 0.0171875
8 0.540625 0.38203125 0.4515625 0.2453125
10 0.898046875 0.036328125 0.15234375 0.07265625