8 0.616796875 0.430078125 0.08671875 0.08359375
8 0.537109375 0.594140625 0.08828125 0.0953125
0 0.912109375 0.12265625 0.12578125 0.1265625
8 0.48515625 0.880078125 0.0890625 0.1046875
10 0.053515625 0.42109375 0.0921875 0.0921875
8 0.667578125 0.723828125 0.06484375 0.05859375
8 0.180078125 0.43828125 0.04609375 0.0546875
1 0.48203125 0.273828125 0.0328125 0.03046875
8 0.5046875 0.6546875 0.05 0.05625
8 0.553515625 0.850390625 0.0609375 0.0609375
0 0.7203125 0.87578125 0.09375 0.0578125
3 0.49140625 0.45859375 0.1640625 0.1421875
6 0.081640625 0.658203125 0.07265625 0.05234375
8 0.15859375 0.39609375 0.0296875 0.0328125
8 0.145703125 0.361328125 0.03203125 0.03203125
8 0.410546875 0.314453125 0.046875 0.05078125
9 0.783203125 0.310546875 0.04453125 0.04140625
9 0.950390625 0.811328125 0.09609375 0.07421875
6 0.41953125 0.371875 0.03671875 0.03671875
8 0.1390625 0.498046875 0.0296875 0.03359375
9 0.830078125 0.6515625 0.05703125 0.0578125
0 0.626953125 0.308203125 0.1109375 0.1109375
9 0.717578125 0.153125 0.06171875 0.059375
6 0.54296875 0.326953125 0.0390625 0.03125
3 0.6078125 0.1140625 0.15 0.1390625
9 0.935546875 0.56015625 0.078125 0.10625
6 0.142578125 0.43046875 0.03359375 0.0359375
6 0.443359375 0.24140625 0.03359375 0.0390625
2 0.647265625 0.799609375 0.04453125 0.04453125
3 0.413671875 0.246484375 0.0328125 0.0328125
6 0.502734375 0.2140625 0.02265625 0.0203125
6 0.423046875 0.18046875 0.02109375 0.0203125
6 0.944140625 0.752734375 0.04453125 0.04453125
8 0.481640625 0.121484375 0.02734375 0.02734375
1 0.46953125 0.61171875 0.0375 0.0375
8 0.514453125 0.529296875 0.0484375 0.04921875
7 0.0984375 0.421484375 0.02734375 0.02734375
3 0.338671875 0.41875 0.03359375 0.0609375
9 0.93125 0.384765625 0.046875 0.05234375
2 0.883203125 0.659765625 0.04609375 0.05078125
6 0.226171875 0.424609375 0.06484375 0.06484375
0 0.6 0.79609375 0.021875 0.021875
6 0.157421875 0.586328125 0.02578125 0.09609375
2 0.228515625 0.838671875 0.0203125 0.03046875
8 0.45546875 0.33046875 0.0453125 0.0453125
5 0.29375 0.554296875 0.0296875 0.03046875
6 0.978125 0.6578125 0.03828125 0.03828125
10 0.007421875 0.505859375 0.01328125 0.02421875
6 0.954296875 0.63125 0.04765625 0.04765625
7 0.067578125 0.331640625 0.01484375 0.015625
8 0.522265625 0.15546875 0.03203125 0.034375
8 0.924609375 0.192578125 0.03359375 0.0265625
7 0.590234375 0.355859375 0.0375 0.0375
7 0.083984375 0.2984375 0.0171875 0.01796875
8 0.98984375 0.4 0.0203125 0.0234375
1 0.146484375 0.45625 0.01796875 0.01875
0 0.27578125 0.458203125 0.034375 0.034375
9 0.95546875 0.438671875 0.0578125 0.04765625
7 0.146484375 0.276171875 0.01640625 0.0125
10 0.005078125 0.504296875 0.01015625 0.02578125
6 0.123046875 0.460546875 0.01328125 0.01328125
10 0.0171875 0.315625 0.034375 0.046875
7 0.167578125 0.309765625 0.021875 0.021875
2 0.265625 0.75078125 0.028125 0.04375
3 0.2375 0.94609375 0.078125 0.078125
7 0.177734375 0.349609375 0.01953125 0.01953125
8 0.10625 0.330859375 0.03828125 0.03828125
1 0.3140625 0.259375 0.0171875 0.01640625
6 0.363671875 0.47578125 0.03671875 0.0515625
0 0.28203125 0.402734375 0.0265625 0.02890625
7 0.196875 0.2328125 0.0203125 0.0203125
6 0.16484375 0.558984375 0.021875 0.03984375
8 0.096875 0.251171875 0.01953125 0.0203125
6 0.1265625 0.46171875 0.015625 0.015625
1 0.37734375 0.18828125 0.0484375 0.084375
9 0.81953125 0.27421875 0.0484375 0.0390625
8 0.15625 0.246875 0.015625 0.0125
6 0.449609375 0.291015625 0.02578125 0.02421875
3 0.348828125 0.56328125 0.06171875 0.0625
6 0.131640625 0.4609375 0.0171875 0.0171875
7 0.116796875 0.25703125 0.02265625 0.015625
6 0.3515625 0.526953125 0.0328125 0.04296875
1 0.3046875 0.521484375 0.021875 0.03671875
7 0.105078125 0.382421875 0.0140625 0.01796875
10 0.01796875 0.41484375 0.0359375 0.1015625
9 0.893359375 0.55078125 0.03046875 0.059375
2 0.509375 0.79296875 0.04375 0.04375
6 0.433984375 0.4234375 0.03671875 0.03125
2 0.57734375 0.722265625 0.0546875 0.05234375
9 0.96875 0.2015625 0.046875 0.046875
9 0.984375 0.14140625 0.03125 0.04375
1 0.2078125 0.782421875 0.065625 0.1046875
3 0.2578125 0.68046875 0.05 0.0734375
3 0.3015625 0.600390625 0.01875 0.02109375
3 0.315625 0.580078125 0.0265625 0.0265625
9 0.191015625 0.67265625 0.025 0.040625
9 0.230859375 0.64140625 0.0390625 0.0390625
2 0.195703125 0.751171875 0.0265625 0.034375
2 0.117578125 0.621875 0.0296875 0.02890625
1 0.366015625 0.2703125 0.0453125 0.1125
1 0.34453125 0.265625 0.0203125 0.02109375
1 0.2953125 0.34609375 0.01875 0.0203125
3 0.369140625 0.357421875 0.03359375 0.07890625
1 0.1875 0.59140625 0.021875 0.02109375
1 0.225 0.559765625 0.0140625 0.025
1 0.234375 0.5296875 0.046875 0.046875
6 0.19375 0.497265625 0.01875 0.06640625
6 0.216796875 0.495703125 0.0453125 0.08046875
6 0.2453125 0.28671875 0.05546875 0.05546875
6 0.253515625 0.212109375 0.040625 0.040625
9 0.269921875 0.579296875 0.03125 0.0359375
9 0.26796875 0.535546875 0.0265625 0.02734375
9 0.28125 0.506640625 0.03125 0.03125
9 0.257421875 0.461328125 0.04296875 0.08515625
9 0.272265625 0.346484375 0.04140625 0.06875
9 0.28359375 0.3015625 0.0171875 0.0234375
9 0.271484375 0.27890625 0.021875 0.0296875
0 0.3125 0.297265625 0.03125 0.03125
0 0.3078125 0.361328125 0.0234375 0.02421875
6 0.32734375 0.359375 0.015625 0.01875
7 0.11953125 0.39375 0.0140625 0.015625
3 0.362109375 0.7171875 0.05234375 0.05234375
0 0.649609375 0.6109375 0.21015625 0.21875
0 0.762890625 0.458203125 0.21015625 0.20546875
0 0.891796875 0.310546875 0.1890625 0.1890625
2 0.108203125 0.569140625 0.028125 0.028125
7 0.14140625 0.523046875 0.0296875 0.0265625
0 0.290234375 0.173828125 0.046875 0.05078125
0 0.31171875 0.135546875 0.0359375 0.04609375