3 0.268359375 0.540234375 0.15078125 0.11171875
10 0.50390625 0.0609375 0.13515625 0.1171875
3 0.13046875 0.780859375 0.1796875 0.14765625
1 0.458984375 0.383984375 0.10546875 0.0828125
10 0.600390625 0.458203125 0.0875 0.05546875
10 0.74609375 0.582421875 0.09609375 0.0609375
8 0.730078125 0.253515625 0.20234375 0.24375
10 0.902734375 0.80078125 0.13515625 0.090625
0 0.097265625 0.41953125 0.134375 0.16015625
10 0.046875 0.563671875 0.09375 0.09609375
8 0.80078125 0.46328125 0.24375 0.18046875
3 0.172265625 0.92890625 0.0859375 0.0703125
10 0.38046875 0.74453125 0.08984375 0.04140625
2 0.31796875 0.26953125 0.08359375 0.06640625
3 0.648828125 0.576953125 0.0609375 0.03984375
10 0.101953125 0.021875 0.0546875 0.0375
1 0.8515625 0.903515625 0.05 0.03515625
3 0.32890625 0.071484375 0.12578125 0.08046875
3 0.46484375 0.276953125 0.10546875 0.0828125
1 0.634765625 0.80703125 0.0484375 0.03828125
8 0.4609375 0.84765625 0.14765625 0.09296875
10 0.698828125 0.686328125 0.13203125 0.08828125
10 0.462890625 0.927734375 0.05 0.0265625
1 0.694921875 0.877734375 0.03828125 0.02734375
10 0.576171875 0.3046875 0.1015625 0.06875
3 0.665234375 0.641015625 0.0609375 0.0421875
1 0.881640625 0.654296875 0.1453125 0.19765625
1 0.64296875 0.933203125 0.16171875 0.103125
8 0.5375 0.70703125 0.19921875 0.16953125
8 0.5875 0.641796875 0.0375 0.03359375
8 0.612109375 0.5453125 0.03046875 0.0234375
8 0.6421875 0.55 0.0328125 0.028125
10 0.559765625 0.221484375 0.0765625 0.11796875
2 0.326953125 0.14296875 0.08828125 0.053125
0 0.0640625 0.255859375 0.128125 0.19453125