1 0.88515625 0.19140625 0.06328125 0.06484375
1 0.91484375 0.58828125 0.1046875 0.0734375
2 0.633984375 0.050390625 0.045703125 0.043359375
5 0.5453125 0.691796875 0.0734375 0.044140625
1 0.88125 0.27734375 0.078125 0.061328125
2 0.06875 0.501171875 0.04765625 0.045703125
8 0.628125 0.809375 0.098046875 0.07890625
5 0.537109375 0.47109375 0.119921875 0.08359375
2 0.660546875 0.1953125 0.050390625 0.049609375
8 0.33515625 0.469140625 0.064453125 0.061328125
5 0.551953125 0.6328125 0.062109375 0.042578125
1 0.8734375 0.51484375 0.055859375 0.05
8 0.62265625 0.7125 0.063671875 0.040625
1 0.8140625 0.68203125 0.0546875 0.054296875
2 0.080078125 0.58515625 0.050390625 0.04453125
2 0.069140625 0.388671875 0.051953125 0.052734375
5 0.513671875 0.37421875 0.123828125 0.088671875
2 0.7734375 0.534375 0.05 0.050390625
8 0.5078125 0.958984375 0.0859375 0.0328125
5 0.537890625 0.819140625 0.041015625 0.028515625
5 0.578125 0.284765625 0.059765625 0.059375
0 0.13046875 0.430859375 0.046484375 0.036328125
9 0.762890625 0.344140625 0.057421875 0.059375
8 0.448046875 0.6484375 0.116796875 0.037109375
9 0.705078125 0.496875 0.045703125 0.03984375
8 0.475 0.549609375 0.054296875 0.040234375
1 0.69296875 0.09609375 0.062109375 0.051171875
8 0.714453125 0.866015625 0.085546875 0.097265625
8 0.464453125 0.859375 0.0734375 0.03046875
8 0.176171875 0.35 0.109375 0.067578125
9 0.859765625 0.780859375 0.054296875 0.03515625
8 0.715234375 0.962890625 0.058984375 0.032421875
9 0.980078125 0.26171875 0.038671875 0.04296875
2 0.730859375 0.424609375 0.04765625 0.051171875
8 0.38203125 0.4484375 0.051171875 0.03359375
1 0.88359375 0.3703125 0.1390625 0.154296875
1 0.660546875 0.345703125 0.123828125 0.133203125
1 0.82734375 0.864453125 0.156640625 0.15078125
1 0.143359375 0.259375 0.051171875 0.045703125
1 0.165234375 0.619140625 0.06328125 0.06484375
1 0.175 0.755859375 0.051171875 0.072265625
1 0.215234375 0.716015625 0.040625 0.028125
5 0.31484375 0.741015625 0.130078125 0.08125
8 0.269140625 0.699609375 0.066796875 0.03984375
7 0.2671875 0.698046875 0.326953125 0.276171875
7 0.235546875 0.97421875 0.270703125 0.0515625
5 0.226953125 0.97734375 0.04921875 0.0453125
2 0.699609375 0.266015625 0.0421875 0.053125
8 0.2109375 0.4046875 0.0703125 0.044140625