3 0.365234375 0.1 0.073828125 0.0578125
10 0.555859375 0.109765625 0.04609375 0.050390625
10 0.633203125 0.0859375 0.0546875 0.05546875
0 0.6609375 0.640625 0.0625 0.05703125
6 0.59296875 0.499609375 0.0546875 0.050390625
0 0.694921875 0.705859375 0.035546875 0.037109375
8 0.1171875 0.1 0.077734375 0.081640625
10 0.600390625 0.237890625 0.054296875 0.060546875
1 0.33828125 0.733203125 0.051171875 0.046875
6 0.81171875 0.666796875 0.03828125 0.03203125
6 0.9125 0.666015625 0.06171875 0.066796875
10 0.5265625 0.65234375 0.0390625 0.03046875
0 0.7734375 0.7046875 0.051171875 0.048828125
6 0.61171875 0.607421875 0.0546875 0.050390625
10 0.584375 0.41796875 0.040625 0.04375
6 0.8625 0.55546875 0.05 0.037890625
10 0.810546875 0.619921875 0.0296875 0.030078125
1 0.395703125 0.4828125 0.1109375 0.098046875
6 0.179296875 0.619921875 0.082421875 0.056640625
6 0.06953125 0.783203125 0.0828125 0.074609375
6 0.257421875 0.469140625 0.048828125 0.036328125
10 0.5375 0.537890625 0.0453125 0.0421875
0 0.246484375 0.028125 0.093359375 0.05625
6 0.872265625 0.76015625 0.0375 0.030078125
8 0.030078125 0.09921875 0.06015625 0.065625
6 0.947265625 0.202734375 0.06171875 0.06953125
1 0.910546875 0.72734375 0.035546875 0.034375
10 0.5734375 0.30625 0.06171875 0.060546875
3 0.3484375 0.334765625 0.072265625 0.055078125
3 0.917578125 0.353125 0.03359375 0.031640625
10 0.546875 0.70625 0.0265625 0.026171875
3 0.47734375 0.027734375 0.051171875 0.04765625
1 0.300390625 0.644921875 0.036328125 0.033984375
10 0.562890625 0.569140625 0.053125 0.05625
1 0.45 0.729296875 0.055859375 0.0484375
6 0.055859375 0.95625 0.11171875 0.0859375
6 0.26875 0.401171875 0.07265625 0.067578125
9 0.9671875 0.05859375 0.0625 0.1171875
8 0.07265625 0.629296875 0.038671875 0.03203125
8 0.28828125 0.725390625 0.059375 0.037890625
6 0.536328125 0.016015625 0.0640625 0.030078125
6 0.27578125 0.51953125 0.04921875 0.033984375
7 0.76328125 0.09765625 0.0390625 0.048046875
6 0.498828125 0.6046875 0.050390625 0.048046875
10 0.601171875 0.7546875 0.02265625 0.0171875
6 0.520703125 0.708203125 0.03125 0.026953125
7 0.937109375 0.51328125 0.05625 0.04375
9 0.86171875 0.50703125 0.05859375 0.055078125
10 0.623046875 0.798046875 0.019921875 0.01796875
1 0.496484375 0.4140625 0.0609375 0.06015625
1 0.24921875 0.262890625 0.10703125 0.17109375
8 0.98671875 0.5875 0.0234375 0.029296875
6 0.5953125 0.7109375 0.035546875 0.04140625
6 0.803125 0.7390625 0.0265625 0.036328125
0 0.734765625 0.566796875 0.05234375 0.062890625
6 0.753125 0.765234375 0.069140625 0.058984375
9 0.88125 0.18828125 0.0640625 0.10859375
6 0.832421875 0.014453125 0.04609375 0.026171875
7 0.823828125 0.133984375 0.055859375 0.06796875
1 0.983203125 0.2296875 0.03203125 0.051171875
8 0.2234375 0.544921875 0.050390625 0.042578125
10 0.636328125 0.0171875 0.069140625 0.034375
6 0.495703125 0.736328125 0.0515625 0.0453125
3 0.46953125 0.63359375 0.034765625 0.02890625
6 0.597265625 0.6953125 0.0328125 0.033984375
1 0.862109375 0.683984375 0.03125 0.021484375
1 0.791015625 0.505859375 0.034765625 0.029296875
6 0.682421875 0.3359375 0.06640625 0.05625
7 0.694921875 0.4140625 0.021875 0.024609375
1 0.44921875 0.347265625 0.069921875 0.105078125
1 0.44375 0.200390625 0.099609375 0.169921875
1 0.38046875 0.206640625 0.04140625 0.107421875
2 0.33125 0.187109375 0.03828125 0.053125
1 0.4109375 0.648828125 0.040234375 0.054296875
2 0.39453125 0.488671875 0.1984375 0.116796875
6 0.15078125 0.20703125 0.03203125 0.04765625
6 0.139453125 0.2390625 0.037109375 0.04765625
8 0.1859375 0.36328125 0.063671875 0.067578125
8 0.15859375 0.723828125 0.024609375 0.03203125
8 0.15546875 0.79296875 0.01796875 0.023828125
8 0.126171875 0.591015625 0.0296875 0.0265625
8 0.029296875 0.538671875 0.028515625 0.0359375
0 0.1046875 0.381640625 0.039453125 0.03046875
0 0.06796875 0.221875 0.0234375 0.0265625
0 0.103125 0.291015625 0.0234375 0.0453125
0 0.669140625 0.24765625 0.058203125 0.107421875
0 0.887890625 0.08046875 0.039453125 0.073046875
8 0.250390625 0.671484375 0.033984375 0.046484375
9 0.931640625 0.427734375 0.08828125 0.071875
10 0.563671875 0.7421875 0.01484375 0.02109375
7 0.719921875 0.267578125 0.019140625 0.0703125
0 0.721484375 0.339453125 0.0203125 0.051953125
8 0.721484375 0.211328125 0.0265625 0.037109375
8 0.82109375 0.316796875 0.024609375 0.046484375
8 0.803125 0.3765625 0.024609375 0.0703125
8 0.819140625 0.437109375 0.043359375 0.0265625
3 0.889453125 0.324609375 0.0296875 0.051953125
5 0.850390625 0.29609375 0.027734375 0.034375
5 0.745703125 0.309375 0.016015625 0.0265625
5 0.70859375 0.087109375 0.03515625 0.05703125
5 0.676171875 0.53046875 0.0234375 0.02265625
5 0.806640625 0.546484375 0.019140625 0.027734375
9 0.869921875 0.617578125 0.0265625 0.029296875
6 0.513671875 0.2421875 0.05078125 0.118359375
8 0.7296875 0.696484375 0.016015625 0.019921875
8 0.70859375 0.562890625 0.016015625 0.04765625
2 0.6890625 0.51640625 0.065625 0.082421875
2 0.6703125 0.285546875 0.109375 0.37734375
2 0.7171875 0.57578125 0.10078125 0.187109375
2 0.7265625 0.719140625 0.04765625 0.118359375
5 0.8796875 0.383984375 0.022265625 0.023828125
8 0.65078125 0.69375 0.012890625 0.0171875
2 0.81796875 0.732421875 0.05625 0.078515625
10 0.834765625 0.75234375 0.007421875 0.006640625
0 0.9734375 0.7203125 0.03828125 0.04921875