10 0.326171875 0.376953125 0.06953125 0.06640625
3 0.446484375 0.514453125 0.05078125 0.03984375
10 0.7265625 0.098828125 0.09375 0.08984375
10 0.8171875 0.423828125 0.0625 0.05859375
10 0.7703125 0.78515625 0.06875 0.0671875
10 0.85703125 0.337890625 0.0453125 0.0453125
10 0.676953125 0.2546875 0.0578125 0.0625
10 0.3453125 0.0546875 0.071875 0.0640625
10 0.267578125 0.221484375 0.06015625 0.06015625
3 0.38359375 0.46796875 0.0609375 0.0609375
10 0.140625 0.37578125 0.046875 0.0453125
10 0.31796875 0.898046875 0.0765625 0.10234375
10 0.7890625 0.669921875 0.0375 0.03671875
3 0.380859375 0.296484375 0.053125 0.053125
10 0.0921875 0.20546875 0.0375 0.0359375
6 0.521875 0.51015625 0.05390625 0.05390625
10 0.313671875 0.592578125 0.0515625 0.05078125
3 0.844921875 0.70546875 0.04140625 0.0375
10 0.160546875 0.090234375 0.04609375 0.04453125
10 0.31640625 0.753125 0.0390625 0.0765625
6 0.502734375 0.571875 0.06640625 0.05
3 0.862109375 0.376171875 0.03984375 0.03984375
6 0.902734375 0.66484375 0.03984375 0.0421875
10 0.325390625 0.29296875 0.04140625 0.04375
10 0.80703125 0.583203125 0.0453125 0.05078125
3 0.92265625 0.512109375 0.0421875 0.0421875
6 0.5046875 0.133203125 0.05703125 0.0578125
6 0.552734375 0.937890625 0.05390625 0.05390625
6 0.8578125 0.955859375 0.028125 0.0375
3 0.376171875 0.905078125 0.0453125 0.05078125
6 0.921875 0.423828125 0.04375 0.04921875
3 0.372265625 0.676953125 0.0546875 0.046875
10 0.313671875 0.676953125 0.03828125 0.0390625
10 0.390625 0.130859375 0.040625 0.040625
10 0.331640625 0.167578125 0.03828125 0.03671875
3 0.4328125 0.97265625 0.05 0.0453125
3 0.44609375 0.097265625 0.0484375 0.04609375
10 0.76484375 0.892578125 0.03125 0.02734375
6 0.4515625 0.291796875 0.0640625 0.0640625
6 0.448046875 0.052734375 0.0578125 0.05546875
10 0.7390625 0.292578125 0.034375 0.034375
3 0.4421875 0.33515625 0.0515625 0.0515625
3 0.80078125 0.986328125 0.040625 0.02734375
10 0.511328125 0.467578125 0.04296875 0.04296875
3 0.86328125 0.8859375 0.0375 0.03671875
6 0.882421875 0.139453125 0.03046875 0.03515625
10 0.388671875 0.334765625 0.040625 0.040625
3 0.4296875 0.7109375 0.0515625 0.040625
3 0.390234375 0.170703125 0.04765625 0.03671875
6 0.87734375 0.8140625 0.0390625 0.040625
6 0.54921875 0.977734375 0.046875 0.04453125
10 0.8015625 0.295703125 0.0296875 0.02734375
10 0.750390625 0.378125 0.03359375 0.03125
10 0.746875 0.337109375 0.0328125 0.0328125
3 0.3703125 0.8359375 0.0484375 0.0375
10 0.771484375 0.85546875 0.03203125 0.0296875
6 0.501171875 0.75859375 0.071875 0.071875
3 0.829296875 0.014453125 0.05859375 0.02890625
10 0.757421875 0.92421875 0.03046875 0.028125
10 0.74921875 0.990625 0.0203125 0.01875
10 0.75390625 0.95859375 0.0296875 0.0296875
10 0.31640625 0.975390625 0.053125 0.04921875
6 0.50390625 0.0921875 0.0578125 0.040625
10 0.388671875 0.148046875 0.04921875 0.05
10 0.76328125 0.908203125 0.034375 0.03359375
10 0.741796875 0.303515625 0.03828125 0.0390625
2 0.73046875 0.20390625 0.090625 0.090625
6 0.50078125 0.713671875 0.059375 0.03671875