3 0.24140625 0.430859375 0.0578125 0.05546875
3 0.55625 0.536328125 0.06796875 0.06796875
10 0.63203125 0.238671875 0.03359375 0.034375
3 0.416796875 0.259375 0.06640625 0.053125
3 0.221875 0.69375 0.0703125 0.0703125
3 0.411328125 0.653125 0.065625 0.065625
10 0.78984375 0.75078125 0.046875 0.0484375
3 0.4703125 0.81953125 0.06875 0.075
10 0.570703125 0.807421875 0.06015625 0.06171875
10 0.79765625 0.61171875 0.0578125 0.0546875
10 0.635546875 0.47890625 0.04375 0.0484375
10 0.61171875 0.66875 0.0453125 0.065625
3 0.290234375 0.87421875 0.10625 0.10625
3 0.559375 0.230859375 0.03125 0.02578125
3 0.513671875 0.13359375 0.02890625 0.0296875
3 0.51328125 0.481640625 0.040625 0.04609375
10 0.73671875 0.909765625 0.08515625 0.08515625
10 0.658984375 0.415625 0.0296875 0.0296875
10 0.613671875 0.55 0.02109375 0.040625
10 0.621875 0.76875 0.021875 0.0515625