3 0.75859375 0.569140625 0.0578125 0.05546875
3 0.44375 0.463671875 0.0671875 0.06875
10 0.36796875 0.761328125 0.03359375 0.034375
3 0.583203125 0.740625 0.06640625 0.053125
3 0.778125 0.30625 0.0734375 0.0671875
3 0.588671875 0.346875 0.06484375 0.0671875
10 0.21015625 0.24921875 0.046875 0.0484375
3 0.5296875 0.18046875 0.071875 0.071875
10 0.429296875 0.192578125 0.06015625 0.06171875
10 0.20234375 0.38828125 0.0578125 0.0546875
10 0.364453125 0.52109375 0.04375 0.0484375
10 0.38828125 0.33125 0.05546875 0.05546875
3 0.709765625 0.12578125 0.10234375 0.1109375
3 0.440625 0.769140625 0.02890625 0.02890625
3 0.486328125 0.86640625 0.02890625 0.0296875
3 0.48671875 0.518359375 0.04375 0.04296875
10 0.26328125 0.090234375 0.08515625 0.08515625
10 0.341015625 0.584375 0.028125 0.03125
10 0.386328125 0.45 0.02109375 0.040625
10 0.378125 0.23125 0.03671875 0.03671875