6 0.656640625 0.5421875 0.12734375 0.0421875
3 0.852734375 0.437109375 0.06796875 0.06796875
3 0.083984375 0.327734375 0.08203125 0.07734375
9 0.794140625 0.632421875 0.07109375 0.08515625
6 0.4453125 0.496484375 0.0921875 0.0796875
3 0.633984375 0.2609375 0.0609375 0.0625
3 0.567578125 0.3078125 0.046875 0.053125
1 0.10390625 0.223046875 0.0671875 0.07109375
1 0.61171875 0.35703125 0.0359375 0.0421875
1 0.94765625 0.371875 0.0390625 0.034375
6 0.89296875 0.672265625 0.046875 0.04609375
6 0.78828125 0.748828125 0.065625 0.06015625
0 0.963671875 0.500390625 0.06328125 0.06796875
3 0.43984375 0.392578125 0.0546875 0.05390625
0 0.298828125 0.669140625 0.05703125 0.0546875
3 0.757421875 0.401171875 0.03984375 0.04140625
2 0.960546875 0.2796875 0.04609375 0.053125
0 0.717578125 0.8140625 0.0296875 0.0296875
9 0.316015625 0.825 0.0375 0.03125
0 0.569921875 0.4640625 0.02734375 0.0296875
6 0.18515625 0.485546875 0.0359375 0.03515625
9 0.55625 0.55546875 0.0390625 0.0453125
0 0.266015625 0.715625 0.0453125 0.046875
0 0.364453125 0.628125 0.02734375 0.025
0 0.232421875 0.77265625 0.03125 0.03125
9 0.562109375 0.807421875 0.06171875 0.04921875
3 0.450390625 0.29375 0.02734375 0.0328125
5 0.725 0.65078125 0.028125 0.02890625
0 0.58046875 0.629296875 0.0390625 0.04140625
7 0.478515625 0.95390625 0.01953125 0.0171875
3 0.611328125 0.467578125 0.02109375 0.02265625
0 0.765625 0.812890625 0.034375 0.03359375
0 0.844921875 0.656640625 0.03046875 0.03046875
6 0.568359375 0.945703125 0.0265625 0.0234375
5 0.518359375 0.9125 0.11015625 0.0390625
1 0.741796875 0.26484375 0.04296875 0.04375
9 0.4203125 0.844921875 0.0625 0.0625
5 0.81015625 0.8109375 0.0265625 0.021875
0 0.761328125 0.704296875 0.03203125 0.03125
0 0.41171875 0.8921875 0.0296875 0.071875
3 0.84140625 0.215625 0.0984375 0.0734375
1 0.3921875 0.3 0.04375 0.046875
9 0.519921875 0.715625 0.05703125 0.05625
0 0.907421875 0.732421875 0.02265625 0.02734375
9 0.644140625 0.79765625 0.05234375 0.046875
7 0.5328125 0.8546875 0.05 0.040625
7 0.245703125 0.9875 0.06328125 0.025
7 0.512890625 0.97734375 0.0375 0.021875
5 0.66171875 0.8984375 0.0640625 0.0640625
0 0.65390625 0.834375 0.025 0.028125
9 0.651953125 0.716015625 0.05703125 0.05703125
7 0.355859375 0.987109375 0.09921875 0.02578125
1 0.95234375 0.16484375 0.03671875 0.03671875
3 0.6546875 0.00859375 0.028125 0.0140625
2 0.836328125 0.160546875 0.32734375 0.24765625
1 0.84453125 0.10234375 0.053125 0.05625
1 0.5578125 0.052734375 0.0953125 0.10546875
1 0.415625 0.05234375 0.109375 0.1046875
2 0.225 0.0875 0.21875 0.15625
2 0.267578125 0.4 0.1265625 0.12734375
2 0.43515625 0.687890625 0.1546875 0.1546875
2 0.32734375 0.8828125 0.0484375 0.071875
2 0.226171875 0.847265625 0.06171875 0.06796875
2 0.84453125 0.53984375 0.04375 0.0421875
2 0.778125 0.53828125 0.0421875 0.0421875
2 0.7171875 0.684375 0.040625 0.0265625
2 0.466015625 0.275390625 0.08828125 0.20390625
0 0.724609375 0.46953125 0.0296875 0.0296875
0 0.544921875 0.619921875 0.05234375 0.05234375
0 0.226171875 0.7234375 0.03671875 0.03125
0 0.355078125 0.791015625 0.04140625 0.04140625
5 0.7625 0.8828125 0.08125 0.059375
2 0.253515625 0.51171875 0.246875 0.246875
2 0.932421875 0.448828125 0.13515625 0.15390625
2 0.65078125 0.9375 0.11484375 0.115625
2 0.4734375 0.86328125 0.03515625 0.0359375