6 0.5421875 0.343359375 0.0421875 0.12734375
3 0.437109375 0.147265625 0.06796875 0.06796875
3 0.327734375 0.916015625 0.07734375 0.08203125
9 0.632421875 0.205859375 0.08515625 0.07109375
6 0.496484375 0.5546875 0.0859375 0.0859375
3 0.2609375 0.366015625 0.0625 0.0609375
3 0.3078125 0.432421875 0.053125 0.046875
1 0.223046875 0.89609375 0.07109375 0.0671875
1 0.35703125 0.38828125 0.0421875 0.0359375
1 0.371875 0.05234375 0.034375 0.0390625
6 0.672265625 0.10703125 0.046875 0.046875
6 0.748828125 0.21171875 0.06015625 0.065625
0 0.500390625 0.036328125 0.06796875 0.06328125
3 0.392578125 0.56015625 0.05390625 0.0546875
0 0.669140625 0.701171875 0.0546875 0.05703125
3 0.401171875 0.242578125 0.040625 0.040625
2 0.2796875 0.039453125 0.053125 0.04609375
0 0.8140625 0.282421875 0.0296875 0.02890625
9 0.825 0.683984375 0.03125 0.0375
0 0.4640625 0.430078125 0.0296875 0.02734375
6 0.485546875 0.81484375 0.03515625 0.0359375
9 0.55546875 0.44375 0.0453125 0.0390625
0 0.715625 0.733984375 0.04609375 0.04609375
0 0.628125 0.635546875 0.025 0.02734375
0 0.77265625 0.767578125 0.034375 0.02734375
9 0.807421875 0.437890625 0.05546875 0.05546875
3 0.29375 0.549609375 0.0328125 0.02734375
5 0.65078125 0.275 0.02890625 0.028125
0 0.629296875 0.41953125 0.040625 0.040625
7 0.95390625 0.521484375 0.0171875 0.01953125
3 0.467578125 0.388671875 0.021875 0.021875
0 0.812890625 0.234375 0.03359375 0.034375
0 0.656640625 0.155078125 0.03046875 0.03046875
6 0.945703125 0.431640625 0.025 0.025
5 0.9125 0.481640625 0.0390625 0.11015625
1 0.26484375 0.258203125 0.0421875 0.04453125
9 0.844921875 0.5796875 0.0359375 0.0890625
5 0.8109375 0.18984375 0.021875 0.0265625
0 0.704296875 0.238671875 0.03125 0.03203125
0 0.8921875 0.58828125 0.05078125 0.0515625
3 0.215625 0.15859375 0.0859375 0.0859375
1 0.3 0.6078125 0.046875 0.04375
9 0.715625 0.480078125 0.040625 0.07265625
0 0.732421875 0.092578125 0.025 0.025
9 0.79765625 0.355859375 0.046875 0.05234375
7 0.8546875 0.4671875 0.040625 0.05
7 0.9875 0.754296875 0.025 0.06328125
7 0.97734375 0.487109375 0.0296875 0.0296875
5 0.8984375 0.33828125 0.0640625 0.0640625
0 0.834375 0.34609375 0.0265625 0.0265625
9 0.716015625 0.348046875 0.046875 0.0671875
7 0.987109375 0.644140625 0.02578125 0.09921875
1 0.16484375 0.04765625 0.040625 0.0328125
3 0.00859375 0.3453125 0.0140625 0.028125
2 0.160546875 0.163671875 0.24765625 0.32734375
1 0.10234375 0.15546875 0.0546875 0.0546875
1 0.052734375 0.4421875 0.10546875 0.0953125
1 0.050390625 0.584765625 0.10078125 0.11796875
2 0.090234375 0.774609375 0.18046875 0.18671875
2 0.4 0.732421875 0.12734375 0.1265625
2 0.687890625 0.56484375 0.19140625 0.1171875
2 0.8828125 0.67265625 0.071875 0.0484375
2 0.847265625 0.773828125 0.06796875 0.06171875
2 0.53984375 0.15546875 0.0421875 0.04296875
2 0.53828125 0.221875 0.0421875 0.0421875
2 0.684375 0.2828125 0.0265625 0.040625
2 0.275390625 0.533984375 0.14609375 0.14609375
0 0.46953125 0.275390625 0.0296875 0.0296875
0 0.619921875 0.455078125 0.05234375 0.05234375
0 0.7234375 0.773828125 0.034375 0.034375
0 0.791015625 0.644921875 0.05078125 0.03203125
5 0.8828125 0.2375 0.059375 0.08125
2 0.51171875 0.746484375 0.1375 0.35703125
2 0.448828125 0.067578125 0.15390625 0.13515625
2 0.9375 0.34921875 0.115625 0.11484375
2 0.86328125 0.5265625 0.0390625 0.03125