0 0.858203125 0.55859375 0.11796875 0.1921875
3 0.496875 0.566015625 0.034375 0.05
1 0.68203125 0.796875 0.0765625 0.1328125
9 0.726953125 0.162890625 0.04453125 0.04296875
10 0.57109375 0.29140625 0.0421875 0.0421875
3 0.57265625 0.48984375 0.04765625 0.04765625
3 0.341015625 0.481640625 0.034375 0.05546875
0 0.547265625 0.369140625 0.06875 0.07421875
10 0.854296875 0.219140625 0.06328125 0.075
3 0.78515625 0.6671875 0.034375 0.0515625
3 0.7578125 0.644921875 0.0328125 0.04453125
3 0.691015625 0.566796875 0.03359375 0.040625
3 0.518359375 0.4890625 0.034375 0.040625
7 0.416796875 0.64140625 0.04140625 0.075
0 0.630078125 0.201953125 0.04453125 0.0578125
7 0.784375 0.9546875 0.075 0.059375
2 0.79296875 0.8921875 0.0328125 0.03125
3 0.875 0.744140625 0.0375 0.05625
3 0.4734375 0.52578125 0.03125 0.03125
3 0.629296875 0.567578125 0.02734375 0.04921875
2 0.85859375 0.8734375 0.03203125 0.03203125
8 0.7390625 0.709375 0.046875 0.053125
10 0.63046875 0.294140625 0.046875 0.046875
5 0.778515625 0.30078125 0.03203125 0.0328125
0 0.357421875 0.3640625 0.1109375 0.1109375
3 0.443359375 0.453515625 0.02578125 0.05703125
9 0.466015625 0.30546875 0.025 0.0296875
7 0.542578125 0.850390625 0.02734375 0.0328125
10 0.389453125 0.247265625 0.03359375 0.034375
7 0.669921875 0.894921875 0.0234375 0.0234375
8 0.55703125 0.751171875 0.015625 0.0234375
5 0.9078125 0.241796875 0.0234375 0.04453125
8 0.32890625 0.2984375 0.034375 0.034375
8 0.469140625 0.347265625 0.02421875 0.02421875
7 0.493359375 0.265625 0.0359375 0.03515625
10 0.461328125 0.20078125 0.046875 0.04765625
5 0.89609375 0.93828125 0.01875 0.0203125
10 0.48359375 0.158984375 0.03515625 0.034375
0 0.698828125 0.4828125 0.10390625 0.078125
9 0.686328125 0.16640625 0.02421875 0.025
1 0.591796875 0.63359375 0.07421875 0.07421875
3 0.37578125 0.42421875 0.0171875 0.0203125
6 0.385546875 0.17109375 0.03359375 0.0359375
8 0.578125 0.187890625 0.021875 0.03203125
10 0.272265625 0.33515625 0.03203125 0.05
0 0.505859375 0.38984375 0.01875 0.028125
8 0.651953125 0.314453125 0.021875 0.021875
8 0.607421875 0.715625 0.01796875 0.0171875
8 0.74375 0.82265625 0.02421875 0.02421875
8 0.405859375 0.328515625 0.01640625 0.02421875
5 0.734375 0.23671875 0.025 0.034375
8 0.366796875 0.55625 0.0171875 0.028125
8 0.51796875 0.2234375 0.01875 0.021875
6 0.67890625 0.23125 0.015625 0.0265625
8 0.487109375 0.708984375 0.01875 0.03203125
6 0.341015625 0.192578125 0.0328125 0.02421875
6 0.42109375 0.18203125 0.015625 0.015625
8 0.60546875 0.421875 0.0203125 0.0203125
2 0.866796875 0.37578125 0.034375 0.0484375
7 0.743359375 0.06328125 0.0625 0.0328125
8 0.572265625 0.42734375 0.01484375 0.0234375
7 0.565234375 0.68828125 0.01484375 0.025
5 0.939453125 0.290625 0.02265625 0.0296875
2 0.729296875 0.908203125 0.0296875 0.02890625
5 0.595703125 0.06796875 0.02890625 0.028125
10 0.3375 0.615625 0.02890625 0.02890625
10 0.646484375 0.129296875 0.01796875 0.01875
6 0.63203125 0.046484375 0.03125 0.028125
5 0.502734375 0.817578125 0.02109375 0.02109375
1 0.92578125 0.79921875 0.059375 0.059375
8 0.37421875 0.621875 0.021875 0.021875
7 0.4296875 0.1 0.028125 0.03125
5 0.408203125 0.6796875 0.021875 0.0328125
7 0.479296875 0.73671875 0.0484375 0.0859375
5 0.489453125 0.802734375 0.01171875 0.0203125
5 0.60625 0.91640625 0.0125 0.0296875
8 0.601953125 0.861328125 0.01015625 0.01953125
5 0.593359375 0.900390625 0.01796875 0.0125
5 0.660546875 0.91796875 0.01953125 0.0296875
0 0.62578125 0.357421875 0.015625 0.03828125
2 0.79296875 0.3953125 0.03125 0.0390625
2 0.934765625 0.424609375 0.03125 0.04609375
2 0.8234375 0.790625 0.021875 0.0515625
8 0.859765625 0.826171875 0.046875 0.01796875
0 0.959375 0.60625 0.0546875 0.06328125
10 0.912109375 0.1390625 0.15078125 0.115625
6 0.80390625 0.08125 0.0515625 0.025
6 0.565234375 0.10859375 0.0921875 0.0578125
6 0.6625 0.078125 0.05703125 0.05703125
6 0.6890625 0.059765625 0.0375 0.04296875
6 0.30546875 0.168359375 0.0578125 0.04765625
0 0.447265625 0.571484375 0.0640625 0.09453125
1 0.465625 0.64921875 0.075 0.0796875
0 0.38203125 0.50703125 0.0546875 0.0546875
1 0.744140625 0.091796875 0.0765625 0.04296875
0 0.41328125 0.133203125 0.025 0.01875
1 0.57890625 0.138671875 0.040625 0.0375
7 0.36796875 0.14609375 0.021875 0.0171875
7 0.356640625 0.16484375 0.0203125 0.0203125
7 0.3453125 0.148046875 0.021875 0.021875
1 0.38125 0.391796875 0.01875 0.02109375
7 0.49296875 0.070703125 0.0390625 0.03359375
8 0.551171875 0.042578125 0.05234375 0.02734375
2 0.89453125 0.767578125 0.1859375 0.1421875
2 0.707421875 0.27421875 0.228125 0.23125
2 0.591015625 0.665234375 0.14296875 0.18046875