10 0.283984375 0.820703125 0.10390625 0.04921875
0 0.4375 0.80859375 0.0921875 0.071875
8 0.52890625 0.772265625 0.090625 0.090625
5 0.861328125 0.905078125 0.12578125 0.08046875
1 0.04765625 0.82421875 0.09375 0.1296875
10 0.960546875 0.309375 0.07890625 0.0859375
1 0.81640625 0.37265625 0.065625 0.065625
1 0.687109375 0.10546875 0.11875 0.05
5 0.637890625 0.608203125 0.06328125 0.04453125
1 0.1546875 0.4453125 0.1515625 0.11875
1 0.233203125 0.61484375 0.12578125 0.1
7 0.45703125 0.25546875 0.11875 0.0671875
8 0.740625 0.66484375 0.096875 0.0765625
0 0.322265625 0.42421875 0.06171875 0.0359375
9 0.4171875 0.736328125 0.03828125 0.03828125
0 0.609375 0.704296875 0.05625 0.05234375
8 0.748828125 0.83984375 0.05234375 0.0375
1 0.82421875 0.283203125 0.0859375 0.05703125
1 0.740625 0.187109375 0.053125 0.02890625
10 0.2453125 0.2015625 0.0765625 0.0765625
5 0.610546875 0.212890625 0.05703125 0.03828125
7 0.7671875 0.544921875 0.06875 0.05703125
5 0.94296875 0.956640625 0.1046875 0.08671875
8 0.659765625 0.963671875 0.11015625 0.06875
10 0.3375 0.140234375 0.04140625 0.0421875
1 0.029296875 0.425 0.05859375 0.0578125
0 0.388671875 0.9109375 0.159375 0.159375
5 0.5796875 0.48046875 0.096875 0.0609375
1 0.8171875 0.60625 0.0515625 0.046875
5 0.75859375 0.787109375 0.0484375 0.03203125
9 0.919140625 0.692578125 0.09921875 0.09140625
5 0.666796875 0.760546875 0.08046875 0.08046875
6 0.143359375 0.332421875 0.08828125 0.0515625
10 0.96953125 0.43984375 0.0609375 0.05
0 0.387890625 0.4828125 0.09765625 0.0453125
10 0.96171875 0.569921875 0.0765625 0.06484375
5 0.69765625 0.293359375 0.05 0.02890625
1 0.101953125 0.263671875 0.12265625 0.07578125
10 0.371875 0.657421875 0.0390625 0.03046875
1 0.02265625 0.630859375 0.0453125 0.05703125
2 0.171875 0.804296875 0.0640625 0.0390625
7 0.637890625 0.423046875 0.06328125 0.03515625
1 0.891015625 0.521484375 0.06796875 0.05390625
7 0.705078125 0.21171875 0.04296875 0.04375
1 0.387109375 0.215234375 0.06484375 0.053125
5 0.840234375 0.480078125 0.034375 0.034375
0 0.4359375 0.60078125 0.05078125 0.05078125
5 0.87734375 0.5703125 0.0609375 0.046875
5 0.687109375 0.233984375 0.0796875 0.07578125
10 0.363671875 0.275390625 0.03125 0.03125
5 0.71171875 0.3828125 0.03515625 0.03515625
7 0.556640625 0.386328125 0.05546875 0.03515625
6 0.087890625 0.36015625 0.1125 0.04921875
5 0.53125 0.273828125 0.0953125 0.06640625
0 0.303125 0.3140625 0.078125 0.0546875
5 0.62890625 0.382421875 0.0421875 0.02734375
2 0.583984375 0.457421875 0.23359375 0.16015625
5 0.677734375 0.4734375 0.01953125 0.040625
2 0.237109375 0.903125 0.04921875 0.04921875
2 0.225390625 0.695703125 0.06015625 0.06015625
2 0.971875 0.881640625 0.05625 0.0484375
2 0.852734375 0.785546875 0.059375 0.059375
2 0.8265625 0.677734375 0.0625 0.04921875
2 0.920703125 0.559765625 0.1546875 0.1546875
2 0.962109375 0.3140625 0.07578125 0.1328125
10 0.9421875 0.207421875 0.0265625 0.0171875