6 0.501953125 0.5875 0.096875 0.091015625
6 0.54921875 0.380078125 0.0625 0.116796875
9 0.6421875 0.224609375 0.09765625 0.07109375
3 0.3109375 0.901953125 0.081640625 0.066796875
1 0.197265625 0.87421875 0.06875 0.0546875
9 0.942578125 0.308984375 0.090625 0.06796875
3 0.366015625 0.58984375 0.070703125 0.058984375
0 0.77578125 0.71171875 0.083984375 0.070703125
3 0.198828125 0.46953125 0.062109375 0.041015625
9 0.96796875 0.42578125 0.063671875 0.039453125
3 0.25 0.508203125 0.0578125 0.042578125
6 0.840234375 0.16640625 0.094140625 0.081640625
9 0.791796875 0.328125 0.075 0.06015625
1 0.3046875 0.4609375 0.053125 0.03203125
3 0.379296875 0.24453125 0.0921875 0.05390625
3 0.346875 0.333203125 0.0453125 0.034375
10 0.58828125 0.4703125 0.04296875 0.033984375
6 0.7046875 0.10625 0.06015625 0.058203125
7 0.940625 0.11953125 0.03515625 0.03203125
0 0.871875 0.750390625 0.07421875 0.050390625
3 0.123046875 0.35546875 0.07265625 0.058203125
6 0.504296875 0.819921875 0.03125 0.03203125
3 0.37578125 0.103515625 0.053125 0.030078125
0 0.7171875 0.64609375 0.03046875 0.030078125
6 0.6921875 0.280859375 0.031640625 0.028125
0 0.675 0.433203125 0.055078125 0.04765625
3 0.22265625 0.606640625 0.032421875 0.025
3 0.09140625 0.323046875 0.073046875 0.056640625
1 0.075390625 0.25546875 0.066796875 0.044140625
9 0.81484375 0.47109375 0.05234375 0.09296875
3 0.446484375 0.440625 0.025390625 0.017578125
10 0.331640625 0.61015625 0.0296875 0.028515625
0 0.45078125 0.477734375 0.03671875 0.023828125
0 0.98046875 0.783984375 0.0390625 0.0328125
10 0.25625 0.64609375 0.05078125 0.046875
1 0.298046875 0.18828125 0.03203125 0.036328125
0 0.405859375 0.140234375 0.041015625 0.040234375
9 0.501171875 0.044921875 0.0328125 0.0171875
3 0.45546875 0.12578125 0.03125 0.03828125
1 0.1421875 0.029296875 0.036328125 0.03828125
1 0.137109375 0.097265625 0.0265625 0.02109375
2 0.190234375 0.140234375 0.03984375 0.03984375
2 0.193359375 0.209765625 0.03984375 0.0296875
1 0.2015625 0.389453125 0.052734375 0.02734375
1 0.028125 0.555078125 0.05625 0.065625
1 0.023046875 0.64765625 0.04609375 0.0734375
2 0.930859375 0.476171875 0.135546875 0.089453125
2 0.86640625 0.461328125 0.092578125 0.09921875
2 0.788671875 0.57421875 0.330859375 0.119140625
2 0.544921875 0.746484375 0.1703125 0.35234375
2 0.38203125 0.75078125 0.108984375 0.144921875
2 0.228125 0.60390625 0.24140625 0.079296875
2 0.052734375 0.78671875 0.09921875 0.14765625
2 0.093359375 0.3 0.180078125 0.35234375
2 0.402734375 0.1078125 0.206640625 0.191015625
9 0.477734375 0.11171875 0.04296875 0.05703125
2 0.95390625 0.173046875 0.033203125 0.0234375
2 0.96796875 0.226953125 0.04453125 0.03984375
2 0.771484375 0.219921875 0.037890625 0.0234375
2 0.688671875 0.158203125 0.051171875 0.03359375
2 0.52734375 0.208984375 0.052734375 0.03359375
2 0.530078125 0.2734375 0.0546875 0.0234375
2 0.74140625 0.277734375 0.04453125 0.032421875
0 0.66953125 0.473828125 0.05625 0.059375
0 0.89765625 0.794140625 0.04296875 0.053515625
0 0.96953125 0.651171875 0.0609375 0.059375
6 0.59921875 0.69765625 0.024609375 0.02109375