7 0.375390625 0.714453125 0.12890625 0.10546875
3 0.831640625 0.21953125 0.14921875 0.06875
3 0.28359375 0.8453125 0.09375 0.09375
3 0.823046875 0.837890625 0.09453125 0.06015625
8 0.95859375 0.315625 0.0796875 0.0984375
3 0.553125 0.78046875 0.1046875 0.053125
3 0.36875 0.22890625 0.0921875 0.0921875
7 0.54765625 0.573828125 0.0875 0.0734375
6 0.532421875 0.304296875 0.16953125 0.12265625
5 0.91171875 0.573828125 0.0703125 0.04609375
5 0.72578125 0.892578125 0.1078125 0.07578125
3 0.28125 0.296875 0.1046875 0.0640625
7 0.462890625 0.507421875 0.05703125 0.05703125
7 0.46796875 0.90390625 0.0546875 0.05
5 0.408203125 0.910546875 0.04296875 0.02890625
6 0.094921875 0.507421875 0.065625 0.04609375
7 0.857421875 0.3390625 0.12578125 0.1375
5 0.098828125 0.9140625 0.05625 0.05703125
7 0.95078125 0.89375 0.07265625 0.07265625
6 0.080859375 0.225390625 0.15390625 0.14609375
3 0.03125 0.362890625 0.0625 0.06796875
7 0.180078125 0.226171875 0.09921875 0.05078125
2 0.848046875 0.258984375 0.30390625 0.39453125