9 0.1375 0.9125 0.096875 0.096875
3 0.3359375 0.5109375 0.04375 0.053125
8 0.933984375 0.453125 0.08828125 0.115625
0 0.726953125 0.2578125 0.11328125 0.153125
0 0.20625 0.098828125 0.1671875 0.19765625
8 0.40625 0.80546875 0.05234375 0.05234375
9 0.22265625 0.741015625 0.0953125 0.14296875
10 0.12109375 0.20859375 0.05234375 0.05234375
3 0.6484375 0.429296875 0.059375 0.059375
9 0.901171875 0.699609375 0.1015625 0.08984375
3 0.523828125 0.3703125 0.046875 0.046875
3 0.434765625 0.422265625 0.03828125 0.05546875
1 0.519921875 0.778515625 0.04453125 0.06484375
3 0.586328125 0.4875 0.03671875 0.0625
5 0.887109375 0.27421875 0.04609375 0.04609375
8 0.56953125 0.6265625 0.046875 0.075
8 0.02265625 0.194140625 0.04375 0.05859375
10 0.1953125 0.233203125 0.028125 0.05078125
3 0.148046875 0.469921875 0.0625 0.05625
3 0.3671875 0.375 0.04375 0.0609375
8 0.788671875 0.580078125 0.0375 0.04921875
3 0.276171875 0.27421875 0.071875 0.071875
10 0.765625 0.38984375 0.0359375 0.0359375
8 0.68203125 0.758203125 0.0421875 0.07109375
9 0.491015625 0.969140625 0.06171875 0.06171875
1 0.594921875 0.8171875 0.03828125 0.065625
5 0.841796875 0.5359375 0.02734375 0.03125
3 0.716015625 0.4765625 0.03984375 0.078125
8 0.059375 0.28828125 0.040625 0.040625
10 0.50234375 0.216796875 0.0359375 0.06171875
10 0.3328125 0.33203125 0.03125 0.04375
10 0.937109375 0.3375 0.04453125 0.05625
1 0.66015625 0.684375 0.05 0.0765625
9 0.2953125 0.845703125 0.1234375 0.1234375
8 0.8171875 0.6109375 0.05234375 0.0515625
8 0.326171875 0.67890625 0.05546875 0.0859375
8 0.313671875 0.447265625 0.0359375 0.0359375
10 0.424609375 0.20234375 0.02734375 0.0453125
8 0.58671875 0.54375 0.040625 0.040625
1 0.75546875 0.747265625 0.05703125 0.05703125
0 0.492578125 0.05546875 0.13359375 0.0625
0 0.948828125 0.25703125 0.0390625 0.053125
0 0.610546875 0.8953125 0.0296875 0.03046875
0 0.912890625 0.15859375 0.0296875 0.034375
2 0.18359375 0.357421875 0.071875 0.09921875
10 0.65 0.31875 0.028125 0.04375
1 0.44296875 0.877734375 0.0484375 0.08984375
9 0.480859375 0.293359375 0.07421875 0.0890625
5 0.67734375 0.521484375 0.02734375 0.0265625
1 0.841015625 0.902734375 0.03828125 0.05234375
0 0.356640625 0.186328125 0.15390625 0.15390625
7 0.529296875 0.86875 0.0453125 0.0453125
7 0.56015625 0.898828125 0.0390625 0.0453125
10 0.318359375 0.039453125 0.0265625 0.04609375
10 0.608203125 0.341015625 0.02578125 0.04765625
3 0.08046875 0.496484375 0.0515625 0.05078125
3 0.2640625 0.60625 0.05390625 0.05390625
8 0.2421875 0.548828125 0.040625 0.05234375
8 0.4671875 0.705859375 0.0328125 0.02890625
8 0.394921875 0.528515625 0.03671875 0.0359375
10 0.465625 0.50234375 0.0265625 0.0265625
9 0.875390625 0.765625 0.04609375 0.053125
2 0.79609375 0.48359375 0.0453125 0.0609375
2 0.848828125 0.403515625 0.03984375 0.03984375
2 0.940625 0.591015625 0.046875 0.06484375
2 0.855078125 0.1265625 0.01953125 0.0375
2 0.734765625 0.132421875 0.03984375 0.04609375
2 0.65234375 0.140625 0.0265625 0.04375
8 0.187890625 0.340625 0.03203125 0.059375
8 0.18359375 0.392578125 0.0234375 0.02109375
2 0.459765625 0.673046875 0.08828125 0.1453125
2 0.390625 0.562890625 0.090625 0.13046875
2 0.893359375 0.775390625 0.16171875 0.16875
8 0.675 0.56875 0.03828125 0.03828125
5 0.622265625 0.69765625 0.01875 0.0328125
7 0.721484375 0.87734375 0.01640625 0.01640625
7 0.74140625 0.6703125 0.0234375 0.03125
7 0.595703125 0.719140625 0.01484375 0.0296875
1 0.24609375 0.9546875 0.0375 0.03828125
1 0.365625 0.9359375 0.0265625 0.040625
0 0.79296875 0.217578125 0.1015625 0.1015625