8 0.95 0.31484375 0.1 0.0890625
6 0.519140625 0.155859375 0.05703125 0.053125
8 0.86015625 0.380859375 0.078125 0.06640625
6 0.478125 0.026953125 0.128125 0.0515625
6 0.395703125 0.09453125 0.05703125 0.05
1 0.1515625 0.24609375 0.0828125 0.0578125
3 0.60859375 0.14140625 0.0640625 0.0484375
0 0.073046875 0.57578125 0.14609375 0.0640625
10 0.75625 0.680078125 0.06875 0.03671875
3 0.60546875 0.427734375 0.0578125 0.0578125
10 0.73125 0.356640625 0.053125 0.06484375
1 0.21796875 0.033203125 0.0734375 0.03671875
0 0.0796875 0.36875 0.0765625 0.1125
9 0.960546875 0.187109375 0.07890625 0.08046875
0 0.0421875 0.059765625 0.084375 0.06015625
10 0.663671875 0.108203125 0.059375 0.02890625
9 0.834765625 0.54296875 0.03984375 0.0375
3 0.485546875 0.753125 0.04609375 0.028125
10 0.1375 0.098828125 0.0625 0.03984375
8 0.85546875 0.454296875 0.08046875 0.08046875
3 0.35234375 0.570703125 0.0359375 0.0359375
8 0.9515625 0.547265625 0.05 0.05
0 0.223828125 0.16796875 0.05859375 0.0515625
3 0.457421875 0.37734375 0.0515625 0.0515625
3 0.488671875 0.307421875 0.05078125 0.05078125
6 0.44453125 0.6046875 0.0328125 0.03125
1 0.089453125 0.75546875 0.034375 0.0265625
3 0.44296875 0.501171875 0.0515625 0.04140625
10 0.659765625 0.380859375 0.0375 0.0296875
9 0.848046875 0.328125 0.065625 0.065625
10 0.8046875 0.264453125 0.0375 0.02734375
10 0.044140625 0.22265625 0.02890625 0.0265625
0 0.199609375 0.421484375 0.03125 0.03125
0 0.1265625 0.4765625 0.0296875 0.02890625
5 0.29296875 0.361328125 0.02578125 0.02578125
3 0.584375 0.271875 0.040625 0.0390625
8 0.780859375 0.226171875 0.028125 0.028125
8 0.91875 0.076953125 0.03125 0.03125
2 0.015625 0.19375 0.0296875 0.034375
6 0.1828125 0.557421875 0.03125 0.028125
8 0.9421875 0.036328125 0.034375 0.0203125
1 0.02265625 0.4921875 0.03828125 0.03828125
0 0.230078125 0.35859375 0.03203125 0.0234375
10 0.64296875 0.249609375 0.034375 0.03046875
3 0.41171875 0.528125 0.0421875 0.0421875
3 0.25 0.609765625 0.02109375 0.02109375
5 0.32890625 0.230078125 0.0203125 0.02265625
10 0.7875 0.4171875 0.03125 0.03125
3 0.234375 0.56015625 0.0203125 0.02109375
5 0.535546875 0.34609375 0.0265625 0.0265625
3 0.262109375 0.383984375 0.02265625 0.02109375
2 0.76484375 0.16171875 0.0515625 0.03125
2 0.704296875 0.203515625 0.046875 0.02734375
2 0.71953125 0.270703125 0.0421875 0.03046875
2 0.297265625 0.13125 0.05390625 0.0296875
2 0.330859375 0.058984375 0.06171875 0.03359375
2 0.45546875 0.2234375 0.1171875 0.0734375
2 0.51484375 0.353125 0.103125 0.103125
2 0.421875 0.50703125 0.18046875 0.18125
2 0.582421875 0.4734375 0.14921875 0.075
2 0.255078125 0.371484375 0.24765625 0.24765625
2 0.21015625 0.596484375 0.13125 0.13046875
2 0.297265625 0.684375 0.11796875 0.075
3 0.286328125 0.328125 0.0296875 0.0296875
2 0.03046875 0.339453125 0.0609375 0.07265625
9 0.625 0.4671875 0.025 0.025
3 0.607421875 0.45234375 0.0125 0.0125
9 0.790234375 0.080078125 0.11484375 0.11484375