3 0.226953125 0.86875 0.06796875 0.0484375
3 0.485546875 0.174609375 0.07109375 0.0484375
3 0.403125 0.378515625 0.05390625 0.05390625
0 0.656640625 0.44140625 0.08828125 0.090625
8 0.773046875 0.720703125 0.04375 0.040625
0 0.465234375 0.836328125 0.25078125 0.1125
8 0.252734375 0.695703125 0.0703125 0.06484375
0 0.875390625 0.53671875 0.0796875 0.05546875
10 0.79140625 0.238671875 0.046875 0.04765625
3 0.5421875 0.309375 0.0796875 0.0390625
8 0.67890625 0.339453125 0.034375 0.034375
3 0.50078125 0.409765625 0.05625 0.040625
10 0.753515625 0.45859375 0.05546875 0.0546875
1 0.327734375 0.508203125 0.11796875 0.09296875
3 0.41640625 0.552734375 0.0484375 0.0484375
10 0.9390625 0.649609375 0.053125 0.05859375
3 0.341796875 0.722265625 0.06015625 0.03671875
3 0.5078125 0.474609375 0.075 0.03046875
10 0.662890625 0.080859375 0.0578125 0.0578125
3 0.44921875 0.35 0.0453125 0.0328125
0 0.655078125 0.737890625 0.053125 0.053125
0 0.62734375 0.90703125 0.046875 0.046875
8 0.885546875 0.46875 0.046875 0.03125
3 0.42578125 0.63046875 0.0515625 0.04375
10 0.87578125 0.800390625 0.0734375 0.0578125
8 0.740234375 0.567578125 0.03046875 0.0265625
3 0.31796875 0.751171875 0.0671875 0.03984375
9 0.72734375 0.332421875 0.0421875 0.034375
10 0.860546875 0.32265625 0.06015625 0.05546875
8 0.38359375 0.21796875 0.0390625 0.0234375
7 0.3734375 0.10546875 0.0328125 0.0328125
8 0.846875 0.865234375 0.0375 0.02734375
0 0.78046875 0.3625 0.04375 0.04375
10 0.7734375 0.153515625 0.0578125 0.04453125
0 0.63359375 0.1828125 0.14453125 0.14453125
8 0.853515625 0.66484375 0.04765625 0.034375
8 0.1671875 0.474609375 0.0390625 0.02578125
8 0.102734375 0.709375 0.02890625 0.028125
8 0.301953125 0.229296875 0.03671875 0.02734375
8 0.7171875 0.148828125 0.05625 0.03203125
8 0.78984375 0.9015625 0.0328125 0.0265625
3 0.5671875 0.218359375 0.03125 0.02578125
10 0.756640625 0.5390625 0.071875 0.03125
1 0.611328125 0.217578125 0.02734375 0.02265625
8 0.228125 0.535546875 0.0234375 0.0234375
0 0.023828125 0.762890625 0.04296875 0.0421875
7 0.033203125 0.462109375 0.034375 0.034375
8 0.834375 0.387890625 0.028125 0.02734375
0 0.0265625 0.164453125 0.0390625 0.0390625
8 0.689453125 0.252734375 0.0296875 0.01640625
8 0.8484375 0.595703125 0.040625 0.0234375
3 0.255078125 0.476953125 0.04609375 0.02109375
0 0.68046875 0.830078125 0.0578125 0.0578125
6 0.948046875 0.44453125 0.05859375 0.0921875
7 0.623046875 0.3859375 0.02578125 0.01875
10 0.91953125 0.35859375 0.04453125 0.04375
8 0.586328125 0.473046875 0.028125 0.01640625
7 0.378515625 0.151171875 0.04296875 0.02890625
8 0.59609375 0.51328125 0.0328125 0.0171875
0 0.060546875 0.847265625 0.040625 0.0390625
5 0.008203125 0.62421875 0.01328125 0.0328125
0 0.4046875 0.948046875 0.09453125 0.09453125
7 0.171875 0.2875 0.0328125 0.0328125
0 0.6828125 0.5359375 0.04375 0.034375
5 0.983203125 0.564453125 0.02890625 0.09453125
8 0.2125 0.369140625 0.046875 0.03203125
1 0.126953125 0.63046875 0.18515625 0.10625
1 0.1625 0.923828125 0.1 0.07109375
1 0.166015625 0.80546875 0.06484375 0.034375
1 0.284765625 0.346484375 0.09453125 0.11953125
1 0.27734375 0.282421875 0.115625 0.05078125
5 0.2328125 0.2734375 0.046875 0.034375
5 0.0734375 0.39375 0.04609375 0.04609375
8 0.03125 0.533203125 0.0203125 0.0234375
0 0.53125 0.631640625 0.15 0.13203125
10 0.937109375 0.8484375 0.12578125 0.1421875
1 0.93984375 0.4703125 0.0421875 0.040625
6 0.8546875 0.125 0.0765625 0.0859375
6 0.880859375 0.23046875 0.03671875 0.040625
6 0.8734375 0.274609375 0.0171875 0.0171875