3 0.553515625 0.677734375 0.065234375 0.032421875
3 0.384765625 0.717578125 0.07109375 0.041796875
3 0.201171875 0.411328125 0.083203125 0.0484375
7 0.43984375 0.6359375 0.0828125 0.06953125
3 0.4421875 0.329296875 0.073828125 0.044140625
3 0.723828125 0.713671875 0.05546875 0.040234375
6 0.8140625 0.384375 0.085546875 0.060546875
7 0.934375 0.509765625 0.05859375 0.0484375
6 0.666796875 0.748046875 0.078125 0.05
6 0.925390625 0.377734375 0.094140625 0.118359375
6 0.540625 0.37421875 0.105859375 0.075390625
3 0.38359375 0.375 0.061328125 0.032421875
3 0.719921875 0.330859375 0.08984375 0.041796875
3 0.85078125 0.336328125 0.053125 0.04453125
3 0.88828125 0.7109375 0.052734375 0.03125
6 0.26875 0.503125 0.04296875 0.030859375
7 0.549609375 0.54453125 0.066796875 0.0484375
7 0.321875 0.330859375 0.04765625 0.03671875
6 0.255078125 0.330078125 0.103515625 0.08359375
7 0.49453125 0.502734375 0.04921875 0.034375
7 0.819140625 0.75234375 0.093359375 0.036328125
6 0.77890625 0.5421875 0.041015625 0.028515625
7 0.49921875 0.757421875 0.034765625 0.028515625
3 0.989453125 0.304296875 0.02109375 0.051953125
3 0.1453125 0.7265625 0.04609375 0.028515625
3 0.97578125 0.675390625 0.044921875 0.023046875
6 0.462890625 0.757421875 0.03671875 0.02265625
5 0.271875 0.763671875 0.046875 0.026953125
7 0.745703125 0.405859375 0.048828125 0.055078125
6 0.925390625 0.745703125 0.043359375 0.024609375
7 0.7953125 0.33125 0.019921875 0.027734375
2 0.757421875 0.349609375 0.245703125 0.260546875