6 0.6796875 0.7546875 0.065625 0.0828125
1 0.69921875 0.559765625 0.0890625 0.08984375
9 0.42109375 0.723828125 0.0859375 0.11640625
0 0.8390625 0.114453125 0.078125 0.09765625
8 0.244921875 0.055078125 0.09140625 0.09140625
8 0.7984375 0.030078125 0.078125 0.06015625
1 0.787890625 0.4984375 0.12421875 0.1015625
10 0.826171875 0.280078125 0.05234375 0.103125
1 0.529296875 0.584765625 0.06953125 0.125
6 0.853125 0.7453125 0.0875 0.1171875
10 0.1984375 0.267578125 0.0609375 0.08359375
9 0.581640625 0.825 0.05546875 0.0546875
10 0.75390625 0.129296875 0.0375 0.04609375
6 0.948046875 0.658984375 0.08125 0.08125
0 0.615234375 0.098046875 0.0578125 0.0578125
0 0.42421875 0.215625 0.0375 0.0625
5 0.42890625 0.929296875 0.115625 0.14140625
9 0.233203125 0.75078125 0.04921875 0.05
6 0.724609375 0.6515625 0.03984375 0.053125
1 0.602734375 0.508203125 0.05 0.05859375
0 0.487890625 0.134375 0.06328125 0.0953125
6 0.333984375 0.380078125 0.0609375 0.0609375
1 0.6140625 0.316796875 0.11875 0.13046875
9 0.727734375 0.813671875 0.03984375 0.06484375
2 0.791015625 0.96640625 0.04140625 0.0546875
1 0.265625 0.402734375 0.0828125 0.0828125
9 0.67890625 0.91484375 0.0421875 0.046875
6 0.11640625 0.49375 0.0328125 0.0515625
0 0.591015625 0.90234375 0.040625 0.0703125
10 0.670703125 0.17421875 0.0328125 0.0328125
6 0.077734375 0.540625 0.04453125 0.0546875
9 0.05 0.8078125 0.0328125 0.05
9 0.926171875 0.823828125 0.12578125 0.12578125
9 0.190234375 0.65625 0.03671875 0.0421875
1 0.190625 0.6015625 0.0375 0.046875
2 0.787890625 0.3890625 0.05 0.065625
6 0.355078125 0.4390625 0.03671875 0.0640625
2 0.8671875 0.9328125 0.040625 0.0625
5 0.333203125 0.78828125 0.0546875 0.0796875
5 0.196484375 0.469921875 0.02265625 0.03984375
1 0.428125 0.35859375 0.1109375 0.1265625
9 0.36796875 0.653515625 0.0453125 0.0609375
0 0.931640625 0.17109375 0.1359375 0.209375
10 0.262109375 0.148046875 0.02578125 0.04765625
5 0.14296875 0.980078125 0.0453125 0.03984375
10 0.126953125 0.1640625 0.0359375 0.03515625
5 0.2703125 0.98359375 0.078125 0.0328125
0 0.30859375 0.218359375 0.065625 0.07578125
1 0.41796875 0.488671875 0.0484375 0.04453125
6 0.4296875 0.6234375 0.0171875 0.0203125
6 0.384765625 0.559765625 0.01484375 0.01484375
6 0.341015625 0.562109375 0.0125 0.0125
6 0.298828125 0.55078125 0.01171875 0.0234375
6 0.34140625 0.676171875 0.0125 0.01015625
5 0.3875 0.79765625 0.021875 0.0453125
9 0.2734375 0.816015625 0.025 0.03515625
9 0.796484375 0.888671875 0.04921875 0.04921875
2 0.893359375 0.331640625 0.03671875 0.07421875
2 0.6875 0.3265625 0.06328125 0.0625
2 0.466015625 0.0171875 0.17890625 0.034375
2 0.5125 0.744921875 0.16015625 0.1609375
0 0.112109375 0.7640625 0.03515625 0.0359375
0 0.17734375 0.859765625 0.0109375 0.02265625
0 0.2453125 0.8640625 0.021875 0.021875
0 0.334765625 0.9359375 0.01875 0.0265625
0 0.286328125 0.947265625 0.01640625 0.01953125
2 0.1171875 0.734765625 0.11015625 0.11015625
6 0.52890625 0.7671875 0.0328125 0.0328125
9 0.517578125 0.696875 0.02734375 0.034375
0 0.19140625 0.117578125 0.0546875 0.0828125