5 0.303125 0.45078125 0.028125 0.0390625
1 0.346875 0.45390625 0.0265625 0.0375
5 0.4984375 0.6625 0.0359375 0.0359375
5 0.66796875 0.43515625 0.03515625 0.03515625
1 0.715625 0.206640625 0.025 0.0359375
5 0.559375 0.116015625 0.0296875 0.04921875
3 0.40546875 0.8359375 0.02578125 0.02578125
5 0.3625 0.17265625 0.0265625 0.0515625
5 0.200390625 0.634375 0.034375 0.034375
5 0.34140625 0.752734375 0.03125 0.04140625
5 0.604296875 0.262109375 0.03203125 0.04609375
5 0.52890625 0.830859375 0.04140625 0.04140625
5 0.196484375 0.871875 0.02578125 0.040625
5 0.36640625 0.60234375 0.0265625 0.0265625
5 0.41015625 0.715625 0.021875 0.03125
8 0.471875 0.80078125 0.02890625 0.02890625
5 0.248828125 0.75234375 0.02734375 0.0421875
10 0.225 0.66484375 0.0265625 0.0390625
5 0.365625 0.489453125 0.03125 0.03046875
3 0.53359375 0.76796875 0.028125 0.028125
10 0.409375 0.6609375 0.021875 0.028125
1 0.319140625 0.663671875 0.025 0.025
5 0.326171875 0.0328125 0.03359375 0.0328125
3 0.498828125 0.603515625 0.02578125 0.0296875
5 0.433203125 0.215234375 0.028125 0.028125
3 0.969140625 0.298828125 0.02734375 0.03984375
3 0.2515625 0.633984375 0.01875 0.01953125
8 0.426953125 0.91875 0.03203125 0.040625
3 0.93046875 0.25625 0.03828125 0.03828125
5 0.893359375 0.138671875 0.0390625 0.0390625
10 0.252734375 0.57421875 0.02109375 0.0328125
10 0.219140625 0.0953125 0.021875 0.0234375
3 0.73671875 0.243359375 0.0265625 0.0421875
3 0.51640625 0.74375 0.025 0.034375
1 0.3421875 0.140234375 0.025 0.03046875
5 0.201171875 0.97734375 0.0359375 0.0359375
1 0.43515625 0.51875 0.028125 0.0375
3 0.415234375 0.601171875 0.01953125 0.02421875
0 0.2984375 0.694140625 0.021875 0.021875
5 0.7578125 0.50234375 0.03046875 0.0296875
1 0.733203125 0.040625 0.02421875 0.034375
1 0.313671875 0.894140625 0.01796875 0.028125
5 0.415234375 0.4296875 0.01953125 0.0328125
5 0.2234375 0.4796875 0.025 0.028125
10 0.4734375 0.09140625 0.028125 0.0390625
5 0.573828125 0.036328125 0.04140625 0.04140625
3 0.558203125 0.192578125 0.02578125 0.034375
1 0.653515625 0.036328125 0.03515625 0.0359375
3 0.51640625 0.68984375 0.0171875 0.0203125
3 0.31953125 0.7234375 0.0234375 0.0234375
3 0.634375 0.095703125 0.03046875 0.03046875
5 0.790625 0.2484375 0.0390625 0.0390625
5 0.57265625 0.426953125 0.034375 0.034375
10 0.583984375 0.15390625 0.01875 0.0234375
1 0.778515625 0.678515625 0.0296875 0.0296875
0 0.36015625 0.105078125 0.021875 0.034375
0 0.273828125 0.544140625 0.02109375 0.0296875
3 0.890625 0.636328125 0.021875 0.02265625
5 0.9328125 0.106640625 0.03125 0.04921875
10 0.828515625 0.21015625 0.0390625 0.03984375
10 0.231640625 0.3578125 0.0203125 0.021875
7 0.38671875 0.803125 0.01875 0.01875
3 0.316015625 0.16875 0.02265625 0.028125
3 0.4609375 0.3140625 0.0203125 0.025
0 0.673046875 0.8484375 0.021875 0.021875
5 0.578515625 0.7125 0.02265625 0.0296875
5 0.705078125 0.27109375 0.025 0.03125
3 0.251953125 0.44765625 0.01875 0.0234375
5 0.74453125 0.616796875 0.03125 0.04296875
3 0.3859375 0.74765625 0.021875 0.03125
10 0.651171875 0.54453125 0.021875 0.021875
5 0.639453125 0.6984375 0.03046875 0.03046875
10 0.9265625 0.355078125 0.0296875 0.04296875
3 0.529296875 0.22578125 0.02265625 0.0265625
3 0.2296875 0.226953125 0.0234375 0.0234375
3 0.635546875 0.797265625 0.01796875 0.02734375
3 0.59453125 0.79765625 0.0234375 0.0234375
10 0.248828125 0.8140625 0.021875 0.025
10 0.644140625 0.651171875 0.0234375 0.02265625
3 0.57890625 0.612890625 0.0203125 0.02109375
0 0.63359375 0.905859375 0.0171875 0.02421875
10 0.45859375 0.5453125 0.021875 0.025
10 0.253125 0.20078125 0.0203125 0.0203125
0 0.80078125 0.096484375 0.0515625 0.05546875
0 0.5546875 0.96640625 0.021875 0.03125
1 0.471875 0.748828125 0.0203125 0.0203125
5 0.51875 0.58359375 0.025 0.0265625
3 0.408984375 0.110546875 0.02578125 0.03203125
10 0.768359375 0.44375 0.025 0.025
3 0.6921875 0.095703125 0.021875 0.028125
10 0.56953125 0.47890625 0.015625 0.0171875
3 0.744140625 0.743359375 0.02265625 0.021875
3 0.7203125 0.374609375 0.02578125 0.025
3 0.542578125 0.55703125 0.02578125 0.0296875
3 0.341796875 0.978125 0.0171875 0.0171875
3 0.797265625 0.164453125 0.03046875 0.03359375
3 0.369921875 0.370703125 0.0203125 0.01953125
0 0.546875 0.32578125 0.028125 0.028125
3 0.82890625 0.766015625 0.0234375 0.0234375
10 0.278515625 0.300390625 0.01875 0.0203125
0 0.46015625 0.2515625 0.0234375 0.0234375
0 0.52109375 0.353515625 0.0234375 0.03515625
10 0.60390625 0.643359375 0.021875 0.021875
0 0.591796875 0.906640625 0.01640625 0.02578125
0 0.7359375 0.831640625 0.0375 0.03671875
0 0.6234375 0.364453125 0.021875 0.02421875
10 0.499609375 0.4984375 0.02265625 0.021875
3 0.5109375 0.91171875 0.025 0.0296875
10 0.528125 0.293359375 0.021875 0.02265625
1 0.392578125 0.341796875 0.0203125 0.03046875
5 0.619140625 0.435546875 0.02578125 0.04453125
10 0.346875 0.51796875 0.0171875 0.0171875
10 0.509375 0.11484375 0.0234375 0.0390625
3 0.81796875 0.59765625 0.01953125 0.01953125
10 0.819921875 0.4515625 0.02578125 0.02578125
3 0.22734375 0.90234375 0.0171875 0.021875
5 0.6875 0.662890625 0.03125 0.0359375
3 0.52890625 0.9875 0.0203125 0.025
3 0.626171875 0.62421875 0.02109375 0.021875
0 0.77265625 0.72890625 0.0359375 0.0359375
0 0.89609375 0.04140625 0.03359375 0.03359375
10 0.473046875 0.690625 0.0171875 0.028125
1 0.6671875 0.198046875 0.0234375 0.03046875
1 0.61484375 0.486328125 0.0234375 0.03125
0 0.755078125 0.34921875 0.03671875 0.03671875
3 0.740234375 0.412890625 0.02421875 0.025
10 0.877734375 0.28359375 0.02890625 0.040625
3 0.666796875 0.62734375 0.02265625 0.0234375
7 0.47109375 0.8625 0.0171875 0.0328125
1 0.5015625 0.038671875 0.01875 0.028125
10 0.755859375 0.006640625 0.01484375 0.01328125
10 0.72890625 0.52890625 0.025 0.034375
3 0.7046875 0.90390625 0.0234375 0.0234375
1 0.675 0.8015625 0.021875 0.021875
0 0.8625 0.51796875 0.0328125 0.040625
3 0.482421875 0.350390625 0.01796875 0.02734375
3 0.3015625 0.3921875 0.01875 0.028125
1 0.72265625 0.7171875 0.025 0.025
9 0.573046875 0.5859375 0.01484375 0.0140625
0 0.46484375 0.037109375 0.02265625 0.0234375
1 0.4515625 0.777734375 0.0203125 0.01796875
9 0.479296875 0.467578125 0.03046875 0.03046875
5 0.459375 0.437109375 0.021875 0.021875
5 0.555078125 0.433984375 0.02109375 0.02265625
3 0.49296875 0.884765625 0.021875 0.02109375
0 0.475 0.970703125 0.034375 0.05859375
1 0.229296875 0.7859375 0.02578125 0.03125
1 0.8 0.51328125 0.0265625 0.040625
6 0.561328125 0.735546875 0.01484375 0.01484375
0 0.55546875 0.85546875 0.0171875 0.0234375
1 0.70078125 0.6046875 0.02109375 0.0203125
1 0.68359375 0.521875 0.015625 0.028125
1 0.625390625 0.309375 0.028125 0.0359375
1 0.526171875 0.4171875 0.021875 0.021875
0 0.3234375 0.303515625 0.025 0.025
0 0.319140625 0.95234375 0.01796875 0.0234375
0 0.269921875 0.95859375 0.0265625 0.0265625
0 0.25 0.69375 0.02421875 0.02421875
1 0.205078125 0.5765625 0.02734375 0.028125
0 0.855078125 0.712890625 0.03515625 0.04140625
0 0.8296875 0.384765625 0.0375 0.053125
0 0.930078125 0.5609375 0.02890625 0.04375
0 0.74609375 0.094921875 0.0296875 0.04921875
0 0.45390625 0.662109375 0.03125 0.02421875
0 0.430078125 0.8640625 0.025 0.025
0 0.538671875 0.717578125 0.0203125 0.02890625
0 0.587890625 0.564453125 0.0234375 0.03671875
1 0.975390625 0.13671875 0.0203125 0.0359375