8 0.95 0.31484375 0.09921875 0.0890625
6 0.519140625 0.155859375 0.056640625 0.053125
8 0.86015625 0.380859375 0.078515625 0.066015625
6 0.478125 0.026953125 0.128515625 0.0515625
6 0.395703125 0.09453125 0.057421875 0.049609375
1 0.1515625 0.24609375 0.082421875 0.0578125
3 0.60859375 0.14140625 0.063671875 0.04921875
0 0.073046875 0.57578125 0.145703125 0.06328125
10 0.75625 0.680078125 0.068359375 0.03671875
3 0.60546875 0.427734375 0.07734375 0.038671875
10 0.73125 0.356640625 0.05234375 0.064453125
1 0.21796875 0.033203125 0.073828125 0.037109375
0 0.0796875 0.36875 0.0765625 0.11328125
9 0.962109375 0.1875 0.075390625 0.0859375
0 0.0421875 0.059765625 0.084375 0.06015625
10 0.663671875 0.108203125 0.059375 0.029296875
9 0.834765625 0.54296875 0.039453125 0.037890625
3 0.485546875 0.753125 0.046484375 0.027734375
10 0.1375 0.098828125 0.06171875 0.03984375
8 0.85546875 0.454296875 0.08046875 0.080859375
3 0.35234375 0.570703125 0.040625 0.030859375
8 0.9515625 0.547265625 0.055078125 0.044921875
0 0.223828125 0.16796875 0.058984375 0.05078125
3 0.457421875 0.37734375 0.0578125 0.0453125
3 0.488671875 0.307421875 0.054296875 0.047265625
6 0.44453125 0.6046875 0.033203125 0.030859375
1 0.089453125 0.75546875 0.034375 0.026953125
3 0.44296875 0.501171875 0.0515625 0.04140625
10 0.659765625 0.380859375 0.0375 0.0296875
9 0.848046875 0.328125 0.090625 0.040625
10 0.8046875 0.264453125 0.037109375 0.027734375
10 0.044140625 0.22265625 0.02890625 0.0265625
0 0.199609375 0.421484375 0.0375 0.025390625
0 0.1265625 0.4765625 0.03515625 0.023046875
5 0.29296875 0.361328125 0.025390625 0.0265625
3 0.584375 0.271875 0.040234375 0.039453125
8 0.780859375 0.226171875 0.02890625 0.02734375
8 0.91875 0.076953125 0.033984375 0.028125
2 0.015625 0.19375 0.030078125 0.034765625
6 0.1828125 0.557421875 0.031640625 0.028125
8 0.9421875 0.036328125 0.033984375 0.0203125
1 0.02265625 0.4921875 0.0421875 0.034765625
0 0.230078125 0.35859375 0.031640625 0.02265625
10 0.64296875 0.249609375 0.034375 0.030078125
3 0.41171875 0.528125 0.043359375 0.041015625
3 0.25 0.609765625 0.02265625 0.019921875
5 0.32890625 0.230078125 0.0203125 0.023046875
10 0.7875 0.4171875 0.03359375 0.02734375
3 0.234375 0.56015625 0.02421875 0.016796875
5 0.535546875 0.34609375 0.0328125 0.02109375
3 0.262109375 0.383984375 0.02265625 0.02109375
2 0.76484375 0.16171875 0.0515625 0.031640625
2 0.704296875 0.203515625 0.046875 0.02734375
2 0.71953125 0.270703125 0.04296875 0.030078125
2 0.297265625 0.13125 0.054296875 0.029296875
2 0.330859375 0.058984375 0.062109375 0.03359375
2 0.45546875 0.2234375 0.11640625 0.073046875
2 0.51484375 0.353125 0.11640625 0.088671875
2 0.421875 0.50703125 0.200390625 0.16171875
2 0.582421875 0.4734375 0.148828125 0.07578125
2 0.255078125 0.371484375 0.166015625 0.328515625
2 0.21015625 0.596484375 0.15859375 0.103125
2 0.297265625 0.684375 0.117578125 0.075
3 0.286328125 0.328125 0.03046875 0.028515625
2 0.025 0.33984375 0.049609375 0.096484375
9 0.625 0.4671875 0.027734375 0.022265625
3 0.607421875 0.45234375 0.01328125 0.012109375
9 0.790234375 0.080078125 0.13515625 0.094921875